EESchema Schematic File Version 4
EELAYER 30 0
EELAYER END
$Descr A4 11693 8268
encoding utf-8
Sheet 1 1
Title "1000Machine"
Date "2020-05-28"
Rev "1.0.0"
Comp "0x220E"
Comment1 ""
Comment2 ""
Comment3 ""
Comment4 ""
$EndDescr
$Comp
L my_arduino:ARDUINO_PRO_MINI B1
U 1 1 5E9030FC
P 4250 2400
F 0 "B1" H 4000 3250 50  0000 C CNN
F 1 "ARDUINO_PRO_MINI" H 4300 1550 50  0000 C CNN
F 2 "my_arduino:ARDUINO_PRO_MINI" H 4250 2400 50  0001 L BNN
F 3 "" H 3950 3230 50  0001 C CNN
	1    4250 2400
	1    0    0    -1  
$EndComp
$Comp
L my_module:DFPlayer_Mini U1
U 1 1 5E904B5D
P 7200 2800
F 0 "U1" H 6850 3550 50  0000 C CNN
F 1 "DFPlayer_Mini" H 7050 1950 50  0000 C CNN
F 2 "my_module:DFPlayer_Mini" H 7200 2800 50  0001 L BNN
F 3 "DFR0299" H 7200 2800 50  0001 L BNN
F 4 "Dfplayer - a Mini Mp3 Player" H 7200 2800 50  0001 L BNN "Field4"
F 5 "Unavailable" H 7200 2800 50  0001 L BNN "Field5"
F 6 "None" H 7200 2800 50  0001 L BNN "Field6"
F 7 "DFRobot" H 7200 2800 50  0001 L BNN "Field7"
F 8 "None" H 7200 2800 50  0001 L BNN "Field8"
	1    7200 2800
	-1   0    0    -1  
$EndComp
$Comp
L power:+5V #PWR0101
U 1 1 5E9050AF
P 2350 1900
F 0 "#PWR0101" H 2350 1750 50  0001 C CNN
F 1 "+5V" H 2365 2073 50  0000 C CNN
F 2 "" H 2350 1900 50  0001 C CNN
F 3 "" H 2350 1900 50  0001 C CNN
	1    2350 1900
	1    0    0    -1  
$EndComp
$Comp
L Connector:Conn_01x02_Male J2
U 1 1 5E9051B9
P 1500 2850
F 0 "J2" H 1500 3000 50  0000 C CNN
F 1 "Conn_01x02_Male" H 1150 2800 50  0000 C CNN
F 2 "Connector_JST:JST_PH_B2B-PH-K_1x02_P2.00mm_Vertical" H 1500 2850 50  0001 C CNN
F 3 "~" H 1500 2850 50  0001 C CNN
	1    1500 2850
	1    0    0    -1  
$EndComp
$Comp
L Connector:Conn_01x04_Male J1
U 1 1 5E9053FF
P 1500 2150
F 0 "J1" H 1500 2400 50  0000 C CNN
F 1 "Conn_01x04_Male" H 1000 2150 50  0000 C CNN
F 2 "Connector_JST:JST_PH_B4B-PH-K_1x04_P2.00mm_Vertical" H 1500 2150 50  0001 C CNN
F 3 "~" H 1500 2150 50  0001 C CNN
	1    1500 2150
	1    0    0    -1  
$EndComp
Text Label 8150 3300 2    50   ~ 0
SPK2
Text Label 8150 3200 2    50   ~ 0
SPK1
$Comp
L Connector:Conn_01x03_Male J3
U 1 1 5E905835
P 1500 3450
F 0 "J3" H 1500 3700 50  0000 C CNN
F 1 "Conn_01x03_Male" H 1150 3450 50  0000 C CNN
F 2 "Connector_JST:JST_PH_B3B-PH-K_1x03_P2.00mm_Vertical" H 1500 3450 50  0001 C CNN
F 3 "~" H 1500 3450 50  0001 C CNN
	1    1500 3450
	1    0    0    -1  
$EndComp
$Comp
L Connector:Conn_01x03_Male J4
U 1 1 5E9058EA
P 1550 4200
F 0 "J4" H 1550 4450 50  0000 C CNN
F 1 "Conn_01x03_Male" H 1200 4200 50  0000 C CNN
F 2 "Connector_JST:JST_PH_B3B-PH-K_1x03_P2.00mm_Vertical" H 1550 4200 50  0001 C CNN
F 3 "~" H 1550 4200 50  0001 C CNN
	1    1550 4200
	1    0    0    -1  
$EndComp
Text Label 2100 2850 2    50   ~ 0
SPK1
Text Label 2100 2950 2    50   ~ 0
SPK2
Wire Wire Line
	1700 2850 2100 2850
Wire Wire Line
	2100 2950 1700 2950
Wire Wire Line
	2100 3350 1700 3350
Wire Wire Line
	2100 3450 1700 3450
Wire Wire Line
	2100 3550 1700 3550
Wire Wire Line
	2150 4100 1750 4100
Wire Wire Line
	2150 4300 1750 4300
Wire Wire Line
	2100 3350 2100 3300
$Comp
L power:+5V #PWR0102
U 1 1 5E906249
P 2100 3300
F 0 "#PWR0102" H 2100 3150 50  0001 C CNN
F 1 "+5V" H 2115 3473 50  0000 C CNN
F 2 "" H 2100 3300 50  0001 C CNN
F 3 "" H 2100 3300 50  0001 C CNN
	1    2100 3300
	1    0    0    -1  
$EndComp
$Comp
L power:GND #PWR0103
U 1 1 5E9062FD
P 2100 3600
F 0 "#PWR0103" H 2100 3350 50  0001 C CNN
F 1 "GND" H 2105 3427 50  0000 C CNN
F 2 "" H 2100 3600 50  0001 C CNN
F 3 "" H 2100 3600 50  0001 C CNN
	1    2100 3600
	1    0    0    -1  
$EndComp
Wire Wire Line
	2100 3550 2100 3600
$Comp
L power:GND #PWR0104
U 1 1 5E9063AF
P 2350 4250
F 0 "#PWR0104" H 2350 4000 50  0001 C CNN
F 1 "GND" H 2355 4077 50  0000 C CNN
F 2 "" H 2350 4250 50  0001 C CNN
F 3 "" H 2350 4250 50  0001 C CNN
	1    2350 4250
	1    0    0    -1  
$EndComp
Wire Wire Line
	2350 4200 2350 4250
Wire Wire Line
	1750 4200 2350 4200
$Comp
L power:GND #PWR0105
U 1 1 5E9066B9
P 2400 2400
F 0 "#PWR0105" H 2400 2150 50  0001 C CNN
F 1 "GND" H 2405 2227 50  0000 C CNN
F 2 "" H 2400 2400 50  0001 C CNN
F 3 "" H 2400 2400 50  0001 C CNN
	1    2400 2400
	1    0    0    -1  
$EndComp
Wire Wire Line
	2400 2350 2000 2350
Connection ~ 2400 2350
Wire Wire Line
	2400 2350 2400 2400
Wire Wire Line
	1700 2250 2100 2250
Text Label 2100 2250 2    50   ~ 0
handset
Text Label 2100 3450 2    50   ~ 0
poti
Text Label 2150 4100 2    50   ~ 0
dial
Text Label 2150 4300 2    50   ~ 0
dialStat
Text Label 5100 2400 2    50   ~ 0
poti
Wire Wire Line
	4750 2400 5100 2400
Wire Wire Line
	3500 2100 3850 2100
Wire Wire Line
	3500 2200 3850 2200
Wire Wire Line
	3500 2300 3850 2300
Text Label 3500 2100 0    50   ~ 0
dial
Text Label 3500 2200 0    50   ~ 0
dialStat
Text Label 3500 2300 0    50   ~ 0
handset
Wire Wire Line
	8150 3200 7800 3200
Wire Wire Line
	8150 3300 7800 3300
$Comp
L power:+5V #PWR0106
U 1 1 5E9092DF
P 6450 2100
F 0 "#PWR0106" H 6450 1950 50  0001 C CNN
F 1 "+5V" H 6465 2273 50  0000 C CNN
F 2 "" H 6450 2100 50  0001 C CNN
F 3 "" H 6450 2100 50  0001 C CNN
	1    6450 2100
	-1   0    0    -1  
$EndComp
$Comp
L power:GND #PWR0107
U 1 1 5E909326
P 3100 2100
F 0 "#PWR0107" H 3100 1850 50  0001 C CNN
F 1 "GND" H 3105 1927 50  0000 C CNN
F 2 "" H 3100 2100 50  0001 C CNN
F 3 "" H 3100 2100 50  0001 C CNN
	1    3100 2100
	1    0    0    -1  
$EndComp
Wire Wire Line
	3850 2000 3100 2000
Wire Wire Line
	3100 2000 3100 2100
$Comp
L power:GND #PWR0108
U 1 1 5E909600
P 6450 3600
F 0 "#PWR0108" H 6450 3350 50  0001 C CNN
F 1 "GND" H 6455 3427 50  0000 C CNN
F 2 "" H 6450 3600 50  0001 C CNN
F 3 "" H 6450 3600 50  0001 C CNN
	1    6450 3600
	-1   0    0    -1  
$EndComp
Wire Wire Line
	6600 2200 6450 2200
Wire Wire Line
	6450 2200 6450 2100
Wire Wire Line
	6600 3500 6450 3500
Wire Wire Line
	6450 3500 6450 3600
$Comp
L power:+5V #PWR0109
U 1 1 5E90AD44
P 4900 1900
F 0 "#PWR0109" H 4900 1750 50  0001 C CNN
F 1 "+5V" H 4915 2073 50  0000 C CNN
F 2 "" H 4900 1900 50  0001 C CNN
F 3 "" H 4900 1900 50  0001 C CNN
	1    4900 1900
	1    0    0    -1  
$EndComp
Wire Wire Line
	4750 2000 4900 2000
Wire Wire Line
	4900 2000 4900 1900
$Comp
L Device:R R1
U 1 1 5E90DD9A
P 5700 2700
F 0 "R1" V 5600 2700 50  0000 C CNN
F 1 "1k" V 5700 2700 50  0000 C CNN
F 2 "Resistor_THT:R_Axial_DIN0207_L6.3mm_D2.5mm_P10.16mm_Horizontal" V 5630 2700 50  0001 C CNN
F 3 "~" H 5700 2700 50  0001 C CNN
	1    5700 2700
	0    1    1    0   
$EndComp
$Comp
L Device:R R2
U 1 1 5E90DDE4
P 5700 2800
F 0 "R2" V 5800 2800 50  0000 C CNN
F 1 "1k" V 5700 2800 50  0000 C CNN
F 2 "Resistor_THT:R_Axial_DIN0207_L6.3mm_D2.5mm_P10.16mm_Horizontal" V 5630 2800 50  0001 C CNN
F 3 "~" H 5700 2800 50  0001 C CNN
	1    5700 2800
	0    1    1    0   
$EndComp
Wire Wire Line
	5550 2700 4750 2700
Wire Wire Line
	4750 2800 5550 2800
Wire Wire Line
	5850 2800 6600 2800
Wire Wire Line
	6600 2700 5850 2700
NoConn ~ 3850 1700
NoConn ~ 3850 1800
NoConn ~ 3850 1900
NoConn ~ 3850 2500
NoConn ~ 3850 2600
NoConn ~ 3850 2700
NoConn ~ 3850 2800
NoConn ~ 3850 3000
NoConn ~ 3850 3100
NoConn ~ 4750 3100
NoConn ~ 4750 3000
NoConn ~ 4750 2600
NoConn ~ 4750 2500
NoConn ~ 4750 2300
NoConn ~ 4750 2200
NoConn ~ 4750 2100
NoConn ~ 4750 1900
NoConn ~ 4750 1800
NoConn ~ 4750 1700
NoConn ~ 6600 2400
NoConn ~ 6600 2500
NoConn ~ 6600 3000
NoConn ~ 6600 3100
NoConn ~ 7800 3000
NoConn ~ 7800 2900
NoConn ~ 7800 2700
NoConn ~ 7800 2600
NoConn ~ 7800 2400
$Comp
L power:PWR_FLAG #FLG0101
U 1 1 5E91967F
P 2000 2400
F 0 "#FLG0101" H 2000 2475 50  0001 C CNN
F 1 "PWR_FLAG" H 2000 2573 50  0000 C CNN
F 2 "" H 2000 2400 50  0001 C CNN
F 3 "~" H 2000 2400 50  0001 C CNN
	1    2000 2400
	-1   0    0    1   
$EndComp
Wire Wire Line
	2000 2350 2000 2400
Connection ~ 2000 2350
Wire Wire Line
	2000 2350 1700 2350
$Comp
L power:PWR_FLAG #FLG0102
U 1 1 5E91A8F8
P 2050 1900
F 0 "#FLG0102" H 2050 1975 50  0001 C CNN
F 1 "PWR_FLAG" H 2050 2074 50  0000 C CNN
F 2 "" H 2050 1900 50  0001 C CNN
F 3 "~" H 2050 1900 50  0001 C CNN
	1    2050 1900
	1    0    0    -1  
$EndComp
Wire Wire Line
	1700 2050 2400 2050
Wire Wire Line
	2400 2050 2400 2350
Wire Wire Line
	2350 2150 2050 2150
Wire Wire Line
	2350 1900 2350 2150
Wire Wire Line
	2050 1900 2050 2150
Connection ~ 2050 2150
Wire Wire Line
	2050 2150 1700 2150
$Comp
L Connector:Conn_01x02_Male J5
U 1 1 5E91E064
P 1550 4650
F 0 "J5" H 1550 4800 50  0000 C CNN
F 1 "Conn_01x02_Male" H 1200 4600 50  0000 C CNN
F 2 "Connector_JST:JST_PH_B2B-PH-K_1x02_P2.00mm_Vertical" H 1550 4650 50  0001 C CNN
F 3 "~" H 1550 4650 50  0001 C CNN
	1    1550 4650
	1    0    0    -1  
$EndComp
Wire Wire Line
	1750 4650 2150 4650
Wire Wire Line
	2150 4750 1750 4750
Text Label 2150 4650 2    50   ~ 0
switch
$Comp
L power:GND #PWR0110
U 1 1 5E91E935
P 2150 4850
F 0 "#PWR0110" H 2150 4600 50  0001 C CNN
F 1 "GND" H 2155 4677 50  0000 C CNN
F 2 "" H 2150 4850 50  0001 C CNN
F 3 "" H 2150 4850 50  0001 C CNN
	1    2150 4850
	1    0    0    -1  
$EndComp
Wire Wire Line
	2150 4750 2150 4850
Text Label 3500 2400 0    50   ~ 0
switch
Wire Wire Line
	3500 2400 3850 2400
$Comp
L my_graphic:KiCad_LOGO LOGO1
U 1 1 5ED11BE2
P 2800 6750
F 0 "LOGO1" H 2800 6600 50  0001 C CNN
F 1 "KiCad_LOGO" H 2800 6900 50  0001 C CNN
F 2 "Symbol:KiCad-Logo2_5mm_SilkScreen" H 2800 6750 50  0001 C CNN
F 3 "" H 2800 6750 50  0001 C CNN
	1    2800 6750
	1    0    0    -1  
$EndComp
$Comp
L my_logo:MY_LOGO LOGO2
U 1 1 5ED1AF69
P 2100 6650
F 0 "LOGO2" H 2070 6920 50  0001 C CNN
F 1 "MY_LOGO" H 2105 6375 50  0001 C CNN
F 2 "my_logo:small" H 2100 6650 50  0001 C CNN
F 3 "" H 2100 6650 50  0001 C CNN
	1    2100 6650
	1    0    0    -1  
$EndComp
$EndSCHEMATC
