G04 #@! TF.GenerationSoftware,KiCad,Pcbnew,5.1.6-c6e7f7d~86~ubuntu20.04.1*
G04 #@! TF.CreationDate,2020-05-28T17:17:52+02:00*
G04 #@! TF.ProjectId,1000Machine,31303030-4d61-4636-9869-6e652e6b6963,rev?*
G04 #@! TF.SameCoordinates,Original*
G04 #@! TF.FileFunction,Legend,Top*
G04 #@! TF.FilePolarity,Positive*
%FSLAX46Y46*%
G04 Gerber Fmt 4.6, Leading zero omitted, Abs format (unit mm)*
G04 Created by KiCad (PCBNEW 5.1.6-c6e7f7d~86~ubuntu20.04.1) date 2020-05-28 17:17:52*
%MOMM*%
%LPD*%
G01*
G04 APERTURE LIST*
%ADD10C,0.400000*%
%ADD11C,0.300000*%
%ADD12C,0.200000*%
%ADD13C,0.500000*%
%ADD14C,0.120000*%
%ADD15C,0.127000*%
%ADD16C,0.100000*%
%ADD17C,0.150000*%
G04 APERTURE END LIST*
D10*
X141469047Y-72935714D02*
X140659523Y-73502380D01*
X141469047Y-73907142D02*
X139769047Y-73907142D01*
X139769047Y-73259523D01*
X139850000Y-73097619D01*
X139930952Y-73016666D01*
X140092857Y-72935714D01*
X140335714Y-72935714D01*
X140497619Y-73016666D01*
X140578571Y-73097619D01*
X140659523Y-73259523D01*
X140659523Y-73907142D01*
X141388095Y-71559523D02*
X141469047Y-71721428D01*
X141469047Y-72045238D01*
X141388095Y-72207142D01*
X141226190Y-72288095D01*
X140578571Y-72288095D01*
X140416666Y-72207142D01*
X140335714Y-72045238D01*
X140335714Y-71721428D01*
X140416666Y-71559523D01*
X140578571Y-71478571D01*
X140740476Y-71478571D01*
X140902380Y-72288095D01*
X140335714Y-70911904D02*
X141469047Y-70507142D01*
X140335714Y-70102380D01*
X141469047Y-67269047D02*
X141469047Y-68240476D01*
X141469047Y-67754761D02*
X139769047Y-67754761D01*
X140011904Y-67916666D01*
X140173809Y-68078571D01*
X140254761Y-68240476D01*
X141307142Y-66540476D02*
X141388095Y-66459523D01*
X141469047Y-66540476D01*
X141388095Y-66621428D01*
X141307142Y-66540476D01*
X141469047Y-66540476D01*
X139769047Y-65407142D02*
X139769047Y-65245238D01*
X139850000Y-65083333D01*
X139930952Y-65002380D01*
X140092857Y-64921428D01*
X140416666Y-64840476D01*
X140821428Y-64840476D01*
X141145238Y-64921428D01*
X141307142Y-65002380D01*
X141388095Y-65083333D01*
X141469047Y-65245238D01*
X141469047Y-65407142D01*
X141388095Y-65569047D01*
X141307142Y-65650000D01*
X141145238Y-65730952D01*
X140821428Y-65811904D01*
X140416666Y-65811904D01*
X140092857Y-65730952D01*
X139930952Y-65650000D01*
X139850000Y-65569047D01*
X139769047Y-65407142D01*
X141307142Y-64111904D02*
X141388095Y-64030952D01*
X141469047Y-64111904D01*
X141388095Y-64192857D01*
X141307142Y-64111904D01*
X141469047Y-64111904D01*
X139769047Y-62978571D02*
X139769047Y-62816666D01*
X139850000Y-62654761D01*
X139930952Y-62573809D01*
X140092857Y-62492857D01*
X140416666Y-62411904D01*
X140821428Y-62411904D01*
X141145238Y-62492857D01*
X141307142Y-62573809D01*
X141388095Y-62654761D01*
X141469047Y-62816666D01*
X141469047Y-62978571D01*
X141388095Y-63140476D01*
X141307142Y-63221428D01*
X141145238Y-63302380D01*
X140821428Y-63383333D01*
X140416666Y-63383333D01*
X140092857Y-63302380D01*
X139930952Y-63221428D01*
X139850000Y-63140476D01*
X139769047Y-62978571D01*
X137069047Y-115083333D02*
X137069047Y-116054761D01*
X137069047Y-115569047D02*
X135369047Y-115569047D01*
X135611904Y-115730952D01*
X135773809Y-115892857D01*
X135854761Y-116054761D01*
X135369047Y-114030952D02*
X135369047Y-113869047D01*
X135450000Y-113707142D01*
X135530952Y-113626190D01*
X135692857Y-113545238D01*
X136016666Y-113464285D01*
X136421428Y-113464285D01*
X136745238Y-113545238D01*
X136907142Y-113626190D01*
X136988095Y-113707142D01*
X137069047Y-113869047D01*
X137069047Y-114030952D01*
X136988095Y-114192857D01*
X136907142Y-114273809D01*
X136745238Y-114354761D01*
X136421428Y-114435714D01*
X136016666Y-114435714D01*
X135692857Y-114354761D01*
X135530952Y-114273809D01*
X135450000Y-114192857D01*
X135369047Y-114030952D01*
X135369047Y-112411904D02*
X135369047Y-112250000D01*
X135450000Y-112088095D01*
X135530952Y-112007142D01*
X135692857Y-111926190D01*
X136016666Y-111845238D01*
X136421428Y-111845238D01*
X136745238Y-111926190D01*
X136907142Y-112007142D01*
X136988095Y-112088095D01*
X137069047Y-112250000D01*
X137069047Y-112411904D01*
X136988095Y-112573809D01*
X136907142Y-112654761D01*
X136745238Y-112735714D01*
X136421428Y-112816666D01*
X136016666Y-112816666D01*
X135692857Y-112735714D01*
X135530952Y-112654761D01*
X135450000Y-112573809D01*
X135369047Y-112411904D01*
X135369047Y-110792857D02*
X135369047Y-110630952D01*
X135450000Y-110469047D01*
X135530952Y-110388095D01*
X135692857Y-110307142D01*
X136016666Y-110226190D01*
X136421428Y-110226190D01*
X136745238Y-110307142D01*
X136907142Y-110388095D01*
X136988095Y-110469047D01*
X137069047Y-110630952D01*
X137069047Y-110792857D01*
X136988095Y-110954761D01*
X136907142Y-111035714D01*
X136745238Y-111116666D01*
X136421428Y-111197619D01*
X136016666Y-111197619D01*
X135692857Y-111116666D01*
X135530952Y-111035714D01*
X135450000Y-110954761D01*
X135369047Y-110792857D01*
X137069047Y-109497619D02*
X135369047Y-109497619D01*
X136583333Y-108930952D01*
X135369047Y-108364285D01*
X137069047Y-108364285D01*
X137069047Y-106826190D02*
X136178571Y-106826190D01*
X136016666Y-106907142D01*
X135935714Y-107069047D01*
X135935714Y-107392857D01*
X136016666Y-107554761D01*
X136988095Y-106826190D02*
X137069047Y-106988095D01*
X137069047Y-107392857D01*
X136988095Y-107554761D01*
X136826190Y-107635714D01*
X136664285Y-107635714D01*
X136502380Y-107554761D01*
X136421428Y-107392857D01*
X136421428Y-106988095D01*
X136340476Y-106826190D01*
X136988095Y-105288095D02*
X137069047Y-105450000D01*
X137069047Y-105773809D01*
X136988095Y-105935714D01*
X136907142Y-106016666D01*
X136745238Y-106097619D01*
X136259523Y-106097619D01*
X136097619Y-106016666D01*
X136016666Y-105935714D01*
X135935714Y-105773809D01*
X135935714Y-105450000D01*
X136016666Y-105288095D01*
X137069047Y-104559523D02*
X135369047Y-104559523D01*
X137069047Y-103830952D02*
X136178571Y-103830952D01*
X136016666Y-103911904D01*
X135935714Y-104073809D01*
X135935714Y-104316666D01*
X136016666Y-104478571D01*
X136097619Y-104559523D01*
X137069047Y-103021428D02*
X135935714Y-103021428D01*
X135369047Y-103021428D02*
X135450000Y-103102380D01*
X135530952Y-103021428D01*
X135450000Y-102940476D01*
X135369047Y-103021428D01*
X135530952Y-103021428D01*
X135935714Y-102211904D02*
X137069047Y-102211904D01*
X136097619Y-102211904D02*
X136016666Y-102130952D01*
X135935714Y-101969047D01*
X135935714Y-101726190D01*
X136016666Y-101564285D01*
X136178571Y-101483333D01*
X137069047Y-101483333D01*
X136988095Y-100026190D02*
X137069047Y-100188095D01*
X137069047Y-100511904D01*
X136988095Y-100673809D01*
X136826190Y-100754761D01*
X136178571Y-100754761D01*
X136016666Y-100673809D01*
X135935714Y-100511904D01*
X135935714Y-100188095D01*
X136016666Y-100026190D01*
X136178571Y-99945238D01*
X136340476Y-99945238D01*
X136502380Y-100754761D01*
D11*
X111707142Y-113978571D02*
X111778571Y-113764285D01*
X111778571Y-113407142D01*
X111707142Y-113264285D01*
X111635714Y-113192857D01*
X111492857Y-113121428D01*
X111350000Y-113121428D01*
X111207142Y-113192857D01*
X111135714Y-113264285D01*
X111064285Y-113407142D01*
X110992857Y-113692857D01*
X110921428Y-113835714D01*
X110850000Y-113907142D01*
X110707142Y-113978571D01*
X110564285Y-113978571D01*
X110421428Y-113907142D01*
X110350000Y-113835714D01*
X110278571Y-113692857D01*
X110278571Y-113335714D01*
X110350000Y-113121428D01*
X111778571Y-112478571D02*
X110278571Y-112478571D01*
X110278571Y-111907142D01*
X110350000Y-111764285D01*
X110421428Y-111692857D01*
X110564285Y-111621428D01*
X110778571Y-111621428D01*
X110921428Y-111692857D01*
X110992857Y-111764285D01*
X111064285Y-111907142D01*
X111064285Y-112478571D01*
X111778571Y-110978571D02*
X110278571Y-110978571D01*
X111778571Y-110121428D02*
X110921428Y-110764285D01*
X110278571Y-110121428D02*
X111135714Y-110978571D01*
D12*
X110357142Y-76452380D02*
X110357142Y-75452380D01*
X110357142Y-76404761D02*
X110261904Y-76452380D01*
X110071428Y-76452380D01*
X109976190Y-76404761D01*
X109928571Y-76357142D01*
X109880952Y-76261904D01*
X109880952Y-75976190D01*
X109928571Y-75880952D01*
X109976190Y-75833333D01*
X110071428Y-75785714D01*
X110261904Y-75785714D01*
X110357142Y-75833333D01*
X110833333Y-76452380D02*
X110833333Y-75785714D01*
X110833333Y-75452380D02*
X110785714Y-75500000D01*
X110833333Y-75547619D01*
X110880952Y-75500000D01*
X110833333Y-75452380D01*
X110833333Y-75547619D01*
X111738095Y-76452380D02*
X111738095Y-75928571D01*
X111690476Y-75833333D01*
X111595238Y-75785714D01*
X111404761Y-75785714D01*
X111309523Y-75833333D01*
X111738095Y-76404761D02*
X111642857Y-76452380D01*
X111404761Y-76452380D01*
X111309523Y-76404761D01*
X111261904Y-76309523D01*
X111261904Y-76214285D01*
X111309523Y-76119047D01*
X111404761Y-76071428D01*
X111642857Y-76071428D01*
X111738095Y-76023809D01*
X112357142Y-76452380D02*
X112261904Y-76404761D01*
X112214285Y-76309523D01*
X112214285Y-75452380D01*
X112690476Y-76404761D02*
X112785714Y-76452380D01*
X112976190Y-76452380D01*
X113071428Y-76404761D01*
X113119047Y-76309523D01*
X113119047Y-76261904D01*
X113071428Y-76166666D01*
X112976190Y-76119047D01*
X112833333Y-76119047D01*
X112738095Y-76071428D01*
X112690476Y-75976190D01*
X112690476Y-75928571D01*
X112738095Y-75833333D01*
X112833333Y-75785714D01*
X112976190Y-75785714D01*
X113071428Y-75833333D01*
X110261904Y-72452380D02*
X110261904Y-71452380D01*
X110261904Y-72404761D02*
X110166666Y-72452380D01*
X109976190Y-72452380D01*
X109880952Y-72404761D01*
X109833333Y-72357142D01*
X109785714Y-72261904D01*
X109785714Y-71976190D01*
X109833333Y-71880952D01*
X109880952Y-71833333D01*
X109976190Y-71785714D01*
X110166666Y-71785714D01*
X110261904Y-71833333D01*
X110738095Y-72452380D02*
X110738095Y-71785714D01*
X110738095Y-71452380D02*
X110690476Y-71500000D01*
X110738095Y-71547619D01*
X110785714Y-71500000D01*
X110738095Y-71452380D01*
X110738095Y-71547619D01*
X111642857Y-72452380D02*
X111642857Y-71928571D01*
X111595238Y-71833333D01*
X111500000Y-71785714D01*
X111309523Y-71785714D01*
X111214285Y-71833333D01*
X111642857Y-72404761D02*
X111547619Y-72452380D01*
X111309523Y-72452380D01*
X111214285Y-72404761D01*
X111166666Y-72309523D01*
X111166666Y-72214285D01*
X111214285Y-72119047D01*
X111309523Y-72071428D01*
X111547619Y-72071428D01*
X111642857Y-72023809D01*
X112261904Y-72452380D02*
X112166666Y-72404761D01*
X112119047Y-72309523D01*
X112119047Y-71452380D01*
X134809523Y-81785714D02*
X134809523Y-82785714D01*
X134809523Y-81833333D02*
X134904761Y-81785714D01*
X135095238Y-81785714D01*
X135190476Y-81833333D01*
X135238095Y-81880952D01*
X135285714Y-81976190D01*
X135285714Y-82261904D01*
X135238095Y-82357142D01*
X135190476Y-82404761D01*
X135095238Y-82452380D01*
X134904761Y-82452380D01*
X134809523Y-82404761D01*
X135857142Y-82452380D02*
X135761904Y-82404761D01*
X135714285Y-82357142D01*
X135666666Y-82261904D01*
X135666666Y-81976190D01*
X135714285Y-81880952D01*
X135761904Y-81833333D01*
X135857142Y-81785714D01*
X136000000Y-81785714D01*
X136095238Y-81833333D01*
X136142857Y-81880952D01*
X136190476Y-81976190D01*
X136190476Y-82261904D01*
X136142857Y-82357142D01*
X136095238Y-82404761D01*
X136000000Y-82452380D01*
X135857142Y-82452380D01*
X136476190Y-81785714D02*
X136857142Y-81785714D01*
X136619047Y-81452380D02*
X136619047Y-82309523D01*
X136666666Y-82404761D01*
X136761904Y-82452380D01*
X136857142Y-82452380D01*
X137190476Y-82452380D02*
X137190476Y-81785714D01*
X137190476Y-81452380D02*
X137142857Y-81500000D01*
X137190476Y-81547619D01*
X137238095Y-81500000D01*
X137190476Y-81452380D01*
X137190476Y-81547619D01*
X136309523Y-83452380D02*
X135833333Y-83452380D01*
X135785714Y-83928571D01*
X135833333Y-83880952D01*
X135928571Y-83833333D01*
X136166666Y-83833333D01*
X136261904Y-83880952D01*
X136309523Y-83928571D01*
X136357142Y-84023809D01*
X136357142Y-84261904D01*
X136309523Y-84357142D01*
X136261904Y-84404761D01*
X136166666Y-84452380D01*
X135928571Y-84452380D01*
X135833333Y-84404761D01*
X135785714Y-84357142D01*
X136642857Y-83452380D02*
X136976190Y-84452380D01*
X137309523Y-83452380D01*
X110309523Y-82452380D02*
X109833333Y-82452380D01*
X109785714Y-82928571D01*
X109833333Y-82880952D01*
X109928571Y-82833333D01*
X110166666Y-82833333D01*
X110261904Y-82880952D01*
X110309523Y-82928571D01*
X110357142Y-83023809D01*
X110357142Y-83261904D01*
X110309523Y-83357142D01*
X110261904Y-83404761D01*
X110166666Y-83452380D01*
X109928571Y-83452380D01*
X109833333Y-83404761D01*
X109785714Y-83357142D01*
X110642857Y-82452380D02*
X110976190Y-83452380D01*
X111309523Y-82452380D01*
X110023809Y-85452380D02*
X110023809Y-84452380D01*
X110452380Y-85452380D02*
X110452380Y-84928571D01*
X110404761Y-84833333D01*
X110309523Y-84785714D01*
X110166666Y-84785714D01*
X110071428Y-84833333D01*
X110023809Y-84880952D01*
X111357142Y-85452380D02*
X111357142Y-84928571D01*
X111309523Y-84833333D01*
X111214285Y-84785714D01*
X111023809Y-84785714D01*
X110928571Y-84833333D01*
X111357142Y-85404761D02*
X111261904Y-85452380D01*
X111023809Y-85452380D01*
X110928571Y-85404761D01*
X110880952Y-85309523D01*
X110880952Y-85214285D01*
X110928571Y-85119047D01*
X111023809Y-85071428D01*
X111261904Y-85071428D01*
X111357142Y-85023809D01*
X111833333Y-84785714D02*
X111833333Y-85452380D01*
X111833333Y-84880952D02*
X111880952Y-84833333D01*
X111976190Y-84785714D01*
X112119047Y-84785714D01*
X112214285Y-84833333D01*
X112261904Y-84928571D01*
X112261904Y-85452380D01*
X113166666Y-85452380D02*
X113166666Y-84452380D01*
X113166666Y-85404761D02*
X113071428Y-85452380D01*
X112880952Y-85452380D01*
X112785714Y-85404761D01*
X112738095Y-85357142D01*
X112690476Y-85261904D01*
X112690476Y-84976190D01*
X112738095Y-84880952D01*
X112785714Y-84833333D01*
X112880952Y-84785714D01*
X113071428Y-84785714D01*
X113166666Y-84833333D01*
X113595238Y-85404761D02*
X113690476Y-85452380D01*
X113880952Y-85452380D01*
X113976190Y-85404761D01*
X114023809Y-85309523D01*
X114023809Y-85261904D01*
X113976190Y-85166666D01*
X113880952Y-85119047D01*
X113738095Y-85119047D01*
X113642857Y-85071428D01*
X113595238Y-84976190D01*
X113595238Y-84928571D01*
X113642857Y-84833333D01*
X113738095Y-84785714D01*
X113880952Y-84785714D01*
X113976190Y-84833333D01*
X135238095Y-79500000D02*
X135142857Y-79452380D01*
X135000000Y-79452380D01*
X134857142Y-79500000D01*
X134761904Y-79595238D01*
X134714285Y-79690476D01*
X134666666Y-79880952D01*
X134666666Y-80023809D01*
X134714285Y-80214285D01*
X134761904Y-80309523D01*
X134857142Y-80404761D01*
X135000000Y-80452380D01*
X135095238Y-80452380D01*
X135238095Y-80404761D01*
X135285714Y-80357142D01*
X135285714Y-80023809D01*
X135095238Y-80023809D01*
X135714285Y-80452380D02*
X135714285Y-79452380D01*
X136285714Y-80452380D01*
X136285714Y-79452380D01*
X136761904Y-80452380D02*
X136761904Y-79452380D01*
X137000000Y-79452380D01*
X137142857Y-79500000D01*
X137238095Y-79595238D01*
X137285714Y-79690476D01*
X137333333Y-79880952D01*
X137333333Y-80023809D01*
X137285714Y-80214285D01*
X137238095Y-80309523D01*
X137142857Y-80404761D01*
X137000000Y-80452380D01*
X136761904Y-80452380D01*
X110238095Y-73500000D02*
X110142857Y-73452380D01*
X110000000Y-73452380D01*
X109857142Y-73500000D01*
X109761904Y-73595238D01*
X109714285Y-73690476D01*
X109666666Y-73880952D01*
X109666666Y-74023809D01*
X109714285Y-74214285D01*
X109761904Y-74309523D01*
X109857142Y-74404761D01*
X110000000Y-74452380D01*
X110095238Y-74452380D01*
X110238095Y-74404761D01*
X110285714Y-74357142D01*
X110285714Y-74023809D01*
X110095238Y-74023809D01*
X110714285Y-74452380D02*
X110714285Y-73452380D01*
X111285714Y-74452380D01*
X111285714Y-73452380D01*
X111761904Y-74452380D02*
X111761904Y-73452380D01*
X112000000Y-73452380D01*
X112142857Y-73500000D01*
X112238095Y-73595238D01*
X112285714Y-73690476D01*
X112333333Y-73880952D01*
X112333333Y-74023809D01*
X112285714Y-74214285D01*
X112238095Y-74309523D01*
X112142857Y-74404761D01*
X112000000Y-74452380D01*
X111761904Y-74452380D01*
X110238095Y-80500000D02*
X110142857Y-80452380D01*
X110000000Y-80452380D01*
X109857142Y-80500000D01*
X109761904Y-80595238D01*
X109714285Y-80690476D01*
X109666666Y-80880952D01*
X109666666Y-81023809D01*
X109714285Y-81214285D01*
X109761904Y-81309523D01*
X109857142Y-81404761D01*
X110000000Y-81452380D01*
X110095238Y-81452380D01*
X110238095Y-81404761D01*
X110285714Y-81357142D01*
X110285714Y-81023809D01*
X110095238Y-81023809D01*
X110714285Y-81452380D02*
X110714285Y-80452380D01*
X111285714Y-81452380D01*
X111285714Y-80452380D01*
X111761904Y-81452380D02*
X111761904Y-80452380D01*
X112000000Y-80452380D01*
X112142857Y-80500000D01*
X112238095Y-80595238D01*
X112285714Y-80690476D01*
X112333333Y-80880952D01*
X112333333Y-81023809D01*
X112285714Y-81214285D01*
X112238095Y-81309523D01*
X112142857Y-81404761D01*
X112000000Y-81452380D01*
X111761904Y-81452380D01*
X110238095Y-86500000D02*
X110142857Y-86452380D01*
X110000000Y-86452380D01*
X109857142Y-86500000D01*
X109761904Y-86595238D01*
X109714285Y-86690476D01*
X109666666Y-86880952D01*
X109666666Y-87023809D01*
X109714285Y-87214285D01*
X109761904Y-87309523D01*
X109857142Y-87404761D01*
X110000000Y-87452380D01*
X110095238Y-87452380D01*
X110238095Y-87404761D01*
X110285714Y-87357142D01*
X110285714Y-87023809D01*
X110095238Y-87023809D01*
X110714285Y-87452380D02*
X110714285Y-86452380D01*
X111285714Y-87452380D01*
X111285714Y-86452380D01*
X111761904Y-87452380D02*
X111761904Y-86452380D01*
X112000000Y-86452380D01*
X112142857Y-86500000D01*
X112238095Y-86595238D01*
X112285714Y-86690476D01*
X112333333Y-86880952D01*
X112333333Y-87023809D01*
X112285714Y-87214285D01*
X112238095Y-87309523D01*
X112142857Y-87404761D01*
X112000000Y-87452380D01*
X111761904Y-87452380D01*
X109642857Y-92404761D02*
X109785714Y-92452380D01*
X110023809Y-92452380D01*
X110119047Y-92404761D01*
X110166666Y-92357142D01*
X110214285Y-92261904D01*
X110214285Y-92166666D01*
X110166666Y-92071428D01*
X110119047Y-92023809D01*
X110023809Y-91976190D01*
X109833333Y-91928571D01*
X109738095Y-91880952D01*
X109690476Y-91833333D01*
X109642857Y-91738095D01*
X109642857Y-91642857D01*
X109690476Y-91547619D01*
X109738095Y-91500000D01*
X109833333Y-91452380D01*
X110071428Y-91452380D01*
X110214285Y-91500000D01*
X110547619Y-91452380D02*
X110785714Y-92452380D01*
X110976190Y-91738095D01*
X111166666Y-92452380D01*
X111404761Y-91452380D01*
X110238095Y-93500000D02*
X110142857Y-93452380D01*
X110000000Y-93452380D01*
X109857142Y-93500000D01*
X109761904Y-93595238D01*
X109714285Y-93690476D01*
X109666666Y-93880952D01*
X109666666Y-94023809D01*
X109714285Y-94214285D01*
X109761904Y-94309523D01*
X109857142Y-94404761D01*
X110000000Y-94452380D01*
X110095238Y-94452380D01*
X110238095Y-94404761D01*
X110285714Y-94357142D01*
X110285714Y-94023809D01*
X110095238Y-94023809D01*
X110714285Y-94452380D02*
X110714285Y-93452380D01*
X111285714Y-94452380D01*
X111285714Y-93452380D01*
X111761904Y-94452380D02*
X111761904Y-93452380D01*
X112000000Y-93452380D01*
X112142857Y-93500000D01*
X112238095Y-93595238D01*
X112285714Y-93690476D01*
X112333333Y-93880952D01*
X112333333Y-94023809D01*
X112285714Y-94214285D01*
X112238095Y-94309523D01*
X112142857Y-94404761D01*
X112000000Y-94452380D01*
X111761904Y-94452380D01*
D13*
X141357142Y-115785714D02*
X138357142Y-115785714D01*
X140500000Y-114785714D01*
X138357142Y-113785714D01*
X141357142Y-113785714D01*
X141357142Y-111071428D02*
X139785714Y-111071428D01*
X139500000Y-111214285D01*
X139357142Y-111500000D01*
X139357142Y-112071428D01*
X139500000Y-112357142D01*
X141214285Y-111071428D02*
X141357142Y-111357142D01*
X141357142Y-112071428D01*
X141214285Y-112357142D01*
X140928571Y-112500000D01*
X140642857Y-112500000D01*
X140357142Y-112357142D01*
X140214285Y-112071428D01*
X140214285Y-111357142D01*
X140071428Y-111071428D01*
X141357142Y-108357142D02*
X138357142Y-108357142D01*
X141214285Y-108357142D02*
X141357142Y-108642857D01*
X141357142Y-109214285D01*
X141214285Y-109500000D01*
X141071428Y-109642857D01*
X140785714Y-109785714D01*
X139928571Y-109785714D01*
X139642857Y-109642857D01*
X139500000Y-109500000D01*
X139357142Y-109214285D01*
X139357142Y-108642857D01*
X139500000Y-108357142D01*
X141214285Y-105785714D02*
X141357142Y-106071428D01*
X141357142Y-106642857D01*
X141214285Y-106928571D01*
X140928571Y-107071428D01*
X139785714Y-107071428D01*
X139500000Y-106928571D01*
X139357142Y-106642857D01*
X139357142Y-106071428D01*
X139500000Y-105785714D01*
X139785714Y-105642857D01*
X140071428Y-105642857D01*
X140357142Y-107071428D01*
X141357142Y-102071428D02*
X138357142Y-102071428D01*
X139500000Y-102071428D02*
X139357142Y-101785714D01*
X139357142Y-101214285D01*
X139500000Y-100928571D01*
X139642857Y-100785714D01*
X139928571Y-100642857D01*
X140785714Y-100642857D01*
X141071428Y-100785714D01*
X141214285Y-100928571D01*
X141357142Y-101214285D01*
X141357142Y-101785714D01*
X141214285Y-102071428D01*
X139357142Y-99642857D02*
X141357142Y-98928571D01*
X139357142Y-98214285D02*
X141357142Y-98928571D01*
X142071428Y-99214285D01*
X142214285Y-99357142D01*
X142357142Y-99642857D01*
D14*
X108810000Y-78940000D02*
X104090000Y-78940000D01*
X104090000Y-78940000D02*
X104090000Y-89060000D01*
X104090000Y-89060000D02*
X108810000Y-89060000D01*
X108810000Y-89060000D02*
X108810000Y-78940000D01*
X108810000Y-80700000D02*
X109010000Y-80700000D01*
X109010000Y-80700000D02*
X109010000Y-80400000D01*
X109010000Y-80400000D02*
X108810000Y-80400000D01*
X108910000Y-80700000D02*
X108910000Y-80400000D01*
X108810000Y-81500000D02*
X108200000Y-81500000D01*
X108200000Y-81500000D02*
X108200000Y-79550000D01*
X108200000Y-79550000D02*
X104700000Y-79550000D01*
X104700000Y-79550000D02*
X104700000Y-88450000D01*
X104700000Y-88450000D02*
X108200000Y-88450000D01*
X108200000Y-88450000D02*
X108200000Y-86500000D01*
X108200000Y-86500000D02*
X108810000Y-86500000D01*
X107500000Y-78940000D02*
X107500000Y-79550000D01*
X106200000Y-78940000D02*
X106200000Y-79550000D01*
X107500000Y-89060000D02*
X107500000Y-88450000D01*
X106200000Y-89060000D02*
X106200000Y-88450000D01*
X104700000Y-81900000D02*
X105200000Y-81900000D01*
X105200000Y-81900000D02*
X105200000Y-82100000D01*
X105200000Y-82100000D02*
X104700000Y-82100000D01*
X104700000Y-82000000D02*
X105200000Y-82000000D01*
X104700000Y-83900000D02*
X105200000Y-83900000D01*
X105200000Y-83900000D02*
X105200000Y-84100000D01*
X105200000Y-84100000D02*
X104700000Y-84100000D01*
X104700000Y-84000000D02*
X105200000Y-84000000D01*
X104700000Y-85900000D02*
X105200000Y-85900000D01*
X105200000Y-85900000D02*
X105200000Y-86100000D01*
X105200000Y-86100000D02*
X104700000Y-86100000D01*
X104700000Y-86000000D02*
X105200000Y-86000000D01*
X109110000Y-79890000D02*
X109110000Y-78640000D01*
X109110000Y-78640000D02*
X107860000Y-78640000D01*
X108810000Y-108940000D02*
X104090000Y-108940000D01*
X104090000Y-108940000D02*
X104090000Y-115060000D01*
X104090000Y-115060000D02*
X108810000Y-115060000D01*
X108810000Y-115060000D02*
X108810000Y-108940000D01*
X108810000Y-110700000D02*
X109010000Y-110700000D01*
X109010000Y-110700000D02*
X109010000Y-110400000D01*
X109010000Y-110400000D02*
X108810000Y-110400000D01*
X108910000Y-110700000D02*
X108910000Y-110400000D01*
X108810000Y-111500000D02*
X108200000Y-111500000D01*
X108200000Y-111500000D02*
X108200000Y-109550000D01*
X108200000Y-109550000D02*
X104700000Y-109550000D01*
X104700000Y-109550000D02*
X104700000Y-114450000D01*
X104700000Y-114450000D02*
X108200000Y-114450000D01*
X108200000Y-114450000D02*
X108200000Y-112500000D01*
X108200000Y-112500000D02*
X108810000Y-112500000D01*
X107500000Y-108940000D02*
X107500000Y-109550000D01*
X106200000Y-108940000D02*
X106200000Y-109550000D01*
X107500000Y-115060000D02*
X107500000Y-114450000D01*
X106200000Y-115060000D02*
X106200000Y-114450000D01*
X104700000Y-111900000D02*
X105200000Y-111900000D01*
X105200000Y-111900000D02*
X105200000Y-112100000D01*
X105200000Y-112100000D02*
X104700000Y-112100000D01*
X104700000Y-112000000D02*
X105200000Y-112000000D01*
X109110000Y-109890000D02*
X109110000Y-108640000D01*
X109110000Y-108640000D02*
X107860000Y-108640000D01*
X138190000Y-86060000D02*
X142910000Y-86060000D01*
X142910000Y-86060000D02*
X142910000Y-77940000D01*
X142910000Y-77940000D02*
X138190000Y-77940000D01*
X138190000Y-77940000D02*
X138190000Y-86060000D01*
X138190000Y-84300000D02*
X137990000Y-84300000D01*
X137990000Y-84300000D02*
X137990000Y-84600000D01*
X137990000Y-84600000D02*
X138190000Y-84600000D01*
X138090000Y-84300000D02*
X138090000Y-84600000D01*
X138190000Y-83500000D02*
X138800000Y-83500000D01*
X138800000Y-83500000D02*
X138800000Y-85450000D01*
X138800000Y-85450000D02*
X142300000Y-85450000D01*
X142300000Y-85450000D02*
X142300000Y-78550000D01*
X142300000Y-78550000D02*
X138800000Y-78550000D01*
X138800000Y-78550000D02*
X138800000Y-80500000D01*
X138800000Y-80500000D02*
X138190000Y-80500000D01*
X139500000Y-86060000D02*
X139500000Y-85450000D01*
X140800000Y-86060000D02*
X140800000Y-85450000D01*
X139500000Y-77940000D02*
X139500000Y-78550000D01*
X140800000Y-77940000D02*
X140800000Y-78550000D01*
X142300000Y-83100000D02*
X141800000Y-83100000D01*
X141800000Y-83100000D02*
X141800000Y-82900000D01*
X141800000Y-82900000D02*
X142300000Y-82900000D01*
X142300000Y-83000000D02*
X141800000Y-83000000D01*
X142300000Y-81100000D02*
X141800000Y-81100000D01*
X141800000Y-81100000D02*
X141800000Y-80900000D01*
X141800000Y-80900000D02*
X142300000Y-80900000D01*
X142300000Y-81000000D02*
X141800000Y-81000000D01*
X137890000Y-85110000D02*
X137890000Y-86360000D01*
X137890000Y-86360000D02*
X139140000Y-86360000D01*
X109110000Y-69640000D02*
X107860000Y-69640000D01*
X109110000Y-70890000D02*
X109110000Y-69640000D01*
X104700000Y-75000000D02*
X105200000Y-75000000D01*
X105200000Y-75100000D02*
X104700000Y-75100000D01*
X105200000Y-74900000D02*
X105200000Y-75100000D01*
X104700000Y-74900000D02*
X105200000Y-74900000D01*
X104700000Y-73000000D02*
X105200000Y-73000000D01*
X105200000Y-73100000D02*
X104700000Y-73100000D01*
X105200000Y-72900000D02*
X105200000Y-73100000D01*
X104700000Y-72900000D02*
X105200000Y-72900000D01*
X106200000Y-78060000D02*
X106200000Y-77450000D01*
X107500000Y-78060000D02*
X107500000Y-77450000D01*
X106200000Y-69940000D02*
X106200000Y-70550000D01*
X107500000Y-69940000D02*
X107500000Y-70550000D01*
X108200000Y-75500000D02*
X108810000Y-75500000D01*
X108200000Y-77450000D02*
X108200000Y-75500000D01*
X104700000Y-77450000D02*
X108200000Y-77450000D01*
X104700000Y-70550000D02*
X104700000Y-77450000D01*
X108200000Y-70550000D02*
X104700000Y-70550000D01*
X108200000Y-72500000D02*
X108200000Y-70550000D01*
X108810000Y-72500000D02*
X108200000Y-72500000D01*
X108910000Y-71700000D02*
X108910000Y-71400000D01*
X109010000Y-71400000D02*
X108810000Y-71400000D01*
X109010000Y-71700000D02*
X109010000Y-71400000D01*
X108810000Y-71700000D02*
X109010000Y-71700000D01*
X108810000Y-78060000D02*
X108810000Y-69940000D01*
X104090000Y-78060000D02*
X108810000Y-78060000D01*
X104090000Y-69940000D02*
X104090000Y-78060000D01*
X108810000Y-69940000D02*
X104090000Y-69940000D01*
X109110000Y-89640000D02*
X107860000Y-89640000D01*
X109110000Y-90890000D02*
X109110000Y-89640000D01*
X104700000Y-93000000D02*
X105200000Y-93000000D01*
X105200000Y-93100000D02*
X104700000Y-93100000D01*
X105200000Y-92900000D02*
X105200000Y-93100000D01*
X104700000Y-92900000D02*
X105200000Y-92900000D01*
X106200000Y-96060000D02*
X106200000Y-95450000D01*
X107500000Y-96060000D02*
X107500000Y-95450000D01*
X106200000Y-89940000D02*
X106200000Y-90550000D01*
X107500000Y-89940000D02*
X107500000Y-90550000D01*
X108200000Y-93500000D02*
X108810000Y-93500000D01*
X108200000Y-95450000D02*
X108200000Y-93500000D01*
X104700000Y-95450000D02*
X108200000Y-95450000D01*
X104700000Y-90550000D02*
X104700000Y-95450000D01*
X108200000Y-90550000D02*
X104700000Y-90550000D01*
X108200000Y-92500000D02*
X108200000Y-90550000D01*
X108810000Y-92500000D02*
X108200000Y-92500000D01*
X108910000Y-91700000D02*
X108910000Y-91400000D01*
X109010000Y-91400000D02*
X108810000Y-91400000D01*
X109010000Y-91700000D02*
X109010000Y-91400000D01*
X108810000Y-91700000D02*
X109010000Y-91700000D01*
X108810000Y-96060000D02*
X108810000Y-89940000D01*
X104090000Y-96060000D02*
X108810000Y-96060000D01*
X104090000Y-89940000D02*
X104090000Y-96060000D01*
X108810000Y-89940000D02*
X104090000Y-89940000D01*
X119380000Y-100390000D02*
X122120000Y-100390000D01*
X122120000Y-100390000D02*
X122120000Y-93850000D01*
X122120000Y-93850000D02*
X119380000Y-93850000D01*
X119380000Y-93850000D02*
X119380000Y-100390000D01*
X120750000Y-101160000D02*
X120750000Y-100390000D01*
X120750000Y-93080000D02*
X120750000Y-93850000D01*
X126100000Y-93280000D02*
X126100000Y-94050000D01*
X126100000Y-101360000D02*
X126100000Y-100590000D01*
X124730000Y-94050000D02*
X124730000Y-100590000D01*
X127470000Y-94050000D02*
X124730000Y-94050000D01*
X127470000Y-100590000D02*
X127470000Y-94050000D01*
X124730000Y-100590000D02*
X127470000Y-100590000D01*
D12*
X112800000Y-97110000D02*
G75*
G03*
X112800000Y-97110000I-100000J0D01*
G01*
D15*
X133660000Y-116160000D02*
X113340000Y-116160000D01*
X133660000Y-95840000D02*
X133660000Y-116160000D01*
X113340000Y-95840000D02*
X133660000Y-95840000D01*
X113340000Y-116160000D02*
X113340000Y-95840000D01*
D16*
G36*
X141550000Y-91900000D02*
G01*
X141550000Y-94900000D01*
X137050000Y-94900000D01*
X137050000Y-91900000D01*
X141550000Y-91900000D01*
G37*
X141550000Y-91900000D02*
X141550000Y-94900000D01*
X137050000Y-94900000D01*
X137050000Y-91900000D01*
X141550000Y-91900000D01*
D17*
X121202380Y-97286666D02*
X120726190Y-97620000D01*
X121202380Y-97858095D02*
X120202380Y-97858095D01*
X120202380Y-97477142D01*
X120250000Y-97381904D01*
X120297619Y-97334285D01*
X120392857Y-97286666D01*
X120535714Y-97286666D01*
X120630952Y-97334285D01*
X120678571Y-97381904D01*
X120726190Y-97477142D01*
X120726190Y-97858095D01*
X121202380Y-96334285D02*
X121202380Y-96905714D01*
X121202380Y-96620000D02*
X120202380Y-96620000D01*
X120345238Y-96715238D01*
X120440476Y-96810476D01*
X120488095Y-96905714D01*
X126552380Y-97466666D02*
X126076190Y-97800000D01*
X126552380Y-98038095D02*
X125552380Y-98038095D01*
X125552380Y-97657142D01*
X125600000Y-97561904D01*
X125647619Y-97514285D01*
X125742857Y-97466666D01*
X125885714Y-97466666D01*
X125980952Y-97514285D01*
X126028571Y-97561904D01*
X126076190Y-97657142D01*
X126076190Y-98038095D01*
X125647619Y-97085714D02*
X125600000Y-97038095D01*
X125552380Y-96942857D01*
X125552380Y-96704761D01*
X125600000Y-96609523D01*
X125647619Y-96561904D01*
X125742857Y-96514285D01*
X125838095Y-96514285D01*
X125980952Y-96561904D01*
X126552380Y-97133333D01*
X126552380Y-96514285D01*
M02*
