G04 #@! TF.GenerationSoftware,KiCad,Pcbnew,5.1.6-c6e7f7d~86~ubuntu20.04.1*
G04 #@! TF.CreationDate,2020-05-28T17:17:52+02:00*
G04 #@! TF.ProjectId,1000Machine,31303030-4d61-4636-9869-6e652e6b6963,rev?*
G04 #@! TF.SameCoordinates,Original*
G04 #@! TF.FileFunction,Soldermask,Bot*
G04 #@! TF.FilePolarity,Negative*
%FSLAX46Y46*%
G04 Gerber Fmt 4.6, Leading zero omitted, Abs format (unit mm)*
G04 Created by KiCad (PCBNEW 5.1.6-c6e7f7d~86~ubuntu20.04.1) date 2020-05-28 17:17:52*
%MOMM*%
%LPD*%
G01*
G04 APERTURE LIST*
%ADD10C,0.100000*%
G04 APERTURE END LIST*
D10*
G36*
X132722641Y-114212092D02*
G01*
X132850941Y-114265236D01*
X132850943Y-114265237D01*
X132909069Y-114304076D01*
X132966410Y-114342390D01*
X133064610Y-114440590D01*
X133141764Y-114556059D01*
X133194908Y-114684359D01*
X133222000Y-114820562D01*
X133222000Y-114959438D01*
X133194908Y-115095641D01*
X133141764Y-115223941D01*
X133141763Y-115223943D01*
X133064609Y-115339411D01*
X132966411Y-115437609D01*
X132850943Y-115514763D01*
X132850942Y-115514764D01*
X132850941Y-115514764D01*
X132722641Y-115567908D01*
X132586438Y-115595000D01*
X132447562Y-115595000D01*
X132311359Y-115567908D01*
X132183059Y-115514764D01*
X132183058Y-115514764D01*
X132183057Y-115514763D01*
X132067589Y-115437609D01*
X131969391Y-115339411D01*
X131892237Y-115223943D01*
X131892236Y-115223941D01*
X131839092Y-115095641D01*
X131812000Y-114959438D01*
X131812000Y-114820562D01*
X131839092Y-114684359D01*
X131892236Y-114556059D01*
X131969390Y-114440590D01*
X132067590Y-114342390D01*
X132124931Y-114304076D01*
X132183057Y-114265237D01*
X132183059Y-114265236D01*
X132311359Y-114212092D01*
X132447562Y-114185000D01*
X132586438Y-114185000D01*
X132722641Y-114212092D01*
G37*
G36*
X114688641Y-114212092D02*
G01*
X114816941Y-114265236D01*
X114816943Y-114265237D01*
X114875069Y-114304076D01*
X114932410Y-114342390D01*
X115030610Y-114440590D01*
X115107764Y-114556059D01*
X115160908Y-114684359D01*
X115188000Y-114820562D01*
X115188000Y-114959438D01*
X115160908Y-115095641D01*
X115107764Y-115223941D01*
X115107763Y-115223943D01*
X115030609Y-115339411D01*
X114932411Y-115437609D01*
X114816943Y-115514763D01*
X114816942Y-115514764D01*
X114816941Y-115514764D01*
X114688641Y-115567908D01*
X114552438Y-115595000D01*
X114413562Y-115595000D01*
X114277359Y-115567908D01*
X114149059Y-115514764D01*
X114149058Y-115514764D01*
X114149057Y-115514763D01*
X114033589Y-115437609D01*
X113935391Y-115339411D01*
X113858237Y-115223943D01*
X113858236Y-115223941D01*
X113805092Y-115095641D01*
X113778000Y-114959438D01*
X113778000Y-114820562D01*
X113805092Y-114684359D01*
X113858236Y-114556059D01*
X113935390Y-114440590D01*
X114033590Y-114342390D01*
X114090931Y-114304076D01*
X114149057Y-114265237D01*
X114149059Y-114265236D01*
X114277359Y-114212092D01*
X114413562Y-114185000D01*
X114552438Y-114185000D01*
X114688641Y-114212092D01*
G37*
G36*
X107338855Y-112352140D02*
G01*
X107402618Y-112358420D01*
X107493404Y-112385960D01*
X107525336Y-112395646D01*
X107638425Y-112456094D01*
X107737554Y-112537446D01*
X107818906Y-112636575D01*
X107879354Y-112749664D01*
X107879355Y-112749668D01*
X107916580Y-112872382D01*
X107929149Y-113000000D01*
X107916580Y-113127618D01*
X107889040Y-113218404D01*
X107879354Y-113250336D01*
X107818906Y-113363425D01*
X107737554Y-113462554D01*
X107638425Y-113543906D01*
X107525336Y-113604354D01*
X107493404Y-113614040D01*
X107402618Y-113641580D01*
X107338855Y-113647860D01*
X107306974Y-113651000D01*
X106693026Y-113651000D01*
X106661145Y-113647860D01*
X106597382Y-113641580D01*
X106506596Y-113614040D01*
X106474664Y-113604354D01*
X106361575Y-113543906D01*
X106262446Y-113462554D01*
X106181094Y-113363425D01*
X106120646Y-113250336D01*
X106110960Y-113218404D01*
X106083420Y-113127618D01*
X106070851Y-113000000D01*
X106083420Y-112872382D01*
X106120645Y-112749668D01*
X106120646Y-112749664D01*
X106181094Y-112636575D01*
X106262446Y-112537446D01*
X106361575Y-112456094D01*
X106474664Y-112395646D01*
X106506596Y-112385960D01*
X106597382Y-112358420D01*
X106661145Y-112352140D01*
X106693026Y-112349000D01*
X107306974Y-112349000D01*
X107338855Y-112352140D01*
G37*
G36*
X132722641Y-111672092D02*
G01*
X132850941Y-111725236D01*
X132850943Y-111725237D01*
X132909069Y-111764076D01*
X132966410Y-111802390D01*
X133064610Y-111900590D01*
X133141764Y-112016059D01*
X133194908Y-112144359D01*
X133222000Y-112280562D01*
X133222000Y-112419438D01*
X133194908Y-112555641D01*
X133141764Y-112683941D01*
X133141763Y-112683943D01*
X133064609Y-112799411D01*
X132966411Y-112897609D01*
X132850943Y-112974763D01*
X132850942Y-112974764D01*
X132850941Y-112974764D01*
X132722641Y-113027908D01*
X132586438Y-113055000D01*
X132447562Y-113055000D01*
X132311359Y-113027908D01*
X132183059Y-112974764D01*
X132183058Y-112974764D01*
X132183057Y-112974763D01*
X132067589Y-112897609D01*
X131969391Y-112799411D01*
X131892237Y-112683943D01*
X131892236Y-112683941D01*
X131839092Y-112555641D01*
X131812000Y-112419438D01*
X131812000Y-112280562D01*
X131839092Y-112144359D01*
X131892236Y-112016059D01*
X131969390Y-111900590D01*
X132067590Y-111802390D01*
X132124931Y-111764076D01*
X132183057Y-111725237D01*
X132183059Y-111725236D01*
X132311359Y-111672092D01*
X132447562Y-111645000D01*
X132586438Y-111645000D01*
X132722641Y-111672092D01*
G37*
G36*
X114688641Y-111672092D02*
G01*
X114816941Y-111725236D01*
X114816943Y-111725237D01*
X114875069Y-111764076D01*
X114932410Y-111802390D01*
X115030610Y-111900590D01*
X115107764Y-112016059D01*
X115160908Y-112144359D01*
X115188000Y-112280562D01*
X115188000Y-112419438D01*
X115160908Y-112555641D01*
X115107764Y-112683941D01*
X115107763Y-112683943D01*
X115030609Y-112799411D01*
X114932411Y-112897609D01*
X114816943Y-112974763D01*
X114816942Y-112974764D01*
X114816941Y-112974764D01*
X114688641Y-113027908D01*
X114552438Y-113055000D01*
X114413562Y-113055000D01*
X114277359Y-113027908D01*
X114149059Y-112974764D01*
X114149058Y-112974764D01*
X114149057Y-112974763D01*
X114033589Y-112897609D01*
X113935391Y-112799411D01*
X113858237Y-112683943D01*
X113858236Y-112683941D01*
X113805092Y-112555641D01*
X113778000Y-112419438D01*
X113778000Y-112280562D01*
X113805092Y-112144359D01*
X113858236Y-112016059D01*
X113935390Y-111900590D01*
X114033590Y-111802390D01*
X114090931Y-111764076D01*
X114149057Y-111725237D01*
X114149059Y-111725236D01*
X114277359Y-111672092D01*
X114413562Y-111645000D01*
X114552438Y-111645000D01*
X114688641Y-111672092D01*
G37*
G36*
X107766242Y-110353404D02*
G01*
X107803337Y-110364657D01*
X107837515Y-110382925D01*
X107867481Y-110407519D01*
X107892075Y-110437485D01*
X107910343Y-110471663D01*
X107921596Y-110508758D01*
X107926000Y-110553474D01*
X107926000Y-111446526D01*
X107921596Y-111491242D01*
X107910343Y-111528337D01*
X107892075Y-111562515D01*
X107867481Y-111592481D01*
X107837515Y-111617075D01*
X107803337Y-111635343D01*
X107766242Y-111646596D01*
X107721526Y-111651000D01*
X106278474Y-111651000D01*
X106233758Y-111646596D01*
X106196663Y-111635343D01*
X106162485Y-111617075D01*
X106132519Y-111592481D01*
X106107925Y-111562515D01*
X106089657Y-111528337D01*
X106078404Y-111491242D01*
X106074000Y-111446526D01*
X106074000Y-110553474D01*
X106078404Y-110508758D01*
X106089657Y-110471663D01*
X106107925Y-110437485D01*
X106132519Y-110407519D01*
X106162485Y-110382925D01*
X106196663Y-110364657D01*
X106233758Y-110353404D01*
X106278474Y-110349000D01*
X107721526Y-110349000D01*
X107766242Y-110353404D01*
G37*
G36*
X114688641Y-109132092D02*
G01*
X114816941Y-109185236D01*
X114816943Y-109185237D01*
X114875069Y-109224076D01*
X114932410Y-109262390D01*
X115030610Y-109360590D01*
X115107764Y-109476059D01*
X115160908Y-109604359D01*
X115188000Y-109740562D01*
X115188000Y-109879438D01*
X115160908Y-110015641D01*
X115107764Y-110143941D01*
X115107763Y-110143943D01*
X115030609Y-110259411D01*
X114932411Y-110357609D01*
X114816943Y-110434763D01*
X114816942Y-110434764D01*
X114816941Y-110434764D01*
X114688641Y-110487908D01*
X114552438Y-110515000D01*
X114413562Y-110515000D01*
X114277359Y-110487908D01*
X114149059Y-110434764D01*
X114149058Y-110434764D01*
X114149057Y-110434763D01*
X114033589Y-110357609D01*
X113935391Y-110259411D01*
X113858237Y-110143943D01*
X113858236Y-110143941D01*
X113805092Y-110015641D01*
X113778000Y-109879438D01*
X113778000Y-109740562D01*
X113805092Y-109604359D01*
X113858236Y-109476059D01*
X113935390Y-109360590D01*
X114033590Y-109262390D01*
X114090931Y-109224076D01*
X114149057Y-109185237D01*
X114149059Y-109185236D01*
X114277359Y-109132092D01*
X114413562Y-109105000D01*
X114552438Y-109105000D01*
X114688641Y-109132092D01*
G37*
G36*
X132722641Y-109132092D02*
G01*
X132850941Y-109185236D01*
X132850943Y-109185237D01*
X132909069Y-109224076D01*
X132966410Y-109262390D01*
X133064610Y-109360590D01*
X133141764Y-109476059D01*
X133194908Y-109604359D01*
X133222000Y-109740562D01*
X133222000Y-109879438D01*
X133194908Y-110015641D01*
X133141764Y-110143941D01*
X133141763Y-110143943D01*
X133064609Y-110259411D01*
X132966411Y-110357609D01*
X132850943Y-110434763D01*
X132850942Y-110434764D01*
X132850941Y-110434764D01*
X132722641Y-110487908D01*
X132586438Y-110515000D01*
X132447562Y-110515000D01*
X132311359Y-110487908D01*
X132183059Y-110434764D01*
X132183058Y-110434764D01*
X132183057Y-110434763D01*
X132067589Y-110357609D01*
X131969391Y-110259411D01*
X131892237Y-110143943D01*
X131892236Y-110143941D01*
X131839092Y-110015641D01*
X131812000Y-109879438D01*
X131812000Y-109740562D01*
X131839092Y-109604359D01*
X131892236Y-109476059D01*
X131969390Y-109360590D01*
X132067590Y-109262390D01*
X132124931Y-109224076D01*
X132183057Y-109185237D01*
X132183059Y-109185236D01*
X132311359Y-109132092D01*
X132447562Y-109105000D01*
X132586438Y-109105000D01*
X132722641Y-109132092D01*
G37*
G36*
X114688641Y-106592092D02*
G01*
X114816941Y-106645236D01*
X114816943Y-106645237D01*
X114875069Y-106684076D01*
X114932410Y-106722390D01*
X115030610Y-106820590D01*
X115107764Y-106936059D01*
X115160908Y-107064359D01*
X115188000Y-107200562D01*
X115188000Y-107339438D01*
X115160908Y-107475641D01*
X115107764Y-107603941D01*
X115107763Y-107603943D01*
X115030609Y-107719411D01*
X114932411Y-107817609D01*
X114816943Y-107894763D01*
X114816942Y-107894764D01*
X114816941Y-107894764D01*
X114688641Y-107947908D01*
X114552438Y-107975000D01*
X114413562Y-107975000D01*
X114277359Y-107947908D01*
X114149059Y-107894764D01*
X114149058Y-107894764D01*
X114149057Y-107894763D01*
X114033589Y-107817609D01*
X113935391Y-107719411D01*
X113858237Y-107603943D01*
X113858236Y-107603941D01*
X113805092Y-107475641D01*
X113778000Y-107339438D01*
X113778000Y-107200562D01*
X113805092Y-107064359D01*
X113858236Y-106936059D01*
X113935390Y-106820590D01*
X114033590Y-106722390D01*
X114090931Y-106684076D01*
X114149057Y-106645237D01*
X114149059Y-106645236D01*
X114277359Y-106592092D01*
X114413562Y-106565000D01*
X114552438Y-106565000D01*
X114688641Y-106592092D01*
G37*
G36*
X132722641Y-106592092D02*
G01*
X132850941Y-106645236D01*
X132850943Y-106645237D01*
X132909069Y-106684076D01*
X132966410Y-106722390D01*
X133064610Y-106820590D01*
X133141764Y-106936059D01*
X133194908Y-107064359D01*
X133222000Y-107200562D01*
X133222000Y-107339438D01*
X133194908Y-107475641D01*
X133141764Y-107603941D01*
X133141763Y-107603943D01*
X133064609Y-107719411D01*
X132966411Y-107817609D01*
X132850943Y-107894763D01*
X132850942Y-107894764D01*
X132850941Y-107894764D01*
X132722641Y-107947908D01*
X132586438Y-107975000D01*
X132447562Y-107975000D01*
X132311359Y-107947908D01*
X132183059Y-107894764D01*
X132183058Y-107894764D01*
X132183057Y-107894763D01*
X132067589Y-107817609D01*
X131969391Y-107719411D01*
X131892237Y-107603943D01*
X131892236Y-107603941D01*
X131839092Y-107475641D01*
X131812000Y-107339438D01*
X131812000Y-107200562D01*
X131839092Y-107064359D01*
X131892236Y-106936059D01*
X131969390Y-106820590D01*
X132067590Y-106722390D01*
X132124931Y-106684076D01*
X132183057Y-106645237D01*
X132183059Y-106645236D01*
X132311359Y-106592092D01*
X132447562Y-106565000D01*
X132586438Y-106565000D01*
X132722641Y-106592092D01*
G37*
G36*
X132722641Y-104052092D02*
G01*
X132850941Y-104105236D01*
X132850943Y-104105237D01*
X132909069Y-104144076D01*
X132966410Y-104182390D01*
X133064610Y-104280590D01*
X133141764Y-104396059D01*
X133194908Y-104524359D01*
X133222000Y-104660562D01*
X133222000Y-104799438D01*
X133194908Y-104935641D01*
X133141764Y-105063941D01*
X133141763Y-105063943D01*
X133064609Y-105179411D01*
X132966411Y-105277609D01*
X132850943Y-105354763D01*
X132850942Y-105354764D01*
X132850941Y-105354764D01*
X132722641Y-105407908D01*
X132586438Y-105435000D01*
X132447562Y-105435000D01*
X132311359Y-105407908D01*
X132183059Y-105354764D01*
X132183058Y-105354764D01*
X132183057Y-105354763D01*
X132067589Y-105277609D01*
X131969391Y-105179411D01*
X131892237Y-105063943D01*
X131892236Y-105063941D01*
X131839092Y-104935641D01*
X131812000Y-104799438D01*
X131812000Y-104660562D01*
X131839092Y-104524359D01*
X131892236Y-104396059D01*
X131969390Y-104280590D01*
X132067590Y-104182390D01*
X132124931Y-104144076D01*
X132183057Y-104105237D01*
X132183059Y-104105236D01*
X132311359Y-104052092D01*
X132447562Y-104025000D01*
X132586438Y-104025000D01*
X132722641Y-104052092D01*
G37*
G36*
X114688641Y-104052092D02*
G01*
X114816941Y-104105236D01*
X114816943Y-104105237D01*
X114875069Y-104144076D01*
X114932410Y-104182390D01*
X115030610Y-104280590D01*
X115107764Y-104396059D01*
X115160908Y-104524359D01*
X115188000Y-104660562D01*
X115188000Y-104799438D01*
X115160908Y-104935641D01*
X115107764Y-105063941D01*
X115107763Y-105063943D01*
X115030609Y-105179411D01*
X114932411Y-105277609D01*
X114816943Y-105354763D01*
X114816942Y-105354764D01*
X114816941Y-105354764D01*
X114688641Y-105407908D01*
X114552438Y-105435000D01*
X114413562Y-105435000D01*
X114277359Y-105407908D01*
X114149059Y-105354764D01*
X114149058Y-105354764D01*
X114149057Y-105354763D01*
X114033589Y-105277609D01*
X113935391Y-105179411D01*
X113858237Y-105063943D01*
X113858236Y-105063941D01*
X113805092Y-104935641D01*
X113778000Y-104799438D01*
X113778000Y-104660562D01*
X113805092Y-104524359D01*
X113858236Y-104396059D01*
X113935390Y-104280590D01*
X114033590Y-104182390D01*
X114090931Y-104144076D01*
X114149057Y-104105237D01*
X114149059Y-104105236D01*
X114277359Y-104052092D01*
X114413562Y-104025000D01*
X114552438Y-104025000D01*
X114688641Y-104052092D01*
G37*
G36*
X126348228Y-101581703D02*
G01*
X126503100Y-101645853D01*
X126642481Y-101738985D01*
X126761015Y-101857519D01*
X126854147Y-101996900D01*
X126918297Y-102151772D01*
X126951000Y-102316184D01*
X126951000Y-102483816D01*
X126918297Y-102648228D01*
X126854147Y-102803100D01*
X126761015Y-102942481D01*
X126642481Y-103061015D01*
X126503100Y-103154147D01*
X126348228Y-103218297D01*
X126183816Y-103251000D01*
X126016184Y-103251000D01*
X125851772Y-103218297D01*
X125696900Y-103154147D01*
X125557519Y-103061015D01*
X125438985Y-102942481D01*
X125345853Y-102803100D01*
X125281703Y-102648228D01*
X125249000Y-102483816D01*
X125249000Y-102316184D01*
X125281703Y-102151772D01*
X125345853Y-101996900D01*
X125438985Y-101857519D01*
X125557519Y-101738985D01*
X125696900Y-101645853D01*
X125851772Y-101581703D01*
X126016184Y-101549000D01*
X126183816Y-101549000D01*
X126348228Y-101581703D01*
G37*
G36*
X120998228Y-101381703D02*
G01*
X121153100Y-101445853D01*
X121292481Y-101538985D01*
X121411015Y-101657519D01*
X121504147Y-101796900D01*
X121568297Y-101951772D01*
X121601000Y-102116184D01*
X121601000Y-102283816D01*
X121568297Y-102448228D01*
X121504147Y-102603100D01*
X121411015Y-102742481D01*
X121292481Y-102861015D01*
X121153100Y-102954147D01*
X120998228Y-103018297D01*
X120833816Y-103051000D01*
X120666184Y-103051000D01*
X120501772Y-103018297D01*
X120346900Y-102954147D01*
X120207519Y-102861015D01*
X120088985Y-102742481D01*
X119995853Y-102603100D01*
X119931703Y-102448228D01*
X119899000Y-102283816D01*
X119899000Y-102116184D01*
X119931703Y-101951772D01*
X119995853Y-101796900D01*
X120088985Y-101657519D01*
X120207519Y-101538985D01*
X120346900Y-101445853D01*
X120501772Y-101381703D01*
X120666184Y-101349000D01*
X120833816Y-101349000D01*
X120998228Y-101381703D01*
G37*
G36*
X132722641Y-101512092D02*
G01*
X132850941Y-101565236D01*
X132850943Y-101565237D01*
X132875586Y-101581703D01*
X132966410Y-101642390D01*
X133064610Y-101740590D01*
X133141764Y-101856059D01*
X133194908Y-101984359D01*
X133222000Y-102120562D01*
X133222000Y-102259438D01*
X133194908Y-102395641D01*
X133141764Y-102523941D01*
X133064610Y-102639410D01*
X132966410Y-102737610D01*
X132959120Y-102742481D01*
X132850943Y-102814763D01*
X132850942Y-102814764D01*
X132850941Y-102814764D01*
X132722641Y-102867908D01*
X132586438Y-102895000D01*
X132447562Y-102895000D01*
X132311359Y-102867908D01*
X132183059Y-102814764D01*
X132183058Y-102814764D01*
X132183057Y-102814763D01*
X132074880Y-102742481D01*
X132067590Y-102737610D01*
X131969390Y-102639410D01*
X131892236Y-102523941D01*
X131839092Y-102395641D01*
X131812000Y-102259438D01*
X131812000Y-102120562D01*
X131839092Y-101984359D01*
X131892236Y-101856059D01*
X131969390Y-101740590D01*
X132067590Y-101642390D01*
X132158414Y-101581703D01*
X132183057Y-101565237D01*
X132183059Y-101565236D01*
X132311359Y-101512092D01*
X132447562Y-101485000D01*
X132586438Y-101485000D01*
X132722641Y-101512092D01*
G37*
G36*
X114688641Y-101512092D02*
G01*
X114816941Y-101565236D01*
X114816943Y-101565237D01*
X114841586Y-101581703D01*
X114932410Y-101642390D01*
X115030610Y-101740590D01*
X115107764Y-101856059D01*
X115160908Y-101984359D01*
X115188000Y-102120562D01*
X115188000Y-102259438D01*
X115160908Y-102395641D01*
X115107764Y-102523941D01*
X115030610Y-102639410D01*
X114932410Y-102737610D01*
X114925120Y-102742481D01*
X114816943Y-102814763D01*
X114816942Y-102814764D01*
X114816941Y-102814764D01*
X114688641Y-102867908D01*
X114552438Y-102895000D01*
X114413562Y-102895000D01*
X114277359Y-102867908D01*
X114149059Y-102814764D01*
X114149058Y-102814764D01*
X114149057Y-102814763D01*
X114040880Y-102742481D01*
X114033590Y-102737610D01*
X113935390Y-102639410D01*
X113858236Y-102523941D01*
X113805092Y-102395641D01*
X113778000Y-102259438D01*
X113778000Y-102120562D01*
X113805092Y-101984359D01*
X113858236Y-101856059D01*
X113935390Y-101740590D01*
X114033590Y-101642390D01*
X114124414Y-101581703D01*
X114149057Y-101565237D01*
X114149059Y-101565236D01*
X114277359Y-101512092D01*
X114413562Y-101485000D01*
X114552438Y-101485000D01*
X114688641Y-101512092D01*
G37*
G36*
X114688641Y-98972092D02*
G01*
X114816941Y-99025236D01*
X114816943Y-99025237D01*
X114875069Y-99064076D01*
X114932410Y-99102390D01*
X115030610Y-99200590D01*
X115107764Y-99316059D01*
X115160908Y-99444359D01*
X115188000Y-99580562D01*
X115188000Y-99719438D01*
X115160908Y-99855641D01*
X115107764Y-99983941D01*
X115107763Y-99983943D01*
X115030609Y-100099411D01*
X114932411Y-100197609D01*
X114816943Y-100274763D01*
X114816942Y-100274764D01*
X114816941Y-100274764D01*
X114688641Y-100327908D01*
X114552438Y-100355000D01*
X114413562Y-100355000D01*
X114277359Y-100327908D01*
X114149059Y-100274764D01*
X114149058Y-100274764D01*
X114149057Y-100274763D01*
X114033589Y-100197609D01*
X113935391Y-100099411D01*
X113858237Y-99983943D01*
X113858236Y-99983941D01*
X113805092Y-99855641D01*
X113778000Y-99719438D01*
X113778000Y-99580562D01*
X113805092Y-99444359D01*
X113858236Y-99316059D01*
X113935390Y-99200590D01*
X114033590Y-99102390D01*
X114090931Y-99064076D01*
X114149057Y-99025237D01*
X114149059Y-99025236D01*
X114277359Y-98972092D01*
X114413562Y-98945000D01*
X114552438Y-98945000D01*
X114688641Y-98972092D01*
G37*
G36*
X132722641Y-98972092D02*
G01*
X132850941Y-99025236D01*
X132850943Y-99025237D01*
X132909069Y-99064076D01*
X132966410Y-99102390D01*
X133064610Y-99200590D01*
X133141764Y-99316059D01*
X133194908Y-99444359D01*
X133222000Y-99580562D01*
X133222000Y-99719438D01*
X133194908Y-99855641D01*
X133141764Y-99983941D01*
X133141763Y-99983943D01*
X133064609Y-100099411D01*
X132966411Y-100197609D01*
X132850943Y-100274763D01*
X132850942Y-100274764D01*
X132850941Y-100274764D01*
X132722641Y-100327908D01*
X132586438Y-100355000D01*
X132447562Y-100355000D01*
X132311359Y-100327908D01*
X132183059Y-100274764D01*
X132183058Y-100274764D01*
X132183057Y-100274763D01*
X132067589Y-100197609D01*
X131969391Y-100099411D01*
X131892237Y-99983943D01*
X131892236Y-99983941D01*
X131839092Y-99855641D01*
X131812000Y-99719438D01*
X131812000Y-99580562D01*
X131839092Y-99444359D01*
X131892236Y-99316059D01*
X131969390Y-99200590D01*
X132067590Y-99102390D01*
X132124931Y-99064076D01*
X132183057Y-99025237D01*
X132183059Y-99025236D01*
X132311359Y-98972092D01*
X132447562Y-98945000D01*
X132586438Y-98945000D01*
X132722641Y-98972092D01*
G37*
G36*
X115188000Y-97815000D02*
G01*
X113778000Y-97815000D01*
X113778000Y-96405000D01*
X115188000Y-96405000D01*
X115188000Y-97815000D01*
G37*
G36*
X132722641Y-96432092D02*
G01*
X132850941Y-96485236D01*
X132850943Y-96485237D01*
X132909069Y-96524076D01*
X132966410Y-96562390D01*
X133064610Y-96660590D01*
X133141764Y-96776059D01*
X133194908Y-96904359D01*
X133222000Y-97040562D01*
X133222000Y-97179438D01*
X133194908Y-97315641D01*
X133141764Y-97443941D01*
X133141763Y-97443943D01*
X133064609Y-97559411D01*
X132966411Y-97657609D01*
X132850943Y-97734763D01*
X132850942Y-97734764D01*
X132850941Y-97734764D01*
X132722641Y-97787908D01*
X132586438Y-97815000D01*
X132447562Y-97815000D01*
X132311359Y-97787908D01*
X132183059Y-97734764D01*
X132183058Y-97734764D01*
X132183057Y-97734763D01*
X132067589Y-97657609D01*
X131969391Y-97559411D01*
X131892237Y-97443943D01*
X131892236Y-97443941D01*
X131839092Y-97315641D01*
X131812000Y-97179438D01*
X131812000Y-97040562D01*
X131839092Y-96904359D01*
X131892236Y-96776059D01*
X131969390Y-96660590D01*
X132067590Y-96562390D01*
X132124931Y-96524076D01*
X132183057Y-96485237D01*
X132183059Y-96485236D01*
X132311359Y-96432092D01*
X132447562Y-96405000D01*
X132586438Y-96405000D01*
X132722641Y-96432092D01*
G37*
G36*
X107338855Y-93352140D02*
G01*
X107402618Y-93358420D01*
X107493404Y-93385960D01*
X107525336Y-93395646D01*
X107638425Y-93456094D01*
X107737554Y-93537446D01*
X107818906Y-93636575D01*
X107879354Y-93749664D01*
X107879355Y-93749668D01*
X107916580Y-93872382D01*
X107929149Y-94000000D01*
X107916580Y-94127618D01*
X107889040Y-94218404D01*
X107879354Y-94250336D01*
X107818906Y-94363425D01*
X107737554Y-94462554D01*
X107638425Y-94543906D01*
X107525336Y-94604354D01*
X107493404Y-94614040D01*
X107402618Y-94641580D01*
X107338855Y-94647860D01*
X107306974Y-94651000D01*
X106693026Y-94651000D01*
X106661145Y-94647860D01*
X106597382Y-94641580D01*
X106506596Y-94614040D01*
X106474664Y-94604354D01*
X106361575Y-94543906D01*
X106262446Y-94462554D01*
X106181094Y-94363425D01*
X106120646Y-94250336D01*
X106110960Y-94218404D01*
X106083420Y-94127618D01*
X106070851Y-94000000D01*
X106083420Y-93872382D01*
X106120645Y-93749668D01*
X106120646Y-93749664D01*
X106181094Y-93636575D01*
X106262446Y-93537446D01*
X106361575Y-93456094D01*
X106474664Y-93395646D01*
X106506596Y-93385960D01*
X106597382Y-93358420D01*
X106661145Y-93352140D01*
X106693026Y-93349000D01*
X107306974Y-93349000D01*
X107338855Y-93352140D01*
G37*
G36*
X131409003Y-91287275D02*
G01*
X131409005Y-91287276D01*
X131409006Y-91287276D01*
X131589320Y-91361964D01*
X131751598Y-91470395D01*
X131889605Y-91608402D01*
X131998036Y-91770680D01*
X132025466Y-91836903D01*
X132072725Y-91950997D01*
X132110800Y-92142413D01*
X132110800Y-92337587D01*
X132080836Y-92488228D01*
X132072724Y-92529006D01*
X131998036Y-92709320D01*
X131889605Y-92871598D01*
X131751598Y-93009605D01*
X131589320Y-93118036D01*
X131409006Y-93192724D01*
X131409005Y-93192724D01*
X131409003Y-93192725D01*
X131217587Y-93230800D01*
X131022413Y-93230800D01*
X130830997Y-93192725D01*
X130830995Y-93192724D01*
X130830994Y-93192724D01*
X130650680Y-93118036D01*
X130488402Y-93009605D01*
X130350395Y-92871598D01*
X130241964Y-92709320D01*
X130167276Y-92529006D01*
X130159165Y-92488228D01*
X130129200Y-92337587D01*
X130129200Y-92142413D01*
X130167275Y-91950997D01*
X130214534Y-91836903D01*
X130241964Y-91770680D01*
X130350395Y-91608402D01*
X130488402Y-91470395D01*
X130650680Y-91361964D01*
X130830994Y-91287276D01*
X130830995Y-91287276D01*
X130830997Y-91287275D01*
X131022413Y-91249200D01*
X131217587Y-91249200D01*
X131409003Y-91287275D01*
G37*
G36*
X116169003Y-91287275D02*
G01*
X116169005Y-91287276D01*
X116169006Y-91287276D01*
X116349320Y-91361964D01*
X116511598Y-91470395D01*
X116649605Y-91608402D01*
X116758036Y-91770680D01*
X116785466Y-91836903D01*
X116832725Y-91950997D01*
X116870800Y-92142413D01*
X116870800Y-92337587D01*
X116840836Y-92488228D01*
X116832724Y-92529006D01*
X116758036Y-92709320D01*
X116649605Y-92871598D01*
X116511598Y-93009605D01*
X116349320Y-93118036D01*
X116169006Y-93192724D01*
X116169005Y-93192724D01*
X116169003Y-93192725D01*
X115977587Y-93230800D01*
X115782413Y-93230800D01*
X115590997Y-93192725D01*
X115590995Y-93192724D01*
X115590994Y-93192724D01*
X115410680Y-93118036D01*
X115248402Y-93009605D01*
X115110395Y-92871598D01*
X115001964Y-92709320D01*
X114927276Y-92529006D01*
X114919165Y-92488228D01*
X114889200Y-92337587D01*
X114889200Y-92142413D01*
X114927275Y-91950997D01*
X114974534Y-91836903D01*
X115001964Y-91770680D01*
X115110395Y-91608402D01*
X115248402Y-91470395D01*
X115410680Y-91361964D01*
X115590994Y-91287276D01*
X115590995Y-91287276D01*
X115590997Y-91287275D01*
X115782413Y-91249200D01*
X115977587Y-91249200D01*
X116169003Y-91287275D01*
G37*
G36*
X126348228Y-91421703D02*
G01*
X126503100Y-91485853D01*
X126642481Y-91578985D01*
X126761015Y-91697519D01*
X126854147Y-91836900D01*
X126918297Y-91991772D01*
X126951000Y-92156184D01*
X126951000Y-92323816D01*
X126918297Y-92488228D01*
X126854147Y-92643100D01*
X126761015Y-92782481D01*
X126642481Y-92901015D01*
X126503100Y-92994147D01*
X126348228Y-93058297D01*
X126183816Y-93091000D01*
X126016184Y-93091000D01*
X125851772Y-93058297D01*
X125696900Y-92994147D01*
X125557519Y-92901015D01*
X125438985Y-92782481D01*
X125345853Y-92643100D01*
X125281703Y-92488228D01*
X125249000Y-92323816D01*
X125249000Y-92156184D01*
X125281703Y-91991772D01*
X125345853Y-91836900D01*
X125438985Y-91697519D01*
X125557519Y-91578985D01*
X125696900Y-91485853D01*
X125851772Y-91421703D01*
X126016184Y-91389000D01*
X126183816Y-91389000D01*
X126348228Y-91421703D01*
G37*
G36*
X120998228Y-91221703D02*
G01*
X121153100Y-91285853D01*
X121292481Y-91378985D01*
X121411015Y-91497519D01*
X121504147Y-91636900D01*
X121568297Y-91791772D01*
X121601000Y-91956184D01*
X121601000Y-92123816D01*
X121568297Y-92288228D01*
X121504147Y-92443100D01*
X121411015Y-92582481D01*
X121292481Y-92701015D01*
X121153100Y-92794147D01*
X120998228Y-92858297D01*
X120833816Y-92891000D01*
X120666184Y-92891000D01*
X120501772Y-92858297D01*
X120346900Y-92794147D01*
X120207519Y-92701015D01*
X120088985Y-92582481D01*
X119995853Y-92443100D01*
X119931703Y-92288228D01*
X119899000Y-92123816D01*
X119899000Y-91956184D01*
X119931703Y-91791772D01*
X119995853Y-91636900D01*
X120088985Y-91497519D01*
X120207519Y-91378985D01*
X120346900Y-91285853D01*
X120501772Y-91221703D01*
X120666184Y-91189000D01*
X120833816Y-91189000D01*
X120998228Y-91221703D01*
G37*
G36*
X107766242Y-91353404D02*
G01*
X107803337Y-91364657D01*
X107837515Y-91382925D01*
X107867481Y-91407519D01*
X107892075Y-91437485D01*
X107910343Y-91471663D01*
X107921596Y-91508758D01*
X107926000Y-91553474D01*
X107926000Y-92446526D01*
X107921596Y-92491242D01*
X107910343Y-92528337D01*
X107892075Y-92562515D01*
X107867481Y-92592481D01*
X107837515Y-92617075D01*
X107803337Y-92635343D01*
X107766242Y-92646596D01*
X107721526Y-92651000D01*
X106278474Y-92651000D01*
X106233758Y-92646596D01*
X106196663Y-92635343D01*
X106162485Y-92617075D01*
X106132519Y-92592481D01*
X106107925Y-92562515D01*
X106089657Y-92528337D01*
X106078404Y-92491242D01*
X106074000Y-92446526D01*
X106074000Y-91553474D01*
X106078404Y-91508758D01*
X106089657Y-91471663D01*
X106107925Y-91437485D01*
X106132519Y-91407519D01*
X106162485Y-91382925D01*
X106196663Y-91364657D01*
X106233758Y-91353404D01*
X106278474Y-91349000D01*
X107721526Y-91349000D01*
X107766242Y-91353404D01*
G37*
G36*
X131409003Y-88747275D02*
G01*
X131409005Y-88747276D01*
X131409006Y-88747276D01*
X131589320Y-88821964D01*
X131751598Y-88930395D01*
X131889605Y-89068402D01*
X131998036Y-89230680D01*
X132072724Y-89410994D01*
X132110800Y-89602415D01*
X132110800Y-89797585D01*
X132072724Y-89989006D01*
X131998036Y-90169320D01*
X131889605Y-90331598D01*
X131751598Y-90469605D01*
X131589320Y-90578036D01*
X131409006Y-90652724D01*
X131409005Y-90652724D01*
X131409003Y-90652725D01*
X131217587Y-90690800D01*
X131022413Y-90690800D01*
X130830997Y-90652725D01*
X130830995Y-90652724D01*
X130830994Y-90652724D01*
X130650680Y-90578036D01*
X130488402Y-90469605D01*
X130350395Y-90331598D01*
X130241964Y-90169320D01*
X130167276Y-89989006D01*
X130129200Y-89797585D01*
X130129200Y-89602415D01*
X130167276Y-89410994D01*
X130241964Y-89230680D01*
X130350395Y-89068402D01*
X130488402Y-88930395D01*
X130650680Y-88821964D01*
X130830994Y-88747276D01*
X130830995Y-88747276D01*
X130830997Y-88747275D01*
X131022413Y-88709200D01*
X131217587Y-88709200D01*
X131409003Y-88747275D01*
G37*
G36*
X116169003Y-88747275D02*
G01*
X116169005Y-88747276D01*
X116169006Y-88747276D01*
X116349320Y-88821964D01*
X116511598Y-88930395D01*
X116649605Y-89068402D01*
X116758036Y-89230680D01*
X116832724Y-89410994D01*
X116870800Y-89602415D01*
X116870800Y-89797585D01*
X116832724Y-89989006D01*
X116758036Y-90169320D01*
X116649605Y-90331598D01*
X116511598Y-90469605D01*
X116349320Y-90578036D01*
X116169006Y-90652724D01*
X116169005Y-90652724D01*
X116169003Y-90652725D01*
X115977587Y-90690800D01*
X115782413Y-90690800D01*
X115590997Y-90652725D01*
X115590995Y-90652724D01*
X115590994Y-90652724D01*
X115410680Y-90578036D01*
X115248402Y-90469605D01*
X115110395Y-90331598D01*
X115001964Y-90169320D01*
X114927276Y-89989006D01*
X114889200Y-89797585D01*
X114889200Y-89602415D01*
X114927276Y-89410994D01*
X115001964Y-89230680D01*
X115110395Y-89068402D01*
X115248402Y-88930395D01*
X115410680Y-88821964D01*
X115590994Y-88747276D01*
X115590995Y-88747276D01*
X115590997Y-88747275D01*
X115782413Y-88709200D01*
X115977587Y-88709200D01*
X116169003Y-88747275D01*
G37*
G36*
X116169003Y-86207275D02*
G01*
X116169005Y-86207276D01*
X116169006Y-86207276D01*
X116349320Y-86281964D01*
X116511598Y-86390395D01*
X116649605Y-86528402D01*
X116758036Y-86690680D01*
X116782469Y-86749668D01*
X116832725Y-86870997D01*
X116870800Y-87062413D01*
X116870800Y-87257587D01*
X116849748Y-87363425D01*
X116832724Y-87449006D01*
X116758036Y-87629320D01*
X116649605Y-87791598D01*
X116511598Y-87929605D01*
X116349320Y-88038036D01*
X116169006Y-88112724D01*
X116169005Y-88112724D01*
X116169003Y-88112725D01*
X115977587Y-88150800D01*
X115782413Y-88150800D01*
X115590997Y-88112725D01*
X115590995Y-88112724D01*
X115590994Y-88112724D01*
X115410680Y-88038036D01*
X115248402Y-87929605D01*
X115110395Y-87791598D01*
X115001964Y-87629320D01*
X114927276Y-87449006D01*
X114910253Y-87363425D01*
X114889200Y-87257587D01*
X114889200Y-87062413D01*
X114927275Y-86870997D01*
X114977531Y-86749668D01*
X115001964Y-86690680D01*
X115110395Y-86528402D01*
X115248402Y-86390395D01*
X115410680Y-86281964D01*
X115590994Y-86207276D01*
X115590995Y-86207276D01*
X115590997Y-86207275D01*
X115782413Y-86169200D01*
X115977587Y-86169200D01*
X116169003Y-86207275D01*
G37*
G36*
X131409003Y-86207275D02*
G01*
X131409005Y-86207276D01*
X131409006Y-86207276D01*
X131589320Y-86281964D01*
X131751598Y-86390395D01*
X131889605Y-86528402D01*
X131998036Y-86690680D01*
X132022469Y-86749668D01*
X132072725Y-86870997D01*
X132110800Y-87062413D01*
X132110800Y-87257587D01*
X132089748Y-87363425D01*
X132072724Y-87449006D01*
X131998036Y-87629320D01*
X131889605Y-87791598D01*
X131751598Y-87929605D01*
X131589320Y-88038036D01*
X131409006Y-88112724D01*
X131409005Y-88112724D01*
X131409003Y-88112725D01*
X131217587Y-88150800D01*
X131022413Y-88150800D01*
X130830997Y-88112725D01*
X130830995Y-88112724D01*
X130830994Y-88112724D01*
X130650680Y-88038036D01*
X130488402Y-87929605D01*
X130350395Y-87791598D01*
X130241964Y-87629320D01*
X130167276Y-87449006D01*
X130150253Y-87363425D01*
X130129200Y-87257587D01*
X130129200Y-87062413D01*
X130167275Y-86870997D01*
X130217531Y-86749668D01*
X130241964Y-86690680D01*
X130350395Y-86528402D01*
X130488402Y-86390395D01*
X130650680Y-86281964D01*
X130830994Y-86207276D01*
X130830995Y-86207276D01*
X130830997Y-86207275D01*
X131022413Y-86169200D01*
X131217587Y-86169200D01*
X131409003Y-86207275D01*
G37*
G36*
X107338855Y-86352140D02*
G01*
X107402618Y-86358420D01*
X107493404Y-86385960D01*
X107525336Y-86395646D01*
X107638425Y-86456094D01*
X107737554Y-86537446D01*
X107818906Y-86636575D01*
X107879354Y-86749664D01*
X107879355Y-86749668D01*
X107916580Y-86872382D01*
X107929149Y-87000000D01*
X107916580Y-87127618D01*
X107889040Y-87218404D01*
X107879354Y-87250336D01*
X107818906Y-87363425D01*
X107737554Y-87462554D01*
X107638425Y-87543906D01*
X107525336Y-87604354D01*
X107493404Y-87614040D01*
X107402618Y-87641580D01*
X107338855Y-87647860D01*
X107306974Y-87651000D01*
X106693026Y-87651000D01*
X106661145Y-87647860D01*
X106597382Y-87641580D01*
X106506596Y-87614040D01*
X106474664Y-87604354D01*
X106361575Y-87543906D01*
X106262446Y-87462554D01*
X106181094Y-87363425D01*
X106120646Y-87250336D01*
X106110960Y-87218404D01*
X106083420Y-87127618D01*
X106070851Y-87000000D01*
X106083420Y-86872382D01*
X106120645Y-86749668D01*
X106120646Y-86749664D01*
X106181094Y-86636575D01*
X106262446Y-86537446D01*
X106361575Y-86456094D01*
X106474664Y-86395646D01*
X106506596Y-86385960D01*
X106597382Y-86358420D01*
X106661145Y-86352140D01*
X106693026Y-86349000D01*
X107306974Y-86349000D01*
X107338855Y-86352140D01*
G37*
G36*
X128551503Y-85096025D02*
G01*
X128551505Y-85096026D01*
X128551506Y-85096026D01*
X128731820Y-85170714D01*
X128894098Y-85279145D01*
X129032105Y-85417152D01*
X129140536Y-85579430D01*
X129215224Y-85759744D01*
X129215225Y-85759747D01*
X129253300Y-85951163D01*
X129253300Y-86146337D01*
X129241179Y-86207275D01*
X129215224Y-86337756D01*
X129140536Y-86518070D01*
X129032105Y-86680348D01*
X128894098Y-86818355D01*
X128731820Y-86926786D01*
X128551506Y-87001474D01*
X128551505Y-87001474D01*
X128551503Y-87001475D01*
X128360087Y-87039550D01*
X128164913Y-87039550D01*
X127973497Y-87001475D01*
X127973495Y-87001474D01*
X127973494Y-87001474D01*
X127793180Y-86926786D01*
X127630902Y-86818355D01*
X127492895Y-86680348D01*
X127384464Y-86518070D01*
X127309776Y-86337756D01*
X127283822Y-86207275D01*
X127271700Y-86146337D01*
X127271700Y-85951163D01*
X127309775Y-85759747D01*
X127309776Y-85759744D01*
X127384464Y-85579430D01*
X127492895Y-85417152D01*
X127630902Y-85279145D01*
X127793180Y-85170714D01*
X127973494Y-85096026D01*
X127973495Y-85096026D01*
X127973497Y-85096025D01*
X128164913Y-85057950D01*
X128360087Y-85057950D01*
X128551503Y-85096025D01*
G37*
G36*
X107338855Y-84352140D02*
G01*
X107402618Y-84358420D01*
X107493404Y-84385960D01*
X107525336Y-84395646D01*
X107638425Y-84456094D01*
X107737554Y-84537446D01*
X107818906Y-84636575D01*
X107879354Y-84749664D01*
X107879355Y-84749668D01*
X107916580Y-84872382D01*
X107929149Y-85000000D01*
X107916580Y-85127618D01*
X107889040Y-85218404D01*
X107879354Y-85250336D01*
X107818906Y-85363425D01*
X107737554Y-85462554D01*
X107638425Y-85543906D01*
X107525336Y-85604354D01*
X107504086Y-85610800D01*
X107402618Y-85641580D01*
X107338855Y-85647860D01*
X107306974Y-85651000D01*
X106693026Y-85651000D01*
X106661145Y-85647860D01*
X106597382Y-85641580D01*
X106495914Y-85610800D01*
X106474664Y-85604354D01*
X106361575Y-85543906D01*
X106262446Y-85462554D01*
X106181094Y-85363425D01*
X106120646Y-85250336D01*
X106110960Y-85218404D01*
X106083420Y-85127618D01*
X106070851Y-85000000D01*
X106083420Y-84872382D01*
X106120645Y-84749668D01*
X106120646Y-84749664D01*
X106181094Y-84636575D01*
X106262446Y-84537446D01*
X106361575Y-84456094D01*
X106474664Y-84395646D01*
X106506596Y-84385960D01*
X106597382Y-84358420D01*
X106661145Y-84352140D01*
X106693026Y-84349000D01*
X107306974Y-84349000D01*
X107338855Y-84352140D01*
G37*
G36*
X131409003Y-83667275D02*
G01*
X131409005Y-83667276D01*
X131409006Y-83667276D01*
X131589320Y-83741964D01*
X131751598Y-83850395D01*
X131889605Y-83988402D01*
X131998036Y-84150680D01*
X132050920Y-84278355D01*
X132072725Y-84330997D01*
X132110800Y-84522413D01*
X132110800Y-84717587D01*
X132104419Y-84749668D01*
X132072724Y-84909006D01*
X131998036Y-85089320D01*
X131889605Y-85251598D01*
X131751598Y-85389605D01*
X131589320Y-85498036D01*
X131409006Y-85572724D01*
X131409005Y-85572724D01*
X131409003Y-85572725D01*
X131217587Y-85610800D01*
X131022413Y-85610800D01*
X130830997Y-85572725D01*
X130830995Y-85572724D01*
X130830994Y-85572724D01*
X130650680Y-85498036D01*
X130488402Y-85389605D01*
X130350395Y-85251598D01*
X130241964Y-85089320D01*
X130167276Y-84909006D01*
X130135582Y-84749668D01*
X130129200Y-84717587D01*
X130129200Y-84522413D01*
X130167275Y-84330997D01*
X130189080Y-84278355D01*
X130241964Y-84150680D01*
X130350395Y-83988402D01*
X130488402Y-83850395D01*
X130650680Y-83741964D01*
X130830994Y-83667276D01*
X130830995Y-83667276D01*
X130830997Y-83667275D01*
X131022413Y-83629200D01*
X131217587Y-83629200D01*
X131409003Y-83667275D01*
G37*
G36*
X116169003Y-83667275D02*
G01*
X116169005Y-83667276D01*
X116169006Y-83667276D01*
X116349320Y-83741964D01*
X116511598Y-83850395D01*
X116649605Y-83988402D01*
X116758036Y-84150680D01*
X116810920Y-84278355D01*
X116832725Y-84330997D01*
X116870800Y-84522413D01*
X116870800Y-84717587D01*
X116864419Y-84749668D01*
X116832724Y-84909006D01*
X116758036Y-85089320D01*
X116649605Y-85251598D01*
X116511598Y-85389605D01*
X116349320Y-85498036D01*
X116169006Y-85572724D01*
X116169005Y-85572724D01*
X116169003Y-85572725D01*
X115977587Y-85610800D01*
X115782413Y-85610800D01*
X115590997Y-85572725D01*
X115590995Y-85572724D01*
X115590994Y-85572724D01*
X115410680Y-85498036D01*
X115248402Y-85389605D01*
X115110395Y-85251598D01*
X115001964Y-85089320D01*
X114927276Y-84909006D01*
X114895582Y-84749668D01*
X114889200Y-84717587D01*
X114889200Y-84522413D01*
X114927275Y-84330997D01*
X114949080Y-84278355D01*
X115001964Y-84150680D01*
X115110395Y-83988402D01*
X115248402Y-83850395D01*
X115410680Y-83741964D01*
X115590994Y-83667276D01*
X115590995Y-83667276D01*
X115590997Y-83667275D01*
X115782413Y-83629200D01*
X115977587Y-83629200D01*
X116169003Y-83667275D01*
G37*
G36*
X140766242Y-83353404D02*
G01*
X140803337Y-83364657D01*
X140837515Y-83382925D01*
X140867481Y-83407519D01*
X140892075Y-83437485D01*
X140910343Y-83471663D01*
X140921596Y-83508758D01*
X140926000Y-83553474D01*
X140926000Y-84446526D01*
X140921596Y-84491242D01*
X140910343Y-84528337D01*
X140892075Y-84562515D01*
X140867481Y-84592481D01*
X140837515Y-84617075D01*
X140803337Y-84635343D01*
X140766242Y-84646596D01*
X140721526Y-84651000D01*
X139278474Y-84651000D01*
X139233758Y-84646596D01*
X139196663Y-84635343D01*
X139162485Y-84617075D01*
X139132519Y-84592481D01*
X139107925Y-84562515D01*
X139089657Y-84528337D01*
X139078404Y-84491242D01*
X139074000Y-84446526D01*
X139074000Y-83553474D01*
X139078404Y-83508758D01*
X139089657Y-83471663D01*
X139107925Y-83437485D01*
X139132519Y-83407519D01*
X139162485Y-83382925D01*
X139196663Y-83364657D01*
X139233758Y-83353404D01*
X139278474Y-83349000D01*
X140721526Y-83349000D01*
X140766242Y-83353404D01*
G37*
G36*
X128551503Y-82556025D02*
G01*
X128551505Y-82556026D01*
X128551506Y-82556026D01*
X128731820Y-82630714D01*
X128894098Y-82739145D01*
X129032105Y-82877152D01*
X129140536Y-83039430D01*
X129177064Y-83127618D01*
X129215225Y-83219747D01*
X129253300Y-83411163D01*
X129253300Y-83606337D01*
X129241179Y-83667275D01*
X129215224Y-83797756D01*
X129140536Y-83978070D01*
X129032105Y-84140348D01*
X128894098Y-84278355D01*
X128731820Y-84386786D01*
X128551506Y-84461474D01*
X128551505Y-84461474D01*
X128551503Y-84461475D01*
X128360087Y-84499550D01*
X128164913Y-84499550D01*
X127973497Y-84461475D01*
X127973495Y-84461474D01*
X127973494Y-84461474D01*
X127793180Y-84386786D01*
X127630902Y-84278355D01*
X127492895Y-84140348D01*
X127384464Y-83978070D01*
X127309776Y-83797756D01*
X127283822Y-83667275D01*
X127271700Y-83606337D01*
X127271700Y-83411163D01*
X127309775Y-83219747D01*
X127347936Y-83127618D01*
X127384464Y-83039430D01*
X127492895Y-82877152D01*
X127630902Y-82739145D01*
X127793180Y-82630714D01*
X127973494Y-82556026D01*
X127973495Y-82556026D01*
X127973497Y-82556025D01*
X128164913Y-82517950D01*
X128360087Y-82517950D01*
X128551503Y-82556025D01*
G37*
G36*
X107338855Y-82352140D02*
G01*
X107402618Y-82358420D01*
X107493404Y-82385960D01*
X107525336Y-82395646D01*
X107638425Y-82456094D01*
X107737554Y-82537446D01*
X107818906Y-82636575D01*
X107879354Y-82749664D01*
X107879355Y-82749668D01*
X107916580Y-82872382D01*
X107929149Y-83000000D01*
X107916580Y-83127618D01*
X107889040Y-83218404D01*
X107879354Y-83250336D01*
X107818906Y-83363425D01*
X107737554Y-83462554D01*
X107638425Y-83543906D01*
X107525336Y-83604354D01*
X107493404Y-83614040D01*
X107402618Y-83641580D01*
X107338855Y-83647860D01*
X107306974Y-83651000D01*
X106693026Y-83651000D01*
X106661145Y-83647860D01*
X106597382Y-83641580D01*
X106506596Y-83614040D01*
X106474664Y-83604354D01*
X106361575Y-83543906D01*
X106262446Y-83462554D01*
X106181094Y-83363425D01*
X106120646Y-83250336D01*
X106110960Y-83218404D01*
X106083420Y-83127618D01*
X106070851Y-83000000D01*
X106083420Y-82872382D01*
X106120645Y-82749668D01*
X106120646Y-82749664D01*
X106181094Y-82636575D01*
X106262446Y-82537446D01*
X106361575Y-82456094D01*
X106474664Y-82395646D01*
X106506596Y-82385960D01*
X106597382Y-82358420D01*
X106661145Y-82352140D01*
X106693026Y-82349000D01*
X107306974Y-82349000D01*
X107338855Y-82352140D01*
G37*
G36*
X131409003Y-81127275D02*
G01*
X131409005Y-81127276D01*
X131409006Y-81127276D01*
X131589320Y-81201964D01*
X131751598Y-81310395D01*
X131889605Y-81448402D01*
X131998036Y-81610680D01*
X132055606Y-81749668D01*
X132072725Y-81790997D01*
X132110800Y-81982413D01*
X132110800Y-82177587D01*
X132073835Y-82363425D01*
X132072724Y-82369006D01*
X131998036Y-82549320D01*
X131889605Y-82711598D01*
X131751598Y-82849605D01*
X131589320Y-82958036D01*
X131409006Y-83032724D01*
X131409005Y-83032724D01*
X131409003Y-83032725D01*
X131217587Y-83070800D01*
X131022413Y-83070800D01*
X130830997Y-83032725D01*
X130830995Y-83032724D01*
X130830994Y-83032724D01*
X130650680Y-82958036D01*
X130488402Y-82849605D01*
X130350395Y-82711598D01*
X130241964Y-82549320D01*
X130167276Y-82369006D01*
X130166166Y-82363425D01*
X130129200Y-82177587D01*
X130129200Y-81982413D01*
X130167275Y-81790997D01*
X130184394Y-81749668D01*
X130241964Y-81610680D01*
X130350395Y-81448402D01*
X130488402Y-81310395D01*
X130650680Y-81201964D01*
X130830994Y-81127276D01*
X130830995Y-81127276D01*
X130830997Y-81127275D01*
X131022413Y-81089200D01*
X131217587Y-81089200D01*
X131409003Y-81127275D01*
G37*
G36*
X116169003Y-81127275D02*
G01*
X116169005Y-81127276D01*
X116169006Y-81127276D01*
X116349320Y-81201964D01*
X116511598Y-81310395D01*
X116649605Y-81448402D01*
X116758036Y-81610680D01*
X116815606Y-81749668D01*
X116832725Y-81790997D01*
X116870800Y-81982413D01*
X116870800Y-82177587D01*
X116833835Y-82363425D01*
X116832724Y-82369006D01*
X116758036Y-82549320D01*
X116649605Y-82711598D01*
X116511598Y-82849605D01*
X116349320Y-82958036D01*
X116169006Y-83032724D01*
X116169005Y-83032724D01*
X116169003Y-83032725D01*
X115977587Y-83070800D01*
X115782413Y-83070800D01*
X115590997Y-83032725D01*
X115590995Y-83032724D01*
X115590994Y-83032724D01*
X115410680Y-82958036D01*
X115248402Y-82849605D01*
X115110395Y-82711598D01*
X115001964Y-82549320D01*
X114927276Y-82369006D01*
X114926166Y-82363425D01*
X114889200Y-82177587D01*
X114889200Y-81982413D01*
X114927275Y-81790997D01*
X114944394Y-81749668D01*
X115001964Y-81610680D01*
X115110395Y-81448402D01*
X115248402Y-81310395D01*
X115410680Y-81201964D01*
X115590994Y-81127276D01*
X115590995Y-81127276D01*
X115590997Y-81127275D01*
X115782413Y-81089200D01*
X115977587Y-81089200D01*
X116169003Y-81127275D01*
G37*
G36*
X140338855Y-81352140D02*
G01*
X140402618Y-81358420D01*
X140493404Y-81385960D01*
X140525336Y-81395646D01*
X140638425Y-81456094D01*
X140737554Y-81537446D01*
X140818906Y-81636575D01*
X140879354Y-81749664D01*
X140879355Y-81749668D01*
X140916580Y-81872382D01*
X140929149Y-82000000D01*
X140916580Y-82127618D01*
X140901422Y-82177587D01*
X140879354Y-82250336D01*
X140818906Y-82363425D01*
X140737554Y-82462554D01*
X140638425Y-82543906D01*
X140525336Y-82604354D01*
X140493404Y-82614040D01*
X140402618Y-82641580D01*
X140338855Y-82647860D01*
X140306974Y-82651000D01*
X139693026Y-82651000D01*
X139661145Y-82647860D01*
X139597382Y-82641580D01*
X139506596Y-82614040D01*
X139474664Y-82604354D01*
X139361575Y-82543906D01*
X139262446Y-82462554D01*
X139181094Y-82363425D01*
X139120646Y-82250336D01*
X139098578Y-82177587D01*
X139083420Y-82127618D01*
X139070851Y-82000000D01*
X139083420Y-81872382D01*
X139120645Y-81749668D01*
X139120646Y-81749664D01*
X139181094Y-81636575D01*
X139262446Y-81537446D01*
X139361575Y-81456094D01*
X139474664Y-81395646D01*
X139506596Y-81385960D01*
X139597382Y-81358420D01*
X139661145Y-81352140D01*
X139693026Y-81349000D01*
X140306974Y-81349000D01*
X140338855Y-81352140D01*
G37*
G36*
X107766242Y-80353404D02*
G01*
X107803337Y-80364657D01*
X107837515Y-80382925D01*
X107867481Y-80407519D01*
X107892075Y-80437485D01*
X107910343Y-80471663D01*
X107921596Y-80508758D01*
X107926000Y-80553474D01*
X107926000Y-81446526D01*
X107921596Y-81491242D01*
X107910343Y-81528337D01*
X107892075Y-81562515D01*
X107867481Y-81592481D01*
X107837515Y-81617075D01*
X107803337Y-81635343D01*
X107766242Y-81646596D01*
X107721526Y-81651000D01*
X106278474Y-81651000D01*
X106233758Y-81646596D01*
X106196663Y-81635343D01*
X106162485Y-81617075D01*
X106132519Y-81592481D01*
X106107925Y-81562515D01*
X106089657Y-81528337D01*
X106078404Y-81491242D01*
X106074000Y-81446526D01*
X106074000Y-80553474D01*
X106078404Y-80508758D01*
X106089657Y-80471663D01*
X106107925Y-80437485D01*
X106132519Y-80407519D01*
X106162485Y-80382925D01*
X106196663Y-80364657D01*
X106233758Y-80353404D01*
X106278474Y-80349000D01*
X107721526Y-80349000D01*
X107766242Y-80353404D01*
G37*
G36*
X140338855Y-79352140D02*
G01*
X140402618Y-79358420D01*
X140493404Y-79385960D01*
X140525336Y-79395646D01*
X140638425Y-79456094D01*
X140737554Y-79537446D01*
X140818906Y-79636575D01*
X140879354Y-79749664D01*
X140879355Y-79749668D01*
X140916580Y-79872382D01*
X140929149Y-80000000D01*
X140916580Y-80127618D01*
X140889040Y-80218404D01*
X140879354Y-80250336D01*
X140818906Y-80363425D01*
X140737554Y-80462554D01*
X140638425Y-80543906D01*
X140525336Y-80604354D01*
X140493404Y-80614040D01*
X140402618Y-80641580D01*
X140338855Y-80647860D01*
X140306974Y-80651000D01*
X139693026Y-80651000D01*
X139661145Y-80647860D01*
X139597382Y-80641580D01*
X139506596Y-80614040D01*
X139474664Y-80604354D01*
X139361575Y-80543906D01*
X139262446Y-80462554D01*
X139181094Y-80363425D01*
X139120646Y-80250336D01*
X139110960Y-80218404D01*
X139083420Y-80127618D01*
X139070851Y-80000000D01*
X139083420Y-79872382D01*
X139120645Y-79749668D01*
X139120646Y-79749664D01*
X139181094Y-79636575D01*
X139262446Y-79537446D01*
X139361575Y-79456094D01*
X139474664Y-79395646D01*
X139506596Y-79385960D01*
X139597382Y-79358420D01*
X139661145Y-79352140D01*
X139693026Y-79349000D01*
X140306974Y-79349000D01*
X140338855Y-79352140D01*
G37*
G36*
X116169003Y-78587275D02*
G01*
X116169005Y-78587276D01*
X116169006Y-78587276D01*
X116349320Y-78661964D01*
X116511598Y-78770395D01*
X116649605Y-78908402D01*
X116758036Y-79070680D01*
X116832724Y-79250994D01*
X116832725Y-79250997D01*
X116870800Y-79442413D01*
X116870800Y-79637587D01*
X116848506Y-79749668D01*
X116832724Y-79829006D01*
X116758036Y-80009320D01*
X116649605Y-80171598D01*
X116511598Y-80309605D01*
X116349320Y-80418036D01*
X116169006Y-80492724D01*
X116169005Y-80492724D01*
X116169003Y-80492725D01*
X115977587Y-80530800D01*
X115782413Y-80530800D01*
X115590997Y-80492725D01*
X115590995Y-80492724D01*
X115590994Y-80492724D01*
X115410680Y-80418036D01*
X115248402Y-80309605D01*
X115110395Y-80171598D01*
X115001964Y-80009320D01*
X114927276Y-79829006D01*
X114911495Y-79749668D01*
X114889200Y-79637587D01*
X114889200Y-79442413D01*
X114927275Y-79250997D01*
X114927276Y-79250994D01*
X115001964Y-79070680D01*
X115110395Y-78908402D01*
X115248402Y-78770395D01*
X115410680Y-78661964D01*
X115590994Y-78587276D01*
X115590995Y-78587276D01*
X115590997Y-78587275D01*
X115782413Y-78549200D01*
X115977587Y-78549200D01*
X116169003Y-78587275D01*
G37*
G36*
X131409003Y-78587275D02*
G01*
X131409005Y-78587276D01*
X131409006Y-78587276D01*
X131589320Y-78661964D01*
X131751598Y-78770395D01*
X131889605Y-78908402D01*
X131998036Y-79070680D01*
X132072724Y-79250994D01*
X132072725Y-79250997D01*
X132110800Y-79442413D01*
X132110800Y-79637587D01*
X132088506Y-79749668D01*
X132072724Y-79829006D01*
X131998036Y-80009320D01*
X131889605Y-80171598D01*
X131751598Y-80309605D01*
X131589320Y-80418036D01*
X131409006Y-80492724D01*
X131409005Y-80492724D01*
X131409003Y-80492725D01*
X131217587Y-80530800D01*
X131022413Y-80530800D01*
X130830997Y-80492725D01*
X130830995Y-80492724D01*
X130830994Y-80492724D01*
X130650680Y-80418036D01*
X130488402Y-80309605D01*
X130350395Y-80171598D01*
X130241964Y-80009320D01*
X130167276Y-79829006D01*
X130151495Y-79749668D01*
X130129200Y-79637587D01*
X130129200Y-79442413D01*
X130167275Y-79250997D01*
X130167276Y-79250994D01*
X130241964Y-79070680D01*
X130350395Y-78908402D01*
X130488402Y-78770395D01*
X130650680Y-78661964D01*
X130830994Y-78587276D01*
X130830995Y-78587276D01*
X130830997Y-78587275D01*
X131022413Y-78549200D01*
X131217587Y-78549200D01*
X131409003Y-78587275D01*
G37*
G36*
X116169003Y-76047275D02*
G01*
X116169005Y-76047276D01*
X116169006Y-76047276D01*
X116349320Y-76121964D01*
X116511598Y-76230395D01*
X116649605Y-76368402D01*
X116758036Y-76530680D01*
X116832724Y-76710994D01*
X116870800Y-76902415D01*
X116870800Y-77097585D01*
X116832724Y-77289006D01*
X116758036Y-77469320D01*
X116649605Y-77631598D01*
X116511598Y-77769605D01*
X116349320Y-77878036D01*
X116169006Y-77952724D01*
X116169005Y-77952724D01*
X116169003Y-77952725D01*
X115977587Y-77990800D01*
X115782413Y-77990800D01*
X115590997Y-77952725D01*
X115590995Y-77952724D01*
X115590994Y-77952724D01*
X115410680Y-77878036D01*
X115248402Y-77769605D01*
X115110395Y-77631598D01*
X115001964Y-77469320D01*
X114927276Y-77289006D01*
X114889200Y-77097585D01*
X114889200Y-76902415D01*
X114927276Y-76710994D01*
X115001964Y-76530680D01*
X115110395Y-76368402D01*
X115248402Y-76230395D01*
X115410680Y-76121964D01*
X115590994Y-76047276D01*
X115590995Y-76047276D01*
X115590997Y-76047275D01*
X115782413Y-76009200D01*
X115977587Y-76009200D01*
X116169003Y-76047275D01*
G37*
G36*
X131409003Y-76047275D02*
G01*
X131409005Y-76047276D01*
X131409006Y-76047276D01*
X131589320Y-76121964D01*
X131751598Y-76230395D01*
X131889605Y-76368402D01*
X131998036Y-76530680D01*
X132072724Y-76710994D01*
X132110800Y-76902415D01*
X132110800Y-77097585D01*
X132072724Y-77289006D01*
X131998036Y-77469320D01*
X131889605Y-77631598D01*
X131751598Y-77769605D01*
X131589320Y-77878036D01*
X131409006Y-77952724D01*
X131409005Y-77952724D01*
X131409003Y-77952725D01*
X131217587Y-77990800D01*
X131022413Y-77990800D01*
X130830997Y-77952725D01*
X130830995Y-77952724D01*
X130830994Y-77952724D01*
X130650680Y-77878036D01*
X130488402Y-77769605D01*
X130350395Y-77631598D01*
X130241964Y-77469320D01*
X130167276Y-77289006D01*
X130129200Y-77097585D01*
X130129200Y-76902415D01*
X130167276Y-76710994D01*
X130241964Y-76530680D01*
X130350395Y-76368402D01*
X130488402Y-76230395D01*
X130650680Y-76121964D01*
X130830994Y-76047276D01*
X130830995Y-76047276D01*
X130830997Y-76047275D01*
X131022413Y-76009200D01*
X131217587Y-76009200D01*
X131409003Y-76047275D01*
G37*
G36*
X107338855Y-75352140D02*
G01*
X107402618Y-75358420D01*
X107493404Y-75385960D01*
X107525336Y-75395646D01*
X107638425Y-75456094D01*
X107737554Y-75537446D01*
X107818906Y-75636575D01*
X107879354Y-75749664D01*
X107879355Y-75749668D01*
X107916580Y-75872382D01*
X107929149Y-76000000D01*
X107916580Y-76127618D01*
X107893759Y-76202847D01*
X107879354Y-76250336D01*
X107818906Y-76363425D01*
X107737554Y-76462554D01*
X107638425Y-76543906D01*
X107525336Y-76604354D01*
X107493404Y-76614040D01*
X107402618Y-76641580D01*
X107338855Y-76647860D01*
X107306974Y-76651000D01*
X106693026Y-76651000D01*
X106661145Y-76647860D01*
X106597382Y-76641580D01*
X106506596Y-76614040D01*
X106474664Y-76604354D01*
X106361575Y-76543906D01*
X106262446Y-76462554D01*
X106181094Y-76363425D01*
X106120646Y-76250336D01*
X106106241Y-76202847D01*
X106083420Y-76127618D01*
X106070851Y-76000000D01*
X106083420Y-75872382D01*
X106120645Y-75749668D01*
X106120646Y-75749664D01*
X106181094Y-75636575D01*
X106262446Y-75537446D01*
X106361575Y-75456094D01*
X106474664Y-75395646D01*
X106506596Y-75385960D01*
X106597382Y-75358420D01*
X106661145Y-75352140D01*
X106693026Y-75349000D01*
X107306974Y-75349000D01*
X107338855Y-75352140D01*
G37*
G36*
X128551503Y-74618525D02*
G01*
X128551505Y-74618526D01*
X128551506Y-74618526D01*
X128731820Y-74693214D01*
X128894098Y-74801645D01*
X129032105Y-74939652D01*
X129140536Y-75101930D01*
X129193420Y-75229605D01*
X129215225Y-75282247D01*
X129253300Y-75473663D01*
X129253300Y-75668837D01*
X129237222Y-75749668D01*
X129215224Y-75860256D01*
X129140536Y-76040570D01*
X129032105Y-76202848D01*
X128894098Y-76340855D01*
X128731820Y-76449286D01*
X128551506Y-76523974D01*
X128551505Y-76523974D01*
X128551503Y-76523975D01*
X128360087Y-76562050D01*
X128164913Y-76562050D01*
X127973497Y-76523975D01*
X127973495Y-76523974D01*
X127973494Y-76523974D01*
X127793180Y-76449286D01*
X127630902Y-76340855D01*
X127492895Y-76202848D01*
X127384464Y-76040570D01*
X127309776Y-75860256D01*
X127287779Y-75749668D01*
X127271700Y-75668837D01*
X127271700Y-75473663D01*
X127309775Y-75282247D01*
X127331580Y-75229605D01*
X127384464Y-75101930D01*
X127492895Y-74939652D01*
X127630902Y-74801645D01*
X127793180Y-74693214D01*
X127973494Y-74618526D01*
X127973495Y-74618526D01*
X127973497Y-74618525D01*
X128164913Y-74580450D01*
X128360087Y-74580450D01*
X128551503Y-74618525D01*
G37*
G36*
X131409003Y-73507275D02*
G01*
X131409005Y-73507276D01*
X131409006Y-73507276D01*
X131589320Y-73581964D01*
X131751598Y-73690395D01*
X131889605Y-73828402D01*
X131998036Y-73990680D01*
X132054756Y-74127616D01*
X132072725Y-74170997D01*
X132110800Y-74362413D01*
X132110800Y-74557587D01*
X132094093Y-74641580D01*
X132072724Y-74749006D01*
X131998036Y-74929320D01*
X131889605Y-75091598D01*
X131751598Y-75229605D01*
X131589320Y-75338036D01*
X131409006Y-75412724D01*
X131409005Y-75412724D01*
X131409003Y-75412725D01*
X131217587Y-75450800D01*
X131022413Y-75450800D01*
X130830997Y-75412725D01*
X130830995Y-75412724D01*
X130830994Y-75412724D01*
X130650680Y-75338036D01*
X130488402Y-75229605D01*
X130350395Y-75091598D01*
X130241964Y-74929320D01*
X130167276Y-74749006D01*
X130145908Y-74641580D01*
X130129200Y-74557587D01*
X130129200Y-74362413D01*
X130167275Y-74170997D01*
X130185244Y-74127616D01*
X130241964Y-73990680D01*
X130350395Y-73828402D01*
X130488402Y-73690395D01*
X130650680Y-73581964D01*
X130830994Y-73507276D01*
X130830995Y-73507276D01*
X130830997Y-73507275D01*
X131022413Y-73469200D01*
X131217587Y-73469200D01*
X131409003Y-73507275D01*
G37*
G36*
X116169003Y-73507275D02*
G01*
X116169005Y-73507276D01*
X116169006Y-73507276D01*
X116349320Y-73581964D01*
X116511598Y-73690395D01*
X116649605Y-73828402D01*
X116758036Y-73990680D01*
X116814756Y-74127616D01*
X116832725Y-74170997D01*
X116870800Y-74362413D01*
X116870800Y-74557587D01*
X116854093Y-74641580D01*
X116832724Y-74749006D01*
X116758036Y-74929320D01*
X116649605Y-75091598D01*
X116511598Y-75229605D01*
X116349320Y-75338036D01*
X116169006Y-75412724D01*
X116169005Y-75412724D01*
X116169003Y-75412725D01*
X115977587Y-75450800D01*
X115782413Y-75450800D01*
X115590997Y-75412725D01*
X115590995Y-75412724D01*
X115590994Y-75412724D01*
X115410680Y-75338036D01*
X115248402Y-75229605D01*
X115110395Y-75091598D01*
X115001964Y-74929320D01*
X114927276Y-74749006D01*
X114905908Y-74641580D01*
X114889200Y-74557587D01*
X114889200Y-74362413D01*
X114927275Y-74170997D01*
X114945244Y-74127616D01*
X115001964Y-73990680D01*
X115110395Y-73828402D01*
X115248402Y-73690395D01*
X115410680Y-73581964D01*
X115590994Y-73507276D01*
X115590995Y-73507276D01*
X115590997Y-73507275D01*
X115782413Y-73469200D01*
X115977587Y-73469200D01*
X116169003Y-73507275D01*
G37*
G36*
X107338855Y-73352140D02*
G01*
X107402618Y-73358420D01*
X107493404Y-73385960D01*
X107525336Y-73395646D01*
X107638425Y-73456094D01*
X107737554Y-73537446D01*
X107818906Y-73636575D01*
X107879354Y-73749664D01*
X107879355Y-73749668D01*
X107916580Y-73872382D01*
X107929149Y-74000000D01*
X107916580Y-74127618D01*
X107903422Y-74170994D01*
X107879354Y-74250336D01*
X107818906Y-74363425D01*
X107737554Y-74462554D01*
X107638425Y-74543906D01*
X107525336Y-74604354D01*
X107493404Y-74614040D01*
X107402618Y-74641580D01*
X107338855Y-74647860D01*
X107306974Y-74651000D01*
X106693026Y-74651000D01*
X106661145Y-74647860D01*
X106597382Y-74641580D01*
X106506596Y-74614040D01*
X106474664Y-74604354D01*
X106361575Y-74543906D01*
X106262446Y-74462554D01*
X106181094Y-74363425D01*
X106120646Y-74250336D01*
X106096578Y-74170994D01*
X106083420Y-74127618D01*
X106070851Y-74000000D01*
X106083420Y-73872382D01*
X106120645Y-73749668D01*
X106120646Y-73749664D01*
X106181094Y-73636575D01*
X106262446Y-73537446D01*
X106361575Y-73456094D01*
X106474664Y-73395646D01*
X106506596Y-73385960D01*
X106597382Y-73358420D01*
X106661145Y-73352140D01*
X106693026Y-73349000D01*
X107306974Y-73349000D01*
X107338855Y-73352140D01*
G37*
G36*
X128551503Y-72078525D02*
G01*
X128551505Y-72078526D01*
X128551506Y-72078526D01*
X128731820Y-72153214D01*
X128894098Y-72261645D01*
X129032105Y-72399652D01*
X129140536Y-72561930D01*
X129193420Y-72689605D01*
X129215225Y-72742247D01*
X129248752Y-72910800D01*
X129253300Y-72933665D01*
X129253300Y-73128835D01*
X129215224Y-73320256D01*
X129140536Y-73500570D01*
X129032105Y-73662848D01*
X128894098Y-73800855D01*
X128731820Y-73909286D01*
X128551506Y-73983974D01*
X128551505Y-73983974D01*
X128551503Y-73983975D01*
X128360087Y-74022050D01*
X128164913Y-74022050D01*
X127973497Y-73983975D01*
X127973495Y-73983974D01*
X127973494Y-73983974D01*
X127793180Y-73909286D01*
X127630902Y-73800855D01*
X127492895Y-73662848D01*
X127384464Y-73500570D01*
X127309776Y-73320256D01*
X127271700Y-73128835D01*
X127271700Y-72933665D01*
X127276248Y-72910800D01*
X127309775Y-72742247D01*
X127331580Y-72689605D01*
X127384464Y-72561930D01*
X127492895Y-72399652D01*
X127630902Y-72261645D01*
X127793180Y-72153214D01*
X127973494Y-72078526D01*
X127973495Y-72078526D01*
X127973497Y-72078525D01*
X128164913Y-72040450D01*
X128360087Y-72040450D01*
X128551503Y-72078525D01*
G37*
G36*
X116169003Y-70967275D02*
G01*
X116169005Y-70967276D01*
X116169006Y-70967276D01*
X116349320Y-71041964D01*
X116511598Y-71150395D01*
X116649605Y-71288402D01*
X116758036Y-71450680D01*
X116785277Y-71516447D01*
X116832725Y-71630997D01*
X116870800Y-71822413D01*
X116870800Y-72017587D01*
X116858679Y-72078525D01*
X116832724Y-72209006D01*
X116758036Y-72389320D01*
X116649605Y-72551598D01*
X116511598Y-72689605D01*
X116349320Y-72798036D01*
X116169006Y-72872724D01*
X116169005Y-72872724D01*
X116169003Y-72872725D01*
X115977587Y-72910800D01*
X115782413Y-72910800D01*
X115590997Y-72872725D01*
X115590995Y-72872724D01*
X115590994Y-72872724D01*
X115410680Y-72798036D01*
X115248402Y-72689605D01*
X115110395Y-72551598D01*
X115001964Y-72389320D01*
X114927276Y-72209006D01*
X114901322Y-72078525D01*
X114889200Y-72017587D01*
X114889200Y-71822413D01*
X114927275Y-71630997D01*
X114974723Y-71516447D01*
X115001964Y-71450680D01*
X115110395Y-71288402D01*
X115248402Y-71150395D01*
X115410680Y-71041964D01*
X115590994Y-70967276D01*
X115590995Y-70967276D01*
X115590997Y-70967275D01*
X115782413Y-70929200D01*
X115977587Y-70929200D01*
X116169003Y-70967275D01*
G37*
G36*
X131409003Y-70967275D02*
G01*
X131409005Y-70967276D01*
X131409006Y-70967276D01*
X131589320Y-71041964D01*
X131751598Y-71150395D01*
X131889605Y-71288402D01*
X131998036Y-71450680D01*
X132025277Y-71516447D01*
X132072725Y-71630997D01*
X132110800Y-71822413D01*
X132110800Y-72017587D01*
X132098679Y-72078525D01*
X132072724Y-72209006D01*
X131998036Y-72389320D01*
X131889605Y-72551598D01*
X131751598Y-72689605D01*
X131589320Y-72798036D01*
X131409006Y-72872724D01*
X131409005Y-72872724D01*
X131409003Y-72872725D01*
X131217587Y-72910800D01*
X131022413Y-72910800D01*
X130830997Y-72872725D01*
X130830995Y-72872724D01*
X130830994Y-72872724D01*
X130650680Y-72798036D01*
X130488402Y-72689605D01*
X130350395Y-72551598D01*
X130241964Y-72389320D01*
X130167276Y-72209006D01*
X130141322Y-72078525D01*
X130129200Y-72017587D01*
X130129200Y-71822413D01*
X130167275Y-71630997D01*
X130214723Y-71516447D01*
X130241964Y-71450680D01*
X130350395Y-71288402D01*
X130488402Y-71150395D01*
X130650680Y-71041964D01*
X130830994Y-70967276D01*
X130830995Y-70967276D01*
X130830997Y-70967275D01*
X131022413Y-70929200D01*
X131217587Y-70929200D01*
X131409003Y-70967275D01*
G37*
G36*
X107766242Y-71353404D02*
G01*
X107803337Y-71364657D01*
X107837515Y-71382925D01*
X107867481Y-71407519D01*
X107892075Y-71437485D01*
X107910343Y-71471663D01*
X107921596Y-71508758D01*
X107926000Y-71553474D01*
X107926000Y-72446526D01*
X107921596Y-72491242D01*
X107910343Y-72528337D01*
X107892075Y-72562515D01*
X107867481Y-72592481D01*
X107837515Y-72617075D01*
X107803337Y-72635343D01*
X107766242Y-72646596D01*
X107721526Y-72651000D01*
X106278474Y-72651000D01*
X106233758Y-72646596D01*
X106196663Y-72635343D01*
X106162485Y-72617075D01*
X106132519Y-72592481D01*
X106107925Y-72562515D01*
X106089657Y-72528337D01*
X106078404Y-72491242D01*
X106074000Y-72446526D01*
X106074000Y-71553474D01*
X106078404Y-71508758D01*
X106089657Y-71471663D01*
X106107925Y-71437485D01*
X106132519Y-71407519D01*
X106162485Y-71382925D01*
X106196663Y-71364657D01*
X106233758Y-71353404D01*
X106278474Y-71349000D01*
X107721526Y-71349000D01*
X107766242Y-71353404D01*
G37*
G36*
X116169003Y-68427275D02*
G01*
X116169005Y-68427276D01*
X116169006Y-68427276D01*
X116349320Y-68501964D01*
X116511598Y-68610395D01*
X116649605Y-68748402D01*
X116758036Y-68910680D01*
X116832724Y-69090994D01*
X116870800Y-69282415D01*
X116870800Y-69477585D01*
X116832724Y-69669006D01*
X116758036Y-69849320D01*
X116649605Y-70011598D01*
X116511598Y-70149605D01*
X116349320Y-70258036D01*
X116169006Y-70332724D01*
X116169005Y-70332724D01*
X116169003Y-70332725D01*
X115977587Y-70370800D01*
X115782413Y-70370800D01*
X115590997Y-70332725D01*
X115590995Y-70332724D01*
X115590994Y-70332724D01*
X115410680Y-70258036D01*
X115248402Y-70149605D01*
X115110395Y-70011598D01*
X115001964Y-69849320D01*
X114927276Y-69669006D01*
X114889200Y-69477585D01*
X114889200Y-69282415D01*
X114927276Y-69090994D01*
X115001964Y-68910680D01*
X115110395Y-68748402D01*
X115248402Y-68610395D01*
X115410680Y-68501964D01*
X115590994Y-68427276D01*
X115590995Y-68427276D01*
X115590997Y-68427275D01*
X115782413Y-68389200D01*
X115977587Y-68389200D01*
X116169003Y-68427275D01*
G37*
G36*
X131409003Y-68427275D02*
G01*
X131409005Y-68427276D01*
X131409006Y-68427276D01*
X131589320Y-68501964D01*
X131751598Y-68610395D01*
X131889605Y-68748402D01*
X131998036Y-68910680D01*
X132072724Y-69090994D01*
X132110800Y-69282415D01*
X132110800Y-69477585D01*
X132072724Y-69669006D01*
X131998036Y-69849320D01*
X131889605Y-70011598D01*
X131751598Y-70149605D01*
X131589320Y-70258036D01*
X131409006Y-70332724D01*
X131409005Y-70332724D01*
X131409003Y-70332725D01*
X131217587Y-70370800D01*
X131022413Y-70370800D01*
X130830997Y-70332725D01*
X130830995Y-70332724D01*
X130830994Y-70332724D01*
X130650680Y-70258036D01*
X130488402Y-70149605D01*
X130350395Y-70011598D01*
X130241964Y-69849320D01*
X130167276Y-69669006D01*
X130129200Y-69477585D01*
X130129200Y-69282415D01*
X130167276Y-69090994D01*
X130241964Y-68910680D01*
X130350395Y-68748402D01*
X130488402Y-68610395D01*
X130650680Y-68501964D01*
X130830994Y-68427276D01*
X130830995Y-68427276D01*
X130830997Y-68427275D01*
X131022413Y-68389200D01*
X131217587Y-68389200D01*
X131409003Y-68427275D01*
G37*
G36*
X116169003Y-65887275D02*
G01*
X116169005Y-65887276D01*
X116169006Y-65887276D01*
X116349320Y-65961964D01*
X116511598Y-66070395D01*
X116649605Y-66208402D01*
X116758036Y-66370680D01*
X116832724Y-66550994D01*
X116870800Y-66742415D01*
X116870800Y-66937585D01*
X116832724Y-67129006D01*
X116758036Y-67309320D01*
X116649605Y-67471598D01*
X116511598Y-67609605D01*
X116349320Y-67718036D01*
X116169006Y-67792724D01*
X116169005Y-67792724D01*
X116169003Y-67792725D01*
X115977587Y-67830800D01*
X115782413Y-67830800D01*
X115590997Y-67792725D01*
X115590995Y-67792724D01*
X115590994Y-67792724D01*
X115410680Y-67718036D01*
X115248402Y-67609605D01*
X115110395Y-67471598D01*
X115001964Y-67309320D01*
X114927276Y-67129006D01*
X114889200Y-66937585D01*
X114889200Y-66742415D01*
X114927276Y-66550994D01*
X115001964Y-66370680D01*
X115110395Y-66208402D01*
X115248402Y-66070395D01*
X115410680Y-65961964D01*
X115590994Y-65887276D01*
X115590995Y-65887276D01*
X115590997Y-65887275D01*
X115782413Y-65849200D01*
X115977587Y-65849200D01*
X116169003Y-65887275D01*
G37*
G36*
X131409003Y-65887275D02*
G01*
X131409005Y-65887276D01*
X131409006Y-65887276D01*
X131589320Y-65961964D01*
X131751598Y-66070395D01*
X131889605Y-66208402D01*
X131998036Y-66370680D01*
X132072724Y-66550994D01*
X132110800Y-66742415D01*
X132110800Y-66937585D01*
X132072724Y-67129006D01*
X131998036Y-67309320D01*
X131889605Y-67471598D01*
X131751598Y-67609605D01*
X131589320Y-67718036D01*
X131409006Y-67792724D01*
X131409005Y-67792724D01*
X131409003Y-67792725D01*
X131217587Y-67830800D01*
X131022413Y-67830800D01*
X130830997Y-67792725D01*
X130830995Y-67792724D01*
X130830994Y-67792724D01*
X130650680Y-67718036D01*
X130488402Y-67609605D01*
X130350395Y-67471598D01*
X130241964Y-67309320D01*
X130167276Y-67129006D01*
X130129200Y-66937585D01*
X130129200Y-66742415D01*
X130167276Y-66550994D01*
X130241964Y-66370680D01*
X130350395Y-66208402D01*
X130488402Y-66070395D01*
X130650680Y-65961964D01*
X130830994Y-65887276D01*
X130830995Y-65887276D01*
X130830997Y-65887275D01*
X131022413Y-65849200D01*
X131217587Y-65849200D01*
X131409003Y-65887275D01*
G37*
G36*
X116169003Y-63347275D02*
G01*
X116169005Y-63347276D01*
X116169006Y-63347276D01*
X116349320Y-63421964D01*
X116511598Y-63530395D01*
X116649605Y-63668402D01*
X116758036Y-63830680D01*
X116832724Y-64010994D01*
X116870800Y-64202415D01*
X116870800Y-64397585D01*
X116832724Y-64589006D01*
X116758036Y-64769320D01*
X116649605Y-64931598D01*
X116511598Y-65069605D01*
X116349320Y-65178036D01*
X116169006Y-65252724D01*
X116169005Y-65252724D01*
X116169003Y-65252725D01*
X115977587Y-65290800D01*
X115782413Y-65290800D01*
X115590997Y-65252725D01*
X115590995Y-65252724D01*
X115590994Y-65252724D01*
X115410680Y-65178036D01*
X115248402Y-65069605D01*
X115110395Y-64931598D01*
X115001964Y-64769320D01*
X114927276Y-64589006D01*
X114889200Y-64397585D01*
X114889200Y-64202415D01*
X114927276Y-64010994D01*
X115001964Y-63830680D01*
X115110395Y-63668402D01*
X115248402Y-63530395D01*
X115410680Y-63421964D01*
X115590994Y-63347276D01*
X115590995Y-63347276D01*
X115590997Y-63347275D01*
X115782413Y-63309200D01*
X115977587Y-63309200D01*
X116169003Y-63347275D01*
G37*
G36*
X131409003Y-63347275D02*
G01*
X131409005Y-63347276D01*
X131409006Y-63347276D01*
X131589320Y-63421964D01*
X131751598Y-63530395D01*
X131889605Y-63668402D01*
X131998036Y-63830680D01*
X132072724Y-64010994D01*
X132110800Y-64202415D01*
X132110800Y-64397585D01*
X132072724Y-64589006D01*
X131998036Y-64769320D01*
X131889605Y-64931598D01*
X131751598Y-65069605D01*
X131589320Y-65178036D01*
X131409006Y-65252724D01*
X131409005Y-65252724D01*
X131409003Y-65252725D01*
X131217587Y-65290800D01*
X131022413Y-65290800D01*
X130830997Y-65252725D01*
X130830995Y-65252724D01*
X130830994Y-65252724D01*
X130650680Y-65178036D01*
X130488402Y-65069605D01*
X130350395Y-64931598D01*
X130241964Y-64769320D01*
X130167276Y-64589006D01*
X130129200Y-64397585D01*
X130129200Y-64202415D01*
X130167276Y-64010994D01*
X130241964Y-63830680D01*
X130350395Y-63668402D01*
X130488402Y-63530395D01*
X130650680Y-63421964D01*
X130830994Y-63347276D01*
X130830995Y-63347276D01*
X130830997Y-63347275D01*
X131022413Y-63309200D01*
X131217587Y-63309200D01*
X131409003Y-63347275D01*
G37*
G36*
X117439003Y-60807275D02*
G01*
X117439005Y-60807276D01*
X117439006Y-60807276D01*
X117619320Y-60881964D01*
X117781598Y-60990395D01*
X117919605Y-61128402D01*
X118028036Y-61290680D01*
X118102724Y-61470994D01*
X118140800Y-61662415D01*
X118140800Y-61857585D01*
X118102724Y-62049006D01*
X118028036Y-62229320D01*
X117919605Y-62391598D01*
X117781598Y-62529605D01*
X117619320Y-62638036D01*
X117439006Y-62712724D01*
X117439005Y-62712724D01*
X117439003Y-62712725D01*
X117247587Y-62750800D01*
X117052413Y-62750800D01*
X116860997Y-62712725D01*
X116860995Y-62712724D01*
X116860994Y-62712724D01*
X116680680Y-62638036D01*
X116518402Y-62529605D01*
X116380395Y-62391598D01*
X116271964Y-62229320D01*
X116197276Y-62049006D01*
X116159200Y-61857585D01*
X116159200Y-61662415D01*
X116197276Y-61470994D01*
X116271964Y-61290680D01*
X116380395Y-61128402D01*
X116518402Y-60990395D01*
X116680680Y-60881964D01*
X116860994Y-60807276D01*
X116860995Y-60807276D01*
X116860997Y-60807275D01*
X117052413Y-60769200D01*
X117247587Y-60769200D01*
X117439003Y-60807275D01*
G37*
G36*
X119979003Y-60807275D02*
G01*
X119979005Y-60807276D01*
X119979006Y-60807276D01*
X120159320Y-60881964D01*
X120321598Y-60990395D01*
X120459605Y-61128402D01*
X120568036Y-61290680D01*
X120642724Y-61470994D01*
X120680800Y-61662415D01*
X120680800Y-61857585D01*
X120642724Y-62049006D01*
X120568036Y-62229320D01*
X120459605Y-62391598D01*
X120321598Y-62529605D01*
X120159320Y-62638036D01*
X119979006Y-62712724D01*
X119979005Y-62712724D01*
X119979003Y-62712725D01*
X119787587Y-62750800D01*
X119592413Y-62750800D01*
X119400997Y-62712725D01*
X119400995Y-62712724D01*
X119400994Y-62712724D01*
X119220680Y-62638036D01*
X119058402Y-62529605D01*
X118920395Y-62391598D01*
X118811964Y-62229320D01*
X118737276Y-62049006D01*
X118699200Y-61857585D01*
X118699200Y-61662415D01*
X118737276Y-61470994D01*
X118811964Y-61290680D01*
X118920395Y-61128402D01*
X119058402Y-60990395D01*
X119220680Y-60881964D01*
X119400994Y-60807276D01*
X119400995Y-60807276D01*
X119400997Y-60807275D01*
X119592413Y-60769200D01*
X119787587Y-60769200D01*
X119979003Y-60807275D01*
G37*
G36*
X122519003Y-60807275D02*
G01*
X122519005Y-60807276D01*
X122519006Y-60807276D01*
X122699320Y-60881964D01*
X122861598Y-60990395D01*
X122999605Y-61128402D01*
X123108036Y-61290680D01*
X123182724Y-61470994D01*
X123220800Y-61662415D01*
X123220800Y-61857585D01*
X123182724Y-62049006D01*
X123108036Y-62229320D01*
X122999605Y-62391598D01*
X122861598Y-62529605D01*
X122699320Y-62638036D01*
X122519006Y-62712724D01*
X122519005Y-62712724D01*
X122519003Y-62712725D01*
X122327587Y-62750800D01*
X122132413Y-62750800D01*
X121940997Y-62712725D01*
X121940995Y-62712724D01*
X121940994Y-62712724D01*
X121760680Y-62638036D01*
X121598402Y-62529605D01*
X121460395Y-62391598D01*
X121351964Y-62229320D01*
X121277276Y-62049006D01*
X121239200Y-61857585D01*
X121239200Y-61662415D01*
X121277276Y-61470994D01*
X121351964Y-61290680D01*
X121460395Y-61128402D01*
X121598402Y-60990395D01*
X121760680Y-60881964D01*
X121940994Y-60807276D01*
X121940995Y-60807276D01*
X121940997Y-60807275D01*
X122132413Y-60769200D01*
X122327587Y-60769200D01*
X122519003Y-60807275D01*
G37*
G36*
X125059003Y-60807275D02*
G01*
X125059005Y-60807276D01*
X125059006Y-60807276D01*
X125239320Y-60881964D01*
X125401598Y-60990395D01*
X125539605Y-61128402D01*
X125648036Y-61290680D01*
X125722724Y-61470994D01*
X125760800Y-61662415D01*
X125760800Y-61857585D01*
X125722724Y-62049006D01*
X125648036Y-62229320D01*
X125539605Y-62391598D01*
X125401598Y-62529605D01*
X125239320Y-62638036D01*
X125059006Y-62712724D01*
X125059005Y-62712724D01*
X125059003Y-62712725D01*
X124867587Y-62750800D01*
X124672413Y-62750800D01*
X124480997Y-62712725D01*
X124480995Y-62712724D01*
X124480994Y-62712724D01*
X124300680Y-62638036D01*
X124138402Y-62529605D01*
X124000395Y-62391598D01*
X123891964Y-62229320D01*
X123817276Y-62049006D01*
X123779200Y-61857585D01*
X123779200Y-61662415D01*
X123817276Y-61470994D01*
X123891964Y-61290680D01*
X124000395Y-61128402D01*
X124138402Y-60990395D01*
X124300680Y-60881964D01*
X124480994Y-60807276D01*
X124480995Y-60807276D01*
X124480997Y-60807275D01*
X124672413Y-60769200D01*
X124867587Y-60769200D01*
X125059003Y-60807275D01*
G37*
G36*
X127599003Y-60807275D02*
G01*
X127599005Y-60807276D01*
X127599006Y-60807276D01*
X127779320Y-60881964D01*
X127941598Y-60990395D01*
X128079605Y-61128402D01*
X128188036Y-61290680D01*
X128262724Y-61470994D01*
X128300800Y-61662415D01*
X128300800Y-61857585D01*
X128262724Y-62049006D01*
X128188036Y-62229320D01*
X128079605Y-62391598D01*
X127941598Y-62529605D01*
X127779320Y-62638036D01*
X127599006Y-62712724D01*
X127599005Y-62712724D01*
X127599003Y-62712725D01*
X127407587Y-62750800D01*
X127212413Y-62750800D01*
X127020997Y-62712725D01*
X127020995Y-62712724D01*
X127020994Y-62712724D01*
X126840680Y-62638036D01*
X126678402Y-62529605D01*
X126540395Y-62391598D01*
X126431964Y-62229320D01*
X126357276Y-62049006D01*
X126319200Y-61857585D01*
X126319200Y-61662415D01*
X126357276Y-61470994D01*
X126431964Y-61290680D01*
X126540395Y-61128402D01*
X126678402Y-60990395D01*
X126840680Y-60881964D01*
X127020994Y-60807276D01*
X127020995Y-60807276D01*
X127020997Y-60807275D01*
X127212413Y-60769200D01*
X127407587Y-60769200D01*
X127599003Y-60807275D01*
G37*
G36*
X130139003Y-60807275D02*
G01*
X130139005Y-60807276D01*
X130139006Y-60807276D01*
X130319320Y-60881964D01*
X130481598Y-60990395D01*
X130619605Y-61128402D01*
X130728036Y-61290680D01*
X130802724Y-61470994D01*
X130840800Y-61662415D01*
X130840800Y-61857585D01*
X130802724Y-62049006D01*
X130728036Y-62229320D01*
X130619605Y-62391598D01*
X130481598Y-62529605D01*
X130319320Y-62638036D01*
X130139006Y-62712724D01*
X130139005Y-62712724D01*
X130139003Y-62712725D01*
X129947587Y-62750800D01*
X129752413Y-62750800D01*
X129560997Y-62712725D01*
X129560995Y-62712724D01*
X129560994Y-62712724D01*
X129380680Y-62638036D01*
X129218402Y-62529605D01*
X129080395Y-62391598D01*
X128971964Y-62229320D01*
X128897276Y-62049006D01*
X128859200Y-61857585D01*
X128859200Y-61662415D01*
X128897276Y-61470994D01*
X128971964Y-61290680D01*
X129080395Y-61128402D01*
X129218402Y-60990395D01*
X129380680Y-60881964D01*
X129560994Y-60807276D01*
X129560995Y-60807276D01*
X129560997Y-60807275D01*
X129752413Y-60769200D01*
X129947587Y-60769200D01*
X130139003Y-60807275D01*
G37*
M02*
