G04 #@! TF.GenerationSoftware,KiCad,Pcbnew,5.1.6-c6e7f7d~86~ubuntu20.04.1*
G04 #@! TF.CreationDate,2020-05-28T17:17:52+02:00*
G04 #@! TF.ProjectId,1000Machine,31303030-4d61-4636-9869-6e652e6b6963,rev?*
G04 #@! TF.SameCoordinates,Original*
G04 #@! TF.FileFunction,Copper,L2,Bot*
G04 #@! TF.FilePolarity,Positive*
%FSLAX46Y46*%
G04 Gerber Fmt 4.6, Leading zero omitted, Abs format (unit mm)*
G04 Created by KiCad (PCBNEW 5.1.6-c6e7f7d~86~ubuntu20.04.1) date 2020-05-28 17:17:52*
%MOMM*%
%LPD*%
G01*
G04 APERTURE LIST*
G04 #@! TA.AperFunction,ComponentPad*
%ADD10C,1.879600*%
G04 #@! TD*
G04 #@! TA.AperFunction,ComponentPad*
%ADD11O,1.750000X1.200000*%
G04 #@! TD*
G04 #@! TA.AperFunction,ComponentPad*
%ADD12C,1.600000*%
G04 #@! TD*
G04 #@! TA.AperFunction,ComponentPad*
%ADD13O,1.600000X1.600000*%
G04 #@! TD*
G04 #@! TA.AperFunction,ComponentPad*
%ADD14C,1.308000*%
G04 #@! TD*
G04 #@! TA.AperFunction,ComponentPad*
%ADD15R,1.308000X1.308000*%
G04 #@! TD*
G04 #@! TA.AperFunction,Conductor*
%ADD16C,0.254000*%
G04 #@! TD*
G04 APERTURE END LIST*
D10*
X129850000Y-61760000D03*
X127310000Y-61760000D03*
X124770000Y-61760000D03*
X122230000Y-61760000D03*
X119690000Y-61760000D03*
X117150000Y-61760000D03*
X128262500Y-75571250D03*
X128262500Y-73031250D03*
X128262500Y-83508750D03*
X128262500Y-86048750D03*
X131120000Y-64300000D03*
X131120000Y-66840000D03*
X131120000Y-69380000D03*
X131120000Y-71920000D03*
X131120000Y-74460000D03*
X131120000Y-77000000D03*
X131120000Y-79540000D03*
X131120000Y-82080000D03*
X131120000Y-84620000D03*
X131120000Y-87160000D03*
X131120000Y-89700000D03*
X131120000Y-92240000D03*
X115880000Y-92240000D03*
X115880000Y-89700000D03*
X115880000Y-87160000D03*
X115880000Y-84620000D03*
X115880000Y-82080000D03*
X115880000Y-79540000D03*
X115880000Y-77000000D03*
X115880000Y-74460000D03*
X115880000Y-71920000D03*
X115880000Y-69380000D03*
X115880000Y-66840000D03*
X115880000Y-64300000D03*
G04 #@! TA.AperFunction,ComponentPad*
G36*
G01*
X106374999Y-80400000D02*
X107625001Y-80400000D01*
G75*
G02*
X107875000Y-80649999I0J-249999D01*
G01*
X107875000Y-81350001D01*
G75*
G02*
X107625001Y-81600000I-249999J0D01*
G01*
X106374999Y-81600000D01*
G75*
G02*
X106125000Y-81350001I0J249999D01*
G01*
X106125000Y-80649999D01*
G75*
G02*
X106374999Y-80400000I249999J0D01*
G01*
G37*
G04 #@! TD.AperFunction*
D11*
X107000000Y-83000000D03*
X107000000Y-85000000D03*
X107000000Y-87000000D03*
G04 #@! TA.AperFunction,ComponentPad*
G36*
G01*
X106374999Y-110400000D02*
X107625001Y-110400000D01*
G75*
G02*
X107875000Y-110649999I0J-249999D01*
G01*
X107875000Y-111350001D01*
G75*
G02*
X107625001Y-111600000I-249999J0D01*
G01*
X106374999Y-111600000D01*
G75*
G02*
X106125000Y-111350001I0J249999D01*
G01*
X106125000Y-110649999D01*
G75*
G02*
X106374999Y-110400000I249999J0D01*
G01*
G37*
G04 #@! TD.AperFunction*
X107000000Y-113000000D03*
G04 #@! TA.AperFunction,ComponentPad*
G36*
G01*
X140625001Y-84600000D02*
X139374999Y-84600000D01*
G75*
G02*
X139125000Y-84350001I0J249999D01*
G01*
X139125000Y-83649999D01*
G75*
G02*
X139374999Y-83400000I249999J0D01*
G01*
X140625001Y-83400000D01*
G75*
G02*
X140875000Y-83649999I0J-249999D01*
G01*
X140875000Y-84350001D01*
G75*
G02*
X140625001Y-84600000I-249999J0D01*
G01*
G37*
G04 #@! TD.AperFunction*
X140000000Y-82000000D03*
X140000000Y-80000000D03*
X107000000Y-76000000D03*
X107000000Y-74000000D03*
G04 #@! TA.AperFunction,ComponentPad*
G36*
G01*
X106374999Y-71400000D02*
X107625001Y-71400000D01*
G75*
G02*
X107875000Y-71649999I0J-249999D01*
G01*
X107875000Y-72350001D01*
G75*
G02*
X107625001Y-72600000I-249999J0D01*
G01*
X106374999Y-72600000D01*
G75*
G02*
X106125000Y-72350001I0J249999D01*
G01*
X106125000Y-71649999D01*
G75*
G02*
X106374999Y-71400000I249999J0D01*
G01*
G37*
G04 #@! TD.AperFunction*
X107000000Y-94000000D03*
G04 #@! TA.AperFunction,ComponentPad*
G36*
G01*
X106374999Y-91400000D02*
X107625001Y-91400000D01*
G75*
G02*
X107875000Y-91649999I0J-249999D01*
G01*
X107875000Y-92350001D01*
G75*
G02*
X107625001Y-92600000I-249999J0D01*
G01*
X106374999Y-92600000D01*
G75*
G02*
X106125000Y-92350001I0J249999D01*
G01*
X106125000Y-91649999D01*
G75*
G02*
X106374999Y-91400000I249999J0D01*
G01*
G37*
G04 #@! TD.AperFunction*
D12*
X120750000Y-102200000D03*
D13*
X120750000Y-92040000D03*
X126100000Y-92240000D03*
D12*
X126100000Y-102400000D03*
D14*
X132517000Y-114890000D03*
X114483000Y-114890000D03*
X132517000Y-97110000D03*
D15*
X114483000Y-97110000D03*
D14*
X132517000Y-112350000D03*
X114483000Y-112350000D03*
X132517000Y-99650000D03*
X114483000Y-99650000D03*
X132517000Y-109810000D03*
X132517000Y-102190000D03*
X114483000Y-102190000D03*
X114483000Y-109810000D03*
X132517000Y-107270000D03*
X132517000Y-104730000D03*
X114483000Y-107270000D03*
X114483000Y-104730000D03*
D16*
G36*
X115926773Y-60756123D02*
G01*
X115754430Y-61014052D01*
X115635718Y-61300648D01*
X115575200Y-61604896D01*
X115575200Y-61915104D01*
X115635718Y-62219352D01*
X115754430Y-62505948D01*
X115900930Y-62725200D01*
X115724896Y-62725200D01*
X115420648Y-62785718D01*
X115134052Y-62904430D01*
X114876123Y-63076773D01*
X114656773Y-63296123D01*
X114484430Y-63554052D01*
X114365718Y-63840648D01*
X114305200Y-64144896D01*
X114305200Y-64455104D01*
X114365718Y-64759352D01*
X114484430Y-65045948D01*
X114656773Y-65303877D01*
X114876123Y-65523227D01*
X114946124Y-65570000D01*
X114876123Y-65616773D01*
X114656773Y-65836123D01*
X114484430Y-66094052D01*
X114365718Y-66380648D01*
X114305200Y-66684896D01*
X114305200Y-66995104D01*
X114365718Y-67299352D01*
X114484430Y-67585948D01*
X114656773Y-67843877D01*
X114876123Y-68063227D01*
X114946124Y-68110000D01*
X114876123Y-68156773D01*
X114656773Y-68376123D01*
X114484430Y-68634052D01*
X114365718Y-68920648D01*
X114305200Y-69224896D01*
X114305200Y-69535104D01*
X114365718Y-69839352D01*
X114484430Y-70125948D01*
X114656773Y-70383877D01*
X114876123Y-70603227D01*
X114946124Y-70650000D01*
X114876123Y-70696773D01*
X114656773Y-70916123D01*
X114484430Y-71174052D01*
X114365718Y-71460648D01*
X114305200Y-71764896D01*
X114305200Y-72075104D01*
X114365718Y-72379352D01*
X114484430Y-72665948D01*
X114656773Y-72923877D01*
X114876123Y-73143227D01*
X114946124Y-73190000D01*
X114876123Y-73236773D01*
X114656773Y-73456123D01*
X114484430Y-73714052D01*
X114365718Y-74000648D01*
X114305200Y-74304896D01*
X114305200Y-74615104D01*
X114365718Y-74919352D01*
X114484430Y-75205948D01*
X114656773Y-75463877D01*
X114876123Y-75683227D01*
X114946124Y-75730000D01*
X114876123Y-75776773D01*
X114656773Y-75996123D01*
X114484430Y-76254052D01*
X114365718Y-76540648D01*
X114305200Y-76844896D01*
X114305200Y-77155104D01*
X114365718Y-77459352D01*
X114484430Y-77745948D01*
X114656773Y-78003877D01*
X114876123Y-78223227D01*
X114946124Y-78270000D01*
X114876123Y-78316773D01*
X114656773Y-78536123D01*
X114484430Y-78794052D01*
X114365718Y-79080648D01*
X114305200Y-79384896D01*
X114305200Y-79695104D01*
X114365718Y-79999352D01*
X114484430Y-80285948D01*
X114656773Y-80543877D01*
X114876123Y-80763227D01*
X114946124Y-80810000D01*
X114876123Y-80856773D01*
X114656773Y-81076123D01*
X114484430Y-81334052D01*
X114365718Y-81620648D01*
X114305200Y-81924896D01*
X114305200Y-82235104D01*
X114365718Y-82539352D01*
X114484430Y-82825948D01*
X114656773Y-83083877D01*
X114876123Y-83303227D01*
X114946124Y-83350000D01*
X114876123Y-83396773D01*
X114656773Y-83616123D01*
X114484430Y-83874052D01*
X114365718Y-84160648D01*
X114305200Y-84464896D01*
X114305200Y-84775104D01*
X114365718Y-85079352D01*
X114484430Y-85365948D01*
X114656773Y-85623877D01*
X114876123Y-85843227D01*
X114946124Y-85890000D01*
X114876123Y-85936773D01*
X114656773Y-86156123D01*
X114484430Y-86414052D01*
X114365718Y-86700648D01*
X114305200Y-87004896D01*
X114305200Y-87315104D01*
X114365718Y-87619352D01*
X114484430Y-87905948D01*
X114656773Y-88163877D01*
X114876123Y-88383227D01*
X114946124Y-88430000D01*
X114876123Y-88476773D01*
X114656773Y-88696123D01*
X114484430Y-88954052D01*
X114365718Y-89240648D01*
X114305200Y-89544896D01*
X114305200Y-89855104D01*
X114365718Y-90159352D01*
X114484430Y-90445948D01*
X114656773Y-90703877D01*
X114876123Y-90923227D01*
X114946124Y-90970000D01*
X114876123Y-91016773D01*
X114656773Y-91236123D01*
X114484430Y-91494052D01*
X114365718Y-91780648D01*
X114305200Y-92084896D01*
X114305200Y-92395104D01*
X114365718Y-92699352D01*
X114484430Y-92985948D01*
X114656773Y-93243877D01*
X114876123Y-93463227D01*
X115134052Y-93635570D01*
X115420648Y-93754282D01*
X115724896Y-93814800D01*
X116035104Y-93814800D01*
X116339352Y-93754282D01*
X116625948Y-93635570D01*
X116883877Y-93463227D01*
X117103227Y-93243877D01*
X117275570Y-92985948D01*
X117394282Y-92699352D01*
X117454800Y-92395104D01*
X117454800Y-92084896D01*
X117417757Y-91898665D01*
X119315000Y-91898665D01*
X119315000Y-92181335D01*
X119370147Y-92458574D01*
X119478320Y-92719727D01*
X119635363Y-92954759D01*
X119835241Y-93154637D01*
X120070273Y-93311680D01*
X120331426Y-93419853D01*
X120608665Y-93475000D01*
X120891335Y-93475000D01*
X121168574Y-93419853D01*
X121429727Y-93311680D01*
X121664759Y-93154637D01*
X121864637Y-92954759D01*
X122021680Y-92719727D01*
X122129853Y-92458574D01*
X122185000Y-92181335D01*
X122185000Y-92098665D01*
X124665000Y-92098665D01*
X124665000Y-92381335D01*
X124720147Y-92658574D01*
X124828320Y-92919727D01*
X124985363Y-93154759D01*
X125185241Y-93354637D01*
X125420273Y-93511680D01*
X125681426Y-93619853D01*
X125958665Y-93675000D01*
X126241335Y-93675000D01*
X126518574Y-93619853D01*
X126779727Y-93511680D01*
X127014759Y-93354637D01*
X127214637Y-93154759D01*
X127371680Y-92919727D01*
X127479853Y-92658574D01*
X127535000Y-92381335D01*
X127535000Y-92098665D01*
X127479853Y-91821426D01*
X127371680Y-91560273D01*
X127214637Y-91325241D01*
X127014759Y-91125363D01*
X126779727Y-90968320D01*
X126518574Y-90860147D01*
X126241335Y-90805000D01*
X125958665Y-90805000D01*
X125681426Y-90860147D01*
X125420273Y-90968320D01*
X125185241Y-91125363D01*
X124985363Y-91325241D01*
X124828320Y-91560273D01*
X124720147Y-91821426D01*
X124665000Y-92098665D01*
X122185000Y-92098665D01*
X122185000Y-91898665D01*
X122129853Y-91621426D01*
X122021680Y-91360273D01*
X121864637Y-91125241D01*
X121664759Y-90925363D01*
X121429727Y-90768320D01*
X121168574Y-90660147D01*
X120891335Y-90605000D01*
X120608665Y-90605000D01*
X120331426Y-90660147D01*
X120070273Y-90768320D01*
X119835241Y-90925363D01*
X119635363Y-91125241D01*
X119478320Y-91360273D01*
X119370147Y-91621426D01*
X119315000Y-91898665D01*
X117417757Y-91898665D01*
X117394282Y-91780648D01*
X117275570Y-91494052D01*
X117103227Y-91236123D01*
X116883877Y-91016773D01*
X116813876Y-90970000D01*
X116883877Y-90923227D01*
X117103227Y-90703877D01*
X117275570Y-90445948D01*
X117394282Y-90159352D01*
X117454800Y-89855104D01*
X117454800Y-89544896D01*
X117394282Y-89240648D01*
X117275570Y-88954052D01*
X117103227Y-88696123D01*
X116883877Y-88476773D01*
X116813876Y-88430000D01*
X116883877Y-88383227D01*
X117103227Y-88163877D01*
X117275570Y-87905948D01*
X117394282Y-87619352D01*
X117454800Y-87315104D01*
X117454800Y-87004896D01*
X117394282Y-86700648D01*
X117275570Y-86414052D01*
X117103227Y-86156123D01*
X116883877Y-85936773D01*
X116813876Y-85890000D01*
X116883877Y-85843227D01*
X117103227Y-85623877D01*
X117275570Y-85365948D01*
X117394282Y-85079352D01*
X117454800Y-84775104D01*
X117454800Y-84464896D01*
X117394282Y-84160648D01*
X117275570Y-83874052D01*
X117103227Y-83616123D01*
X116883877Y-83396773D01*
X116813876Y-83350000D01*
X116883877Y-83303227D01*
X117103227Y-83083877D01*
X117275570Y-82825948D01*
X117394282Y-82539352D01*
X117454800Y-82235104D01*
X117454800Y-81924896D01*
X117394282Y-81620648D01*
X117275570Y-81334052D01*
X117103227Y-81076123D01*
X116883877Y-80856773D01*
X116813876Y-80810000D01*
X116883877Y-80763227D01*
X117103227Y-80543877D01*
X117275570Y-80285948D01*
X117394282Y-79999352D01*
X117454800Y-79695104D01*
X117454800Y-79384896D01*
X117394282Y-79080648D01*
X117275570Y-78794052D01*
X117103227Y-78536123D01*
X116883877Y-78316773D01*
X116813876Y-78270000D01*
X116883877Y-78223227D01*
X117103227Y-78003877D01*
X117275570Y-77745948D01*
X117394282Y-77459352D01*
X117454800Y-77155104D01*
X117454800Y-76844896D01*
X117394282Y-76540648D01*
X117275570Y-76254052D01*
X117103227Y-75996123D01*
X116883877Y-75776773D01*
X116813876Y-75730000D01*
X116883877Y-75683227D01*
X117103227Y-75463877D01*
X117275570Y-75205948D01*
X117394282Y-74919352D01*
X117454800Y-74615104D01*
X117454800Y-74304896D01*
X117394282Y-74000648D01*
X117275570Y-73714052D01*
X117103227Y-73456123D01*
X116883877Y-73236773D01*
X116813876Y-73190000D01*
X116883877Y-73143227D01*
X117103227Y-72923877D01*
X117135119Y-72876146D01*
X126687700Y-72876146D01*
X126687700Y-73186354D01*
X126748218Y-73490602D01*
X126866930Y-73777198D01*
X127039273Y-74035127D01*
X127258623Y-74254477D01*
X127328624Y-74301250D01*
X127258623Y-74348023D01*
X127039273Y-74567373D01*
X126866930Y-74825302D01*
X126748218Y-75111898D01*
X126687700Y-75416146D01*
X126687700Y-75726354D01*
X126748218Y-76030602D01*
X126866930Y-76317198D01*
X127039273Y-76575127D01*
X127258623Y-76794477D01*
X127516552Y-76966820D01*
X127803148Y-77085532D01*
X128107396Y-77146050D01*
X128417604Y-77146050D01*
X128721852Y-77085532D01*
X129008448Y-76966820D01*
X129266377Y-76794477D01*
X129485727Y-76575127D01*
X129658070Y-76317198D01*
X129776782Y-76030602D01*
X129837300Y-75726354D01*
X129837300Y-75416146D01*
X129825610Y-75357374D01*
X129896773Y-75463877D01*
X130116123Y-75683227D01*
X130186124Y-75730000D01*
X130116123Y-75776773D01*
X129896773Y-75996123D01*
X129724430Y-76254052D01*
X129605718Y-76540648D01*
X129545200Y-76844896D01*
X129545200Y-77155104D01*
X129605718Y-77459352D01*
X129724430Y-77745948D01*
X129896773Y-78003877D01*
X130116123Y-78223227D01*
X130186124Y-78270000D01*
X130116123Y-78316773D01*
X129896773Y-78536123D01*
X129724430Y-78794052D01*
X129605718Y-79080648D01*
X129545200Y-79384896D01*
X129545200Y-79695104D01*
X129605718Y-79999352D01*
X129724430Y-80285948D01*
X129896773Y-80543877D01*
X130116123Y-80763227D01*
X130186124Y-80810000D01*
X130116123Y-80856773D01*
X129896773Y-81076123D01*
X129724430Y-81334052D01*
X129605718Y-81620648D01*
X129545200Y-81924896D01*
X129545200Y-82235104D01*
X129605718Y-82539352D01*
X129724430Y-82825948D01*
X129896773Y-83083877D01*
X130116123Y-83303227D01*
X130186124Y-83350000D01*
X130116123Y-83396773D01*
X129896773Y-83616123D01*
X129825610Y-83722626D01*
X129837300Y-83663854D01*
X129837300Y-83353646D01*
X129776782Y-83049398D01*
X129658070Y-82762802D01*
X129485727Y-82504873D01*
X129266377Y-82285523D01*
X129008448Y-82113180D01*
X128721852Y-81994468D01*
X128417604Y-81933950D01*
X128107396Y-81933950D01*
X127803148Y-81994468D01*
X127516552Y-82113180D01*
X127258623Y-82285523D01*
X127039273Y-82504873D01*
X126866930Y-82762802D01*
X126748218Y-83049398D01*
X126687700Y-83353646D01*
X126687700Y-83663854D01*
X126748218Y-83968102D01*
X126866930Y-84254698D01*
X127039273Y-84512627D01*
X127258623Y-84731977D01*
X127328624Y-84778750D01*
X127258623Y-84825523D01*
X127039273Y-85044873D01*
X126866930Y-85302802D01*
X126748218Y-85589398D01*
X126687700Y-85893646D01*
X126687700Y-86203854D01*
X126748218Y-86508102D01*
X126866930Y-86794698D01*
X127039273Y-87052627D01*
X127258623Y-87271977D01*
X127516552Y-87444320D01*
X127803148Y-87563032D01*
X128107396Y-87623550D01*
X128417604Y-87623550D01*
X128721852Y-87563032D01*
X129008448Y-87444320D01*
X129266377Y-87271977D01*
X129485727Y-87052627D01*
X129556890Y-86946124D01*
X129545200Y-87004896D01*
X129545200Y-87315104D01*
X129605718Y-87619352D01*
X129724430Y-87905948D01*
X129896773Y-88163877D01*
X130116123Y-88383227D01*
X130186124Y-88430000D01*
X130116123Y-88476773D01*
X129896773Y-88696123D01*
X129724430Y-88954052D01*
X129605718Y-89240648D01*
X129545200Y-89544896D01*
X129545200Y-89855104D01*
X129605718Y-90159352D01*
X129724430Y-90445948D01*
X129896773Y-90703877D01*
X130116123Y-90923227D01*
X130186124Y-90970000D01*
X130116123Y-91016773D01*
X129896773Y-91236123D01*
X129724430Y-91494052D01*
X129605718Y-91780648D01*
X129545200Y-92084896D01*
X129545200Y-92395104D01*
X129605718Y-92699352D01*
X129724430Y-92985948D01*
X129896773Y-93243877D01*
X130116123Y-93463227D01*
X130374052Y-93635570D01*
X130660648Y-93754282D01*
X130964896Y-93814800D01*
X131275104Y-93814800D01*
X131579352Y-93754282D01*
X131865948Y-93635570D01*
X132123877Y-93463227D01*
X132343227Y-93243877D01*
X132515570Y-92985948D01*
X132634282Y-92699352D01*
X132694800Y-92395104D01*
X132694800Y-92084896D01*
X132634282Y-91780648D01*
X132515570Y-91494052D01*
X132343227Y-91236123D01*
X132123877Y-91016773D01*
X132053876Y-90970000D01*
X132123877Y-90923227D01*
X132343227Y-90703877D01*
X132515570Y-90445948D01*
X132634282Y-90159352D01*
X132694800Y-89855104D01*
X132694800Y-89544896D01*
X132634282Y-89240648D01*
X132515570Y-88954052D01*
X132343227Y-88696123D01*
X132123877Y-88476773D01*
X132053876Y-88430000D01*
X132123877Y-88383227D01*
X132343227Y-88163877D01*
X132515570Y-87905948D01*
X132634282Y-87619352D01*
X132694800Y-87315104D01*
X132694800Y-87004896D01*
X132634282Y-86700648D01*
X132515570Y-86414052D01*
X132343227Y-86156123D01*
X132123877Y-85936773D01*
X132053876Y-85890000D01*
X132123877Y-85843227D01*
X132343227Y-85623877D01*
X132515570Y-85365948D01*
X132634282Y-85079352D01*
X132694800Y-84775104D01*
X132694800Y-84600000D01*
X138486928Y-84600000D01*
X138499188Y-84724482D01*
X138535498Y-84844180D01*
X138594463Y-84954494D01*
X138673815Y-85051185D01*
X138770506Y-85130537D01*
X138880820Y-85189502D01*
X139000518Y-85225812D01*
X139125000Y-85238072D01*
X139714250Y-85235000D01*
X139873000Y-85076250D01*
X139873000Y-84127000D01*
X140127000Y-84127000D01*
X140127000Y-85076250D01*
X140285750Y-85235000D01*
X140875000Y-85238072D01*
X140999482Y-85225812D01*
X141119180Y-85189502D01*
X141229494Y-85130537D01*
X141326185Y-85051185D01*
X141405537Y-84954494D01*
X141464502Y-84844180D01*
X141500812Y-84724482D01*
X141513072Y-84600000D01*
X141510000Y-84285750D01*
X141351250Y-84127000D01*
X140127000Y-84127000D01*
X139873000Y-84127000D01*
X138648750Y-84127000D01*
X138490000Y-84285750D01*
X138486928Y-84600000D01*
X132694800Y-84600000D01*
X132694800Y-84464896D01*
X132634282Y-84160648D01*
X132515570Y-83874052D01*
X132343227Y-83616123D01*
X132123877Y-83396773D01*
X132053876Y-83350000D01*
X132123877Y-83303227D01*
X132343227Y-83083877D01*
X132515570Y-82825948D01*
X132634282Y-82539352D01*
X132694800Y-82235104D01*
X132694800Y-81924896D01*
X132634282Y-81620648D01*
X132515570Y-81334052D01*
X132343227Y-81076123D01*
X132123877Y-80856773D01*
X132053876Y-80810000D01*
X132123877Y-80763227D01*
X132343227Y-80543877D01*
X132515570Y-80285948D01*
X132634013Y-80000000D01*
X138484025Y-80000000D01*
X138507870Y-80242102D01*
X138578489Y-80474901D01*
X138693167Y-80689449D01*
X138847498Y-80877502D01*
X138996762Y-81000000D01*
X138847498Y-81122498D01*
X138693167Y-81310551D01*
X138578489Y-81525099D01*
X138507870Y-81757898D01*
X138484025Y-82000000D01*
X138507870Y-82242102D01*
X138578489Y-82474901D01*
X138693167Y-82689449D01*
X138819436Y-82843309D01*
X138770506Y-82869463D01*
X138673815Y-82948815D01*
X138594463Y-83045506D01*
X138535498Y-83155820D01*
X138499188Y-83275518D01*
X138486928Y-83400000D01*
X138490000Y-83714250D01*
X138648750Y-83873000D01*
X139873000Y-83873000D01*
X139873000Y-83853000D01*
X140127000Y-83853000D01*
X140127000Y-83873000D01*
X141351250Y-83873000D01*
X141510000Y-83714250D01*
X141513072Y-83400000D01*
X141500812Y-83275518D01*
X141464502Y-83155820D01*
X141405537Y-83045506D01*
X141326185Y-82948815D01*
X141229494Y-82869463D01*
X141180564Y-82843309D01*
X141306833Y-82689449D01*
X141421511Y-82474901D01*
X141492130Y-82242102D01*
X141515975Y-82000000D01*
X141492130Y-81757898D01*
X141421511Y-81525099D01*
X141306833Y-81310551D01*
X141152502Y-81122498D01*
X141003238Y-81000000D01*
X141152502Y-80877502D01*
X141306833Y-80689449D01*
X141421511Y-80474901D01*
X141492130Y-80242102D01*
X141515975Y-80000000D01*
X141492130Y-79757898D01*
X141421511Y-79525099D01*
X141306833Y-79310551D01*
X141152502Y-79122498D01*
X140964449Y-78968167D01*
X140749901Y-78853489D01*
X140517102Y-78782870D01*
X140335665Y-78765000D01*
X139664335Y-78765000D01*
X139482898Y-78782870D01*
X139250099Y-78853489D01*
X139035551Y-78968167D01*
X138847498Y-79122498D01*
X138693167Y-79310551D01*
X138578489Y-79525099D01*
X138507870Y-79757898D01*
X138484025Y-80000000D01*
X132634013Y-80000000D01*
X132634282Y-79999352D01*
X132694800Y-79695104D01*
X132694800Y-79384896D01*
X132634282Y-79080648D01*
X132515570Y-78794052D01*
X132343227Y-78536123D01*
X132123877Y-78316773D01*
X132053876Y-78270000D01*
X132123877Y-78223227D01*
X132343227Y-78003877D01*
X132515570Y-77745948D01*
X132634282Y-77459352D01*
X132694800Y-77155104D01*
X132694800Y-76844896D01*
X132634282Y-76540648D01*
X132515570Y-76254052D01*
X132343227Y-75996123D01*
X132123877Y-75776773D01*
X132053876Y-75730000D01*
X132123877Y-75683227D01*
X132343227Y-75463877D01*
X132515570Y-75205948D01*
X132634282Y-74919352D01*
X132694800Y-74615104D01*
X132694800Y-74304896D01*
X132634282Y-74000648D01*
X132515570Y-73714052D01*
X132343227Y-73456123D01*
X132123877Y-73236773D01*
X131987286Y-73145505D01*
X132032871Y-73012476D01*
X131120000Y-72099605D01*
X130207129Y-73012476D01*
X130252714Y-73145505D01*
X130116123Y-73236773D01*
X129896773Y-73456123D01*
X129724430Y-73714052D01*
X129605718Y-74000648D01*
X129545200Y-74304896D01*
X129545200Y-74615104D01*
X129556890Y-74673876D01*
X129485727Y-74567373D01*
X129266377Y-74348023D01*
X129196376Y-74301250D01*
X129266377Y-74254477D01*
X129485727Y-74035127D01*
X129658070Y-73777198D01*
X129776782Y-73490602D01*
X129837300Y-73186354D01*
X129837300Y-72876146D01*
X129814148Y-72759753D01*
X130027524Y-72832871D01*
X130940395Y-71920000D01*
X131299605Y-71920000D01*
X132212476Y-72832871D01*
X132470723Y-72744377D01*
X132605597Y-72465024D01*
X132683381Y-72164725D01*
X132701084Y-71855023D01*
X132658027Y-71547816D01*
X132555865Y-71254914D01*
X132470723Y-71095623D01*
X132212476Y-71007129D01*
X131299605Y-71920000D01*
X130940395Y-71920000D01*
X130027524Y-71007129D01*
X129769277Y-71095623D01*
X129634403Y-71374976D01*
X129556619Y-71675275D01*
X129538916Y-71984977D01*
X129560554Y-72139359D01*
X129485727Y-72027373D01*
X129266377Y-71808023D01*
X129008448Y-71635680D01*
X128721852Y-71516968D01*
X128417604Y-71456450D01*
X128107396Y-71456450D01*
X127803148Y-71516968D01*
X127516552Y-71635680D01*
X127258623Y-71808023D01*
X127039273Y-72027373D01*
X126866930Y-72285302D01*
X126748218Y-72571898D01*
X126687700Y-72876146D01*
X117135119Y-72876146D01*
X117275570Y-72665948D01*
X117394282Y-72379352D01*
X117454800Y-72075104D01*
X117454800Y-71764896D01*
X117394282Y-71460648D01*
X117275570Y-71174052D01*
X117103227Y-70916123D01*
X116883877Y-70696773D01*
X116813876Y-70650000D01*
X116883877Y-70603227D01*
X117103227Y-70383877D01*
X117275570Y-70125948D01*
X117394282Y-69839352D01*
X117454800Y-69535104D01*
X117454800Y-69224896D01*
X117394282Y-68920648D01*
X117275570Y-68634052D01*
X117103227Y-68376123D01*
X116883877Y-68156773D01*
X116813876Y-68110000D01*
X116883877Y-68063227D01*
X117103227Y-67843877D01*
X117275570Y-67585948D01*
X117394282Y-67299352D01*
X117454800Y-66995104D01*
X117454800Y-66684896D01*
X117394282Y-66380648D01*
X117275570Y-66094052D01*
X117103227Y-65836123D01*
X116883877Y-65616773D01*
X116813876Y-65570000D01*
X116883877Y-65523227D01*
X117103227Y-65303877D01*
X117275570Y-65045948D01*
X117394282Y-64759352D01*
X117454800Y-64455104D01*
X117454800Y-64144896D01*
X117394282Y-63840648D01*
X117275570Y-63554052D01*
X117129070Y-63334800D01*
X117305104Y-63334800D01*
X117609352Y-63274282D01*
X117895948Y-63155570D01*
X118153877Y-62983227D01*
X118373227Y-62763877D01*
X118420000Y-62693876D01*
X118466773Y-62763877D01*
X118686123Y-62983227D01*
X118944052Y-63155570D01*
X119230648Y-63274282D01*
X119534896Y-63334800D01*
X119845104Y-63334800D01*
X120149352Y-63274282D01*
X120435948Y-63155570D01*
X120693877Y-62983227D01*
X120913227Y-62763877D01*
X120960000Y-62693876D01*
X121006773Y-62763877D01*
X121226123Y-62983227D01*
X121484052Y-63155570D01*
X121770648Y-63274282D01*
X122074896Y-63334800D01*
X122385104Y-63334800D01*
X122689352Y-63274282D01*
X122975948Y-63155570D01*
X123233877Y-62983227D01*
X123453227Y-62763877D01*
X123500000Y-62693876D01*
X123546773Y-62763877D01*
X123766123Y-62983227D01*
X124024052Y-63155570D01*
X124310648Y-63274282D01*
X124614896Y-63334800D01*
X124925104Y-63334800D01*
X125229352Y-63274282D01*
X125515948Y-63155570D01*
X125773877Y-62983227D01*
X125993227Y-62763877D01*
X126040000Y-62693876D01*
X126086773Y-62763877D01*
X126306123Y-62983227D01*
X126564052Y-63155570D01*
X126850648Y-63274282D01*
X127154896Y-63334800D01*
X127465104Y-63334800D01*
X127769352Y-63274282D01*
X128055948Y-63155570D01*
X128313877Y-62983227D01*
X128533227Y-62763877D01*
X128580000Y-62693876D01*
X128626773Y-62763877D01*
X128846123Y-62983227D01*
X129104052Y-63155570D01*
X129390648Y-63274282D01*
X129694896Y-63334800D01*
X129870930Y-63334800D01*
X129724430Y-63554052D01*
X129605718Y-63840648D01*
X129545200Y-64144896D01*
X129545200Y-64455104D01*
X129605718Y-64759352D01*
X129724430Y-65045948D01*
X129896773Y-65303877D01*
X130116123Y-65523227D01*
X130186124Y-65570000D01*
X130116123Y-65616773D01*
X129896773Y-65836123D01*
X129724430Y-66094052D01*
X129605718Y-66380648D01*
X129545200Y-66684896D01*
X129545200Y-66995104D01*
X129605718Y-67299352D01*
X129724430Y-67585948D01*
X129896773Y-67843877D01*
X130116123Y-68063227D01*
X130186124Y-68110000D01*
X130116123Y-68156773D01*
X129896773Y-68376123D01*
X129724430Y-68634052D01*
X129605718Y-68920648D01*
X129545200Y-69224896D01*
X129545200Y-69535104D01*
X129605718Y-69839352D01*
X129724430Y-70125948D01*
X129896773Y-70383877D01*
X130116123Y-70603227D01*
X130252714Y-70694495D01*
X130207129Y-70827524D01*
X131120000Y-71740395D01*
X132032871Y-70827524D01*
X131987286Y-70694495D01*
X132123877Y-70603227D01*
X132343227Y-70383877D01*
X132515570Y-70125948D01*
X132634282Y-69839352D01*
X132694800Y-69535104D01*
X132694800Y-69224896D01*
X132634282Y-68920648D01*
X132515570Y-68634052D01*
X132343227Y-68376123D01*
X132123877Y-68156773D01*
X132053876Y-68110000D01*
X132123877Y-68063227D01*
X132343227Y-67843877D01*
X132515570Y-67585948D01*
X132634282Y-67299352D01*
X132694800Y-66995104D01*
X132694800Y-66684896D01*
X132634282Y-66380648D01*
X132515570Y-66094052D01*
X132343227Y-65836123D01*
X132123877Y-65616773D01*
X132053876Y-65570000D01*
X132123877Y-65523227D01*
X132343227Y-65303877D01*
X132515570Y-65045948D01*
X132634282Y-64759352D01*
X132694800Y-64455104D01*
X132694800Y-64144896D01*
X132634282Y-63840648D01*
X132515570Y-63554052D01*
X132343227Y-63296123D01*
X132123877Y-63076773D01*
X131865948Y-62904430D01*
X131579352Y-62785718D01*
X131275104Y-62725200D01*
X131099070Y-62725200D01*
X131245570Y-62505948D01*
X131364282Y-62219352D01*
X131424800Y-61915104D01*
X131424800Y-61604896D01*
X131364282Y-61300648D01*
X131245570Y-61014052D01*
X131073227Y-60756123D01*
X131027104Y-60710000D01*
X141965271Y-60710000D01*
X142152785Y-60728386D01*
X142299748Y-60772757D01*
X142435297Y-60844829D01*
X142554258Y-60941852D01*
X142652118Y-61060144D01*
X142725132Y-61195181D01*
X142770529Y-61341833D01*
X142790001Y-61527101D01*
X142790000Y-115465271D01*
X142771614Y-115652784D01*
X142727243Y-115799748D01*
X142655171Y-115935297D01*
X142558148Y-116054258D01*
X142439856Y-116152118D01*
X142304819Y-116225132D01*
X142158167Y-116270529D01*
X141972908Y-116290000D01*
X105034729Y-116290000D01*
X104847216Y-116271614D01*
X104700252Y-116227243D01*
X104564703Y-116155171D01*
X104445742Y-116058148D01*
X104347882Y-115939856D01*
X104274868Y-115804819D01*
X104229471Y-115658167D01*
X104210000Y-115472908D01*
X104210000Y-113000000D01*
X105484025Y-113000000D01*
X105507870Y-113242102D01*
X105578489Y-113474901D01*
X105693167Y-113689449D01*
X105847498Y-113877502D01*
X106035551Y-114031833D01*
X106250099Y-114146511D01*
X106482898Y-114217130D01*
X106664335Y-114235000D01*
X107335665Y-114235000D01*
X107517102Y-114217130D01*
X107749901Y-114146511D01*
X107964449Y-114031833D01*
X108152502Y-113877502D01*
X108306833Y-113689449D01*
X108421511Y-113474901D01*
X108492130Y-113242102D01*
X108515975Y-113000000D01*
X108492130Y-112757898D01*
X108421511Y-112525099D01*
X108306833Y-112310551D01*
X108152502Y-112122498D01*
X108113889Y-112090809D01*
X108118387Y-112088405D01*
X108252962Y-111977962D01*
X108363405Y-111843387D01*
X108445472Y-111689851D01*
X108496008Y-111523255D01*
X108513072Y-111350001D01*
X108513072Y-110649999D01*
X108496008Y-110476745D01*
X108445472Y-110310149D01*
X108363405Y-110156613D01*
X108252962Y-110022038D01*
X108118387Y-109911595D01*
X107964851Y-109829528D01*
X107798255Y-109778992D01*
X107625001Y-109761928D01*
X106374999Y-109761928D01*
X106201745Y-109778992D01*
X106035149Y-109829528D01*
X105881613Y-109911595D01*
X105747038Y-110022038D01*
X105636595Y-110156613D01*
X105554528Y-110310149D01*
X105503992Y-110476745D01*
X105486928Y-110649999D01*
X105486928Y-111350001D01*
X105503992Y-111523255D01*
X105554528Y-111689851D01*
X105636595Y-111843387D01*
X105747038Y-111977962D01*
X105881613Y-112088405D01*
X105886111Y-112090809D01*
X105847498Y-112122498D01*
X105693167Y-112310551D01*
X105578489Y-112525099D01*
X105507870Y-112757898D01*
X105484025Y-113000000D01*
X104210000Y-113000000D01*
X104210000Y-97764000D01*
X113190928Y-97764000D01*
X113203188Y-97888482D01*
X113239498Y-98008180D01*
X113298463Y-98118494D01*
X113377815Y-98215185D01*
X113474506Y-98294537D01*
X113584820Y-98353502D01*
X113704518Y-98389812D01*
X113829000Y-98402072D01*
X114163592Y-98399281D01*
X114107013Y-98410535D01*
X113872430Y-98507703D01*
X113661310Y-98648768D01*
X113481768Y-98828310D01*
X113340703Y-99039430D01*
X113243535Y-99274013D01*
X113194000Y-99523045D01*
X113194000Y-99776955D01*
X113243535Y-100025987D01*
X113340703Y-100260570D01*
X113481768Y-100471690D01*
X113661310Y-100651232D01*
X113872430Y-100792297D01*
X114107013Y-100889465D01*
X114260524Y-100920000D01*
X114107013Y-100950535D01*
X113872430Y-101047703D01*
X113661310Y-101188768D01*
X113481768Y-101368310D01*
X113340703Y-101579430D01*
X113243535Y-101814013D01*
X113194000Y-102063045D01*
X113194000Y-102316955D01*
X113243535Y-102565987D01*
X113340703Y-102800570D01*
X113481768Y-103011690D01*
X113661310Y-103191232D01*
X113872430Y-103332297D01*
X114107013Y-103429465D01*
X114260524Y-103460000D01*
X114107013Y-103490535D01*
X113872430Y-103587703D01*
X113661310Y-103728768D01*
X113481768Y-103908310D01*
X113340703Y-104119430D01*
X113243535Y-104354013D01*
X113194000Y-104603045D01*
X113194000Y-104856955D01*
X113243535Y-105105987D01*
X113340703Y-105340570D01*
X113481768Y-105551690D01*
X113661310Y-105731232D01*
X113872430Y-105872297D01*
X114107013Y-105969465D01*
X114260524Y-106000000D01*
X114107013Y-106030535D01*
X113872430Y-106127703D01*
X113661310Y-106268768D01*
X113481768Y-106448310D01*
X113340703Y-106659430D01*
X113243535Y-106894013D01*
X113194000Y-107143045D01*
X113194000Y-107396955D01*
X113243535Y-107645987D01*
X113340703Y-107880570D01*
X113481768Y-108091690D01*
X113661310Y-108271232D01*
X113872430Y-108412297D01*
X114107013Y-108509465D01*
X114260524Y-108540000D01*
X114107013Y-108570535D01*
X113872430Y-108667703D01*
X113661310Y-108808768D01*
X113481768Y-108988310D01*
X113340703Y-109199430D01*
X113243535Y-109434013D01*
X113194000Y-109683045D01*
X113194000Y-109936955D01*
X113243535Y-110185987D01*
X113340703Y-110420570D01*
X113481768Y-110631690D01*
X113661310Y-110811232D01*
X113872430Y-110952297D01*
X114107013Y-111049465D01*
X114260524Y-111080000D01*
X114107013Y-111110535D01*
X113872430Y-111207703D01*
X113661310Y-111348768D01*
X113481768Y-111528310D01*
X113340703Y-111739430D01*
X113243535Y-111974013D01*
X113194000Y-112223045D01*
X113194000Y-112476955D01*
X113243535Y-112725987D01*
X113340703Y-112960570D01*
X113481768Y-113171690D01*
X113661310Y-113351232D01*
X113872430Y-113492297D01*
X114107013Y-113589465D01*
X114260524Y-113620000D01*
X114107013Y-113650535D01*
X113872430Y-113747703D01*
X113661310Y-113888768D01*
X113481768Y-114068310D01*
X113340703Y-114279430D01*
X113243535Y-114514013D01*
X113194000Y-114763045D01*
X113194000Y-115016955D01*
X113243535Y-115265987D01*
X113340703Y-115500570D01*
X113481768Y-115711690D01*
X113661310Y-115891232D01*
X113872430Y-116032297D01*
X114107013Y-116129465D01*
X114356045Y-116179000D01*
X114609955Y-116179000D01*
X114858987Y-116129465D01*
X115093570Y-116032297D01*
X115304690Y-115891232D01*
X115484232Y-115711690D01*
X115625297Y-115500570D01*
X115722465Y-115265987D01*
X115772000Y-115016955D01*
X115772000Y-114763045D01*
X115722465Y-114514013D01*
X115625297Y-114279430D01*
X115484232Y-114068310D01*
X115304690Y-113888768D01*
X115093570Y-113747703D01*
X114858987Y-113650535D01*
X114705476Y-113620000D01*
X114858987Y-113589465D01*
X115093570Y-113492297D01*
X115304690Y-113351232D01*
X115484232Y-113171690D01*
X115625297Y-112960570D01*
X115722465Y-112725987D01*
X115772000Y-112476955D01*
X115772000Y-112223045D01*
X115722465Y-111974013D01*
X115625297Y-111739430D01*
X115484232Y-111528310D01*
X115304690Y-111348768D01*
X115093570Y-111207703D01*
X114858987Y-111110535D01*
X114705476Y-111080000D01*
X114858987Y-111049465D01*
X115093570Y-110952297D01*
X115304690Y-110811232D01*
X115484232Y-110631690D01*
X115625297Y-110420570D01*
X115722465Y-110185987D01*
X115772000Y-109936955D01*
X115772000Y-109683045D01*
X115722465Y-109434013D01*
X115625297Y-109199430D01*
X115484232Y-108988310D01*
X115304690Y-108808768D01*
X115093570Y-108667703D01*
X114858987Y-108570535D01*
X114705476Y-108540000D01*
X114858987Y-108509465D01*
X115093570Y-108412297D01*
X115304690Y-108271232D01*
X115484232Y-108091690D01*
X115625297Y-107880570D01*
X115722465Y-107645987D01*
X115772000Y-107396955D01*
X115772000Y-107143045D01*
X115722465Y-106894013D01*
X115625297Y-106659430D01*
X115484232Y-106448310D01*
X115304690Y-106268768D01*
X115093570Y-106127703D01*
X114858987Y-106030535D01*
X114705476Y-106000000D01*
X114858987Y-105969465D01*
X115093570Y-105872297D01*
X115304690Y-105731232D01*
X115484232Y-105551690D01*
X115625297Y-105340570D01*
X115722465Y-105105987D01*
X115772000Y-104856955D01*
X115772000Y-104603045D01*
X115722465Y-104354013D01*
X115625297Y-104119430D01*
X115484232Y-103908310D01*
X115304690Y-103728768D01*
X115093570Y-103587703D01*
X114858987Y-103490535D01*
X114705476Y-103460000D01*
X114858987Y-103429465D01*
X115093570Y-103332297D01*
X115304690Y-103191232D01*
X115484232Y-103011690D01*
X115625297Y-102800570D01*
X115722465Y-102565987D01*
X115772000Y-102316955D01*
X115772000Y-102063045D01*
X115771129Y-102058665D01*
X119315000Y-102058665D01*
X119315000Y-102341335D01*
X119370147Y-102618574D01*
X119478320Y-102879727D01*
X119635363Y-103114759D01*
X119835241Y-103314637D01*
X120070273Y-103471680D01*
X120331426Y-103579853D01*
X120608665Y-103635000D01*
X120891335Y-103635000D01*
X121168574Y-103579853D01*
X121429727Y-103471680D01*
X121664759Y-103314637D01*
X121864637Y-103114759D01*
X122021680Y-102879727D01*
X122129853Y-102618574D01*
X122185000Y-102341335D01*
X122185000Y-102258665D01*
X124665000Y-102258665D01*
X124665000Y-102541335D01*
X124720147Y-102818574D01*
X124828320Y-103079727D01*
X124985363Y-103314759D01*
X125185241Y-103514637D01*
X125420273Y-103671680D01*
X125681426Y-103779853D01*
X125958665Y-103835000D01*
X126241335Y-103835000D01*
X126518574Y-103779853D01*
X126779727Y-103671680D01*
X127014759Y-103514637D01*
X127214637Y-103314759D01*
X127371680Y-103079727D01*
X127479853Y-102818574D01*
X127535000Y-102541335D01*
X127535000Y-102258665D01*
X127479853Y-101981426D01*
X127371680Y-101720273D01*
X127214637Y-101485241D01*
X127014759Y-101285363D01*
X126779727Y-101128320D01*
X126518574Y-101020147D01*
X126241335Y-100965000D01*
X125958665Y-100965000D01*
X125681426Y-101020147D01*
X125420273Y-101128320D01*
X125185241Y-101285363D01*
X124985363Y-101485241D01*
X124828320Y-101720273D01*
X124720147Y-101981426D01*
X124665000Y-102258665D01*
X122185000Y-102258665D01*
X122185000Y-102058665D01*
X122129853Y-101781426D01*
X122021680Y-101520273D01*
X121864637Y-101285241D01*
X121664759Y-101085363D01*
X121429727Y-100928320D01*
X121168574Y-100820147D01*
X120891335Y-100765000D01*
X120608665Y-100765000D01*
X120331426Y-100820147D01*
X120070273Y-100928320D01*
X119835241Y-101085363D01*
X119635363Y-101285241D01*
X119478320Y-101520273D01*
X119370147Y-101781426D01*
X119315000Y-102058665D01*
X115771129Y-102058665D01*
X115722465Y-101814013D01*
X115625297Y-101579430D01*
X115484232Y-101368310D01*
X115304690Y-101188768D01*
X115093570Y-101047703D01*
X114858987Y-100950535D01*
X114705476Y-100920000D01*
X114858987Y-100889465D01*
X115093570Y-100792297D01*
X115304690Y-100651232D01*
X115484232Y-100471690D01*
X115625297Y-100260570D01*
X115722465Y-100025987D01*
X115772000Y-99776955D01*
X115772000Y-99523045D01*
X115722465Y-99274013D01*
X115625297Y-99039430D01*
X115484232Y-98828310D01*
X115304690Y-98648768D01*
X115093570Y-98507703D01*
X114858987Y-98410535D01*
X114802408Y-98399281D01*
X115137000Y-98402072D01*
X115261482Y-98389812D01*
X115381180Y-98353502D01*
X115491494Y-98294537D01*
X115588185Y-98215185D01*
X115667537Y-98118494D01*
X115726502Y-98008180D01*
X115762812Y-97888482D01*
X115775072Y-97764000D01*
X115772000Y-97395750D01*
X115613250Y-97237000D01*
X114610000Y-97237000D01*
X114610000Y-97257000D01*
X114356000Y-97257000D01*
X114356000Y-97237000D01*
X113352750Y-97237000D01*
X113194000Y-97395750D01*
X113190928Y-97764000D01*
X104210000Y-97764000D01*
X104210000Y-96983045D01*
X131228000Y-96983045D01*
X131228000Y-97236955D01*
X131277535Y-97485987D01*
X131374703Y-97720570D01*
X131515768Y-97931690D01*
X131695310Y-98111232D01*
X131906430Y-98252297D01*
X132141013Y-98349465D01*
X132294524Y-98380000D01*
X132141013Y-98410535D01*
X131906430Y-98507703D01*
X131695310Y-98648768D01*
X131515768Y-98828310D01*
X131374703Y-99039430D01*
X131277535Y-99274013D01*
X131228000Y-99523045D01*
X131228000Y-99776955D01*
X131277535Y-100025987D01*
X131374703Y-100260570D01*
X131515768Y-100471690D01*
X131695310Y-100651232D01*
X131906430Y-100792297D01*
X132141013Y-100889465D01*
X132294524Y-100920000D01*
X132141013Y-100950535D01*
X131906430Y-101047703D01*
X131695310Y-101188768D01*
X131515768Y-101368310D01*
X131374703Y-101579430D01*
X131277535Y-101814013D01*
X131228000Y-102063045D01*
X131228000Y-102316955D01*
X131277535Y-102565987D01*
X131374703Y-102800570D01*
X131515768Y-103011690D01*
X131695310Y-103191232D01*
X131906430Y-103332297D01*
X132141013Y-103429465D01*
X132294524Y-103460000D01*
X132141013Y-103490535D01*
X131906430Y-103587703D01*
X131695310Y-103728768D01*
X131515768Y-103908310D01*
X131374703Y-104119430D01*
X131277535Y-104354013D01*
X131228000Y-104603045D01*
X131228000Y-104856955D01*
X131277535Y-105105987D01*
X131374703Y-105340570D01*
X131515768Y-105551690D01*
X131695310Y-105731232D01*
X131906430Y-105872297D01*
X132141013Y-105969465D01*
X132294524Y-106000000D01*
X132141013Y-106030535D01*
X131906430Y-106127703D01*
X131695310Y-106268768D01*
X131515768Y-106448310D01*
X131374703Y-106659430D01*
X131277535Y-106894013D01*
X131228000Y-107143045D01*
X131228000Y-107396955D01*
X131277535Y-107645987D01*
X131374703Y-107880570D01*
X131515768Y-108091690D01*
X131695310Y-108271232D01*
X131906430Y-108412297D01*
X132141013Y-108509465D01*
X132294524Y-108540000D01*
X132141013Y-108570535D01*
X131906430Y-108667703D01*
X131695310Y-108808768D01*
X131515768Y-108988310D01*
X131374703Y-109199430D01*
X131277535Y-109434013D01*
X131228000Y-109683045D01*
X131228000Y-109936955D01*
X131277535Y-110185987D01*
X131374703Y-110420570D01*
X131515768Y-110631690D01*
X131695310Y-110811232D01*
X131906430Y-110952297D01*
X132141013Y-111049465D01*
X132294524Y-111080000D01*
X132141013Y-111110535D01*
X131906430Y-111207703D01*
X131695310Y-111348768D01*
X131515768Y-111528310D01*
X131374703Y-111739430D01*
X131277535Y-111974013D01*
X131228000Y-112223045D01*
X131228000Y-112476955D01*
X131277535Y-112725987D01*
X131374703Y-112960570D01*
X131515768Y-113171690D01*
X131695310Y-113351232D01*
X131906430Y-113492297D01*
X132141013Y-113589465D01*
X132294524Y-113620000D01*
X132141013Y-113650535D01*
X131906430Y-113747703D01*
X131695310Y-113888768D01*
X131515768Y-114068310D01*
X131374703Y-114279430D01*
X131277535Y-114514013D01*
X131228000Y-114763045D01*
X131228000Y-115016955D01*
X131277535Y-115265987D01*
X131374703Y-115500570D01*
X131515768Y-115711690D01*
X131695310Y-115891232D01*
X131906430Y-116032297D01*
X132141013Y-116129465D01*
X132390045Y-116179000D01*
X132643955Y-116179000D01*
X132892987Y-116129465D01*
X133127570Y-116032297D01*
X133338690Y-115891232D01*
X133518232Y-115711690D01*
X133659297Y-115500570D01*
X133756465Y-115265987D01*
X133806000Y-115016955D01*
X133806000Y-114763045D01*
X133756465Y-114514013D01*
X133659297Y-114279430D01*
X133518232Y-114068310D01*
X133338690Y-113888768D01*
X133127570Y-113747703D01*
X132892987Y-113650535D01*
X132739476Y-113620000D01*
X132892987Y-113589465D01*
X133127570Y-113492297D01*
X133338690Y-113351232D01*
X133518232Y-113171690D01*
X133659297Y-112960570D01*
X133756465Y-112725987D01*
X133806000Y-112476955D01*
X133806000Y-112223045D01*
X133756465Y-111974013D01*
X133659297Y-111739430D01*
X133518232Y-111528310D01*
X133338690Y-111348768D01*
X133127570Y-111207703D01*
X132892987Y-111110535D01*
X132739476Y-111080000D01*
X132892987Y-111049465D01*
X133127570Y-110952297D01*
X133338690Y-110811232D01*
X133518232Y-110631690D01*
X133659297Y-110420570D01*
X133756465Y-110185987D01*
X133806000Y-109936955D01*
X133806000Y-109683045D01*
X133756465Y-109434013D01*
X133659297Y-109199430D01*
X133518232Y-108988310D01*
X133338690Y-108808768D01*
X133127570Y-108667703D01*
X132892987Y-108570535D01*
X132739476Y-108540000D01*
X132892987Y-108509465D01*
X133127570Y-108412297D01*
X133338690Y-108271232D01*
X133518232Y-108091690D01*
X133659297Y-107880570D01*
X133756465Y-107645987D01*
X133806000Y-107396955D01*
X133806000Y-107143045D01*
X133756465Y-106894013D01*
X133659297Y-106659430D01*
X133518232Y-106448310D01*
X133338690Y-106268768D01*
X133127570Y-106127703D01*
X132892987Y-106030535D01*
X132739476Y-106000000D01*
X132892987Y-105969465D01*
X133127570Y-105872297D01*
X133338690Y-105731232D01*
X133518232Y-105551690D01*
X133659297Y-105340570D01*
X133756465Y-105105987D01*
X133806000Y-104856955D01*
X133806000Y-104603045D01*
X133756465Y-104354013D01*
X133659297Y-104119430D01*
X133518232Y-103908310D01*
X133338690Y-103728768D01*
X133127570Y-103587703D01*
X132892987Y-103490535D01*
X132739476Y-103460000D01*
X132892987Y-103429465D01*
X133127570Y-103332297D01*
X133338690Y-103191232D01*
X133518232Y-103011690D01*
X133659297Y-102800570D01*
X133756465Y-102565987D01*
X133806000Y-102316955D01*
X133806000Y-102063045D01*
X133756465Y-101814013D01*
X133659297Y-101579430D01*
X133518232Y-101368310D01*
X133338690Y-101188768D01*
X133127570Y-101047703D01*
X132892987Y-100950535D01*
X132739476Y-100920000D01*
X132892987Y-100889465D01*
X133127570Y-100792297D01*
X133338690Y-100651232D01*
X133518232Y-100471690D01*
X133659297Y-100260570D01*
X133756465Y-100025987D01*
X133806000Y-99776955D01*
X133806000Y-99523045D01*
X133756465Y-99274013D01*
X133659297Y-99039430D01*
X133518232Y-98828310D01*
X133338690Y-98648768D01*
X133127570Y-98507703D01*
X132892987Y-98410535D01*
X132739476Y-98380000D01*
X132892987Y-98349465D01*
X133127570Y-98252297D01*
X133338690Y-98111232D01*
X133518232Y-97931690D01*
X133659297Y-97720570D01*
X133756465Y-97485987D01*
X133806000Y-97236955D01*
X133806000Y-96983045D01*
X133756465Y-96734013D01*
X133659297Y-96499430D01*
X133518232Y-96288310D01*
X133338690Y-96108768D01*
X133127570Y-95967703D01*
X132892987Y-95870535D01*
X132643955Y-95821000D01*
X132390045Y-95821000D01*
X132141013Y-95870535D01*
X131906430Y-95967703D01*
X131695310Y-96108768D01*
X131515768Y-96288310D01*
X131374703Y-96499430D01*
X131277535Y-96734013D01*
X131228000Y-96983045D01*
X104210000Y-96983045D01*
X104210000Y-96456000D01*
X113190928Y-96456000D01*
X113194000Y-96824250D01*
X113352750Y-96983000D01*
X114356000Y-96983000D01*
X114356000Y-95979750D01*
X114610000Y-95979750D01*
X114610000Y-96983000D01*
X115613250Y-96983000D01*
X115772000Y-96824250D01*
X115775072Y-96456000D01*
X115762812Y-96331518D01*
X115726502Y-96211820D01*
X115667537Y-96101506D01*
X115588185Y-96004815D01*
X115491494Y-95925463D01*
X115381180Y-95866498D01*
X115261482Y-95830188D01*
X115137000Y-95817928D01*
X114768750Y-95821000D01*
X114610000Y-95979750D01*
X114356000Y-95979750D01*
X114197250Y-95821000D01*
X113829000Y-95817928D01*
X113704518Y-95830188D01*
X113584820Y-95866498D01*
X113474506Y-95925463D01*
X113377815Y-96004815D01*
X113298463Y-96101506D01*
X113239498Y-96211820D01*
X113203188Y-96331518D01*
X113190928Y-96456000D01*
X104210000Y-96456000D01*
X104210000Y-94000000D01*
X105484025Y-94000000D01*
X105507870Y-94242102D01*
X105578489Y-94474901D01*
X105693167Y-94689449D01*
X105847498Y-94877502D01*
X106035551Y-95031833D01*
X106250099Y-95146511D01*
X106482898Y-95217130D01*
X106664335Y-95235000D01*
X107335665Y-95235000D01*
X107517102Y-95217130D01*
X107749901Y-95146511D01*
X107964449Y-95031833D01*
X108152502Y-94877502D01*
X108306833Y-94689449D01*
X108421511Y-94474901D01*
X108492130Y-94242102D01*
X108515975Y-94000000D01*
X108492130Y-93757898D01*
X108421511Y-93525099D01*
X108306833Y-93310551D01*
X108152502Y-93122498D01*
X108113889Y-93090809D01*
X108118387Y-93088405D01*
X108252962Y-92977962D01*
X108363405Y-92843387D01*
X108445472Y-92689851D01*
X108496008Y-92523255D01*
X108513072Y-92350001D01*
X108513072Y-91649999D01*
X108496008Y-91476745D01*
X108445472Y-91310149D01*
X108363405Y-91156613D01*
X108252962Y-91022038D01*
X108118387Y-90911595D01*
X107964851Y-90829528D01*
X107798255Y-90778992D01*
X107625001Y-90761928D01*
X106374999Y-90761928D01*
X106201745Y-90778992D01*
X106035149Y-90829528D01*
X105881613Y-90911595D01*
X105747038Y-91022038D01*
X105636595Y-91156613D01*
X105554528Y-91310149D01*
X105503992Y-91476745D01*
X105486928Y-91649999D01*
X105486928Y-92350001D01*
X105503992Y-92523255D01*
X105554528Y-92689851D01*
X105636595Y-92843387D01*
X105747038Y-92977962D01*
X105881613Y-93088405D01*
X105886111Y-93090809D01*
X105847498Y-93122498D01*
X105693167Y-93310551D01*
X105578489Y-93525099D01*
X105507870Y-93757898D01*
X105484025Y-94000000D01*
X104210000Y-94000000D01*
X104210000Y-85000000D01*
X105484025Y-85000000D01*
X105507870Y-85242102D01*
X105578489Y-85474901D01*
X105693167Y-85689449D01*
X105847498Y-85877502D01*
X105996762Y-86000000D01*
X105847498Y-86122498D01*
X105693167Y-86310551D01*
X105578489Y-86525099D01*
X105507870Y-86757898D01*
X105484025Y-87000000D01*
X105507870Y-87242102D01*
X105578489Y-87474901D01*
X105693167Y-87689449D01*
X105847498Y-87877502D01*
X106035551Y-88031833D01*
X106250099Y-88146511D01*
X106482898Y-88217130D01*
X106664335Y-88235000D01*
X107335665Y-88235000D01*
X107517102Y-88217130D01*
X107749901Y-88146511D01*
X107964449Y-88031833D01*
X108152502Y-87877502D01*
X108306833Y-87689449D01*
X108421511Y-87474901D01*
X108492130Y-87242102D01*
X108515975Y-87000000D01*
X108492130Y-86757898D01*
X108421511Y-86525099D01*
X108306833Y-86310551D01*
X108152502Y-86122498D01*
X108003238Y-86000000D01*
X108152502Y-85877502D01*
X108306833Y-85689449D01*
X108421511Y-85474901D01*
X108492130Y-85242102D01*
X108515975Y-85000000D01*
X108492130Y-84757898D01*
X108421511Y-84525099D01*
X108306833Y-84310551D01*
X108152502Y-84122498D01*
X108002652Y-83999519D01*
X108066725Y-83956307D01*
X108238078Y-83783474D01*
X108372421Y-83580533D01*
X108464591Y-83355282D01*
X108468462Y-83317609D01*
X108343731Y-83127000D01*
X107127000Y-83127000D01*
X107127000Y-83147000D01*
X106873000Y-83147000D01*
X106873000Y-83127000D01*
X105656269Y-83127000D01*
X105531538Y-83317609D01*
X105535409Y-83355282D01*
X105627579Y-83580533D01*
X105761922Y-83783474D01*
X105933275Y-83956307D01*
X105997348Y-83999519D01*
X105847498Y-84122498D01*
X105693167Y-84310551D01*
X105578489Y-84525099D01*
X105507870Y-84757898D01*
X105484025Y-85000000D01*
X104210000Y-85000000D01*
X104210000Y-80649999D01*
X105486928Y-80649999D01*
X105486928Y-81350001D01*
X105503992Y-81523255D01*
X105554528Y-81689851D01*
X105636595Y-81843387D01*
X105747038Y-81977962D01*
X105881613Y-82088405D01*
X105886406Y-82090967D01*
X105761922Y-82216526D01*
X105627579Y-82419467D01*
X105535409Y-82644718D01*
X105531538Y-82682391D01*
X105656269Y-82873000D01*
X106873000Y-82873000D01*
X106873000Y-82853000D01*
X107127000Y-82853000D01*
X107127000Y-82873000D01*
X108343731Y-82873000D01*
X108468462Y-82682391D01*
X108464591Y-82644718D01*
X108372421Y-82419467D01*
X108238078Y-82216526D01*
X108113594Y-82090967D01*
X108118387Y-82088405D01*
X108252962Y-81977962D01*
X108363405Y-81843387D01*
X108445472Y-81689851D01*
X108496008Y-81523255D01*
X108513072Y-81350001D01*
X108513072Y-80649999D01*
X108496008Y-80476745D01*
X108445472Y-80310149D01*
X108363405Y-80156613D01*
X108252962Y-80022038D01*
X108118387Y-79911595D01*
X107964851Y-79829528D01*
X107798255Y-79778992D01*
X107625001Y-79761928D01*
X106374999Y-79761928D01*
X106201745Y-79778992D01*
X106035149Y-79829528D01*
X105881613Y-79911595D01*
X105747038Y-80022038D01*
X105636595Y-80156613D01*
X105554528Y-80310149D01*
X105503992Y-80476745D01*
X105486928Y-80649999D01*
X104210000Y-80649999D01*
X104210000Y-74000000D01*
X105484025Y-74000000D01*
X105507870Y-74242102D01*
X105578489Y-74474901D01*
X105693167Y-74689449D01*
X105847498Y-74877502D01*
X105996762Y-75000000D01*
X105847498Y-75122498D01*
X105693167Y-75310551D01*
X105578489Y-75525099D01*
X105507870Y-75757898D01*
X105484025Y-76000000D01*
X105507870Y-76242102D01*
X105578489Y-76474901D01*
X105693167Y-76689449D01*
X105847498Y-76877502D01*
X106035551Y-77031833D01*
X106250099Y-77146511D01*
X106482898Y-77217130D01*
X106664335Y-77235000D01*
X107335665Y-77235000D01*
X107517102Y-77217130D01*
X107749901Y-77146511D01*
X107964449Y-77031833D01*
X108152502Y-76877502D01*
X108306833Y-76689449D01*
X108421511Y-76474901D01*
X108492130Y-76242102D01*
X108515975Y-76000000D01*
X108492130Y-75757898D01*
X108421511Y-75525099D01*
X108306833Y-75310551D01*
X108152502Y-75122498D01*
X108003238Y-75000000D01*
X108152502Y-74877502D01*
X108306833Y-74689449D01*
X108421511Y-74474901D01*
X108492130Y-74242102D01*
X108515975Y-74000000D01*
X108492130Y-73757898D01*
X108421511Y-73525099D01*
X108306833Y-73310551D01*
X108152502Y-73122498D01*
X108113889Y-73090809D01*
X108118387Y-73088405D01*
X108252962Y-72977962D01*
X108363405Y-72843387D01*
X108445472Y-72689851D01*
X108496008Y-72523255D01*
X108513072Y-72350001D01*
X108513072Y-71649999D01*
X108496008Y-71476745D01*
X108445472Y-71310149D01*
X108363405Y-71156613D01*
X108252962Y-71022038D01*
X108118387Y-70911595D01*
X107964851Y-70829528D01*
X107798255Y-70778992D01*
X107625001Y-70761928D01*
X106374999Y-70761928D01*
X106201745Y-70778992D01*
X106035149Y-70829528D01*
X105881613Y-70911595D01*
X105747038Y-71022038D01*
X105636595Y-71156613D01*
X105554528Y-71310149D01*
X105503992Y-71476745D01*
X105486928Y-71649999D01*
X105486928Y-72350001D01*
X105503992Y-72523255D01*
X105554528Y-72689851D01*
X105636595Y-72843387D01*
X105747038Y-72977962D01*
X105881613Y-73088405D01*
X105886111Y-73090809D01*
X105847498Y-73122498D01*
X105693167Y-73310551D01*
X105578489Y-73525099D01*
X105507870Y-73757898D01*
X105484025Y-74000000D01*
X104210000Y-74000000D01*
X104210000Y-61534729D01*
X104228386Y-61347215D01*
X104272757Y-61200252D01*
X104344829Y-61064703D01*
X104441852Y-60945742D01*
X104560144Y-60847882D01*
X104695181Y-60774868D01*
X104841833Y-60729471D01*
X105027092Y-60710000D01*
X115972896Y-60710000D01*
X115926773Y-60756123D01*
G37*
X115926773Y-60756123D02*
X115754430Y-61014052D01*
X115635718Y-61300648D01*
X115575200Y-61604896D01*
X115575200Y-61915104D01*
X115635718Y-62219352D01*
X115754430Y-62505948D01*
X115900930Y-62725200D01*
X115724896Y-62725200D01*
X115420648Y-62785718D01*
X115134052Y-62904430D01*
X114876123Y-63076773D01*
X114656773Y-63296123D01*
X114484430Y-63554052D01*
X114365718Y-63840648D01*
X114305200Y-64144896D01*
X114305200Y-64455104D01*
X114365718Y-64759352D01*
X114484430Y-65045948D01*
X114656773Y-65303877D01*
X114876123Y-65523227D01*
X114946124Y-65570000D01*
X114876123Y-65616773D01*
X114656773Y-65836123D01*
X114484430Y-66094052D01*
X114365718Y-66380648D01*
X114305200Y-66684896D01*
X114305200Y-66995104D01*
X114365718Y-67299352D01*
X114484430Y-67585948D01*
X114656773Y-67843877D01*
X114876123Y-68063227D01*
X114946124Y-68110000D01*
X114876123Y-68156773D01*
X114656773Y-68376123D01*
X114484430Y-68634052D01*
X114365718Y-68920648D01*
X114305200Y-69224896D01*
X114305200Y-69535104D01*
X114365718Y-69839352D01*
X114484430Y-70125948D01*
X114656773Y-70383877D01*
X114876123Y-70603227D01*
X114946124Y-70650000D01*
X114876123Y-70696773D01*
X114656773Y-70916123D01*
X114484430Y-71174052D01*
X114365718Y-71460648D01*
X114305200Y-71764896D01*
X114305200Y-72075104D01*
X114365718Y-72379352D01*
X114484430Y-72665948D01*
X114656773Y-72923877D01*
X114876123Y-73143227D01*
X114946124Y-73190000D01*
X114876123Y-73236773D01*
X114656773Y-73456123D01*
X114484430Y-73714052D01*
X114365718Y-74000648D01*
X114305200Y-74304896D01*
X114305200Y-74615104D01*
X114365718Y-74919352D01*
X114484430Y-75205948D01*
X114656773Y-75463877D01*
X114876123Y-75683227D01*
X114946124Y-75730000D01*
X114876123Y-75776773D01*
X114656773Y-75996123D01*
X114484430Y-76254052D01*
X114365718Y-76540648D01*
X114305200Y-76844896D01*
X114305200Y-77155104D01*
X114365718Y-77459352D01*
X114484430Y-77745948D01*
X114656773Y-78003877D01*
X114876123Y-78223227D01*
X114946124Y-78270000D01*
X114876123Y-78316773D01*
X114656773Y-78536123D01*
X114484430Y-78794052D01*
X114365718Y-79080648D01*
X114305200Y-79384896D01*
X114305200Y-79695104D01*
X114365718Y-79999352D01*
X114484430Y-80285948D01*
X114656773Y-80543877D01*
X114876123Y-80763227D01*
X114946124Y-80810000D01*
X114876123Y-80856773D01*
X114656773Y-81076123D01*
X114484430Y-81334052D01*
X114365718Y-81620648D01*
X114305200Y-81924896D01*
X114305200Y-82235104D01*
X114365718Y-82539352D01*
X114484430Y-82825948D01*
X114656773Y-83083877D01*
X114876123Y-83303227D01*
X114946124Y-83350000D01*
X114876123Y-83396773D01*
X114656773Y-83616123D01*
X114484430Y-83874052D01*
X114365718Y-84160648D01*
X114305200Y-84464896D01*
X114305200Y-84775104D01*
X114365718Y-85079352D01*
X114484430Y-85365948D01*
X114656773Y-85623877D01*
X114876123Y-85843227D01*
X114946124Y-85890000D01*
X114876123Y-85936773D01*
X114656773Y-86156123D01*
X114484430Y-86414052D01*
X114365718Y-86700648D01*
X114305200Y-87004896D01*
X114305200Y-87315104D01*
X114365718Y-87619352D01*
X114484430Y-87905948D01*
X114656773Y-88163877D01*
X114876123Y-88383227D01*
X114946124Y-88430000D01*
X114876123Y-88476773D01*
X114656773Y-88696123D01*
X114484430Y-88954052D01*
X114365718Y-89240648D01*
X114305200Y-89544896D01*
X114305200Y-89855104D01*
X114365718Y-90159352D01*
X114484430Y-90445948D01*
X114656773Y-90703877D01*
X114876123Y-90923227D01*
X114946124Y-90970000D01*
X114876123Y-91016773D01*
X114656773Y-91236123D01*
X114484430Y-91494052D01*
X114365718Y-91780648D01*
X114305200Y-92084896D01*
X114305200Y-92395104D01*
X114365718Y-92699352D01*
X114484430Y-92985948D01*
X114656773Y-93243877D01*
X114876123Y-93463227D01*
X115134052Y-93635570D01*
X115420648Y-93754282D01*
X115724896Y-93814800D01*
X116035104Y-93814800D01*
X116339352Y-93754282D01*
X116625948Y-93635570D01*
X116883877Y-93463227D01*
X117103227Y-93243877D01*
X117275570Y-92985948D01*
X117394282Y-92699352D01*
X117454800Y-92395104D01*
X117454800Y-92084896D01*
X117417757Y-91898665D01*
X119315000Y-91898665D01*
X119315000Y-92181335D01*
X119370147Y-92458574D01*
X119478320Y-92719727D01*
X119635363Y-92954759D01*
X119835241Y-93154637D01*
X120070273Y-93311680D01*
X120331426Y-93419853D01*
X120608665Y-93475000D01*
X120891335Y-93475000D01*
X121168574Y-93419853D01*
X121429727Y-93311680D01*
X121664759Y-93154637D01*
X121864637Y-92954759D01*
X122021680Y-92719727D01*
X122129853Y-92458574D01*
X122185000Y-92181335D01*
X122185000Y-92098665D01*
X124665000Y-92098665D01*
X124665000Y-92381335D01*
X124720147Y-92658574D01*
X124828320Y-92919727D01*
X124985363Y-93154759D01*
X125185241Y-93354637D01*
X125420273Y-93511680D01*
X125681426Y-93619853D01*
X125958665Y-93675000D01*
X126241335Y-93675000D01*
X126518574Y-93619853D01*
X126779727Y-93511680D01*
X127014759Y-93354637D01*
X127214637Y-93154759D01*
X127371680Y-92919727D01*
X127479853Y-92658574D01*
X127535000Y-92381335D01*
X127535000Y-92098665D01*
X127479853Y-91821426D01*
X127371680Y-91560273D01*
X127214637Y-91325241D01*
X127014759Y-91125363D01*
X126779727Y-90968320D01*
X126518574Y-90860147D01*
X126241335Y-90805000D01*
X125958665Y-90805000D01*
X125681426Y-90860147D01*
X125420273Y-90968320D01*
X125185241Y-91125363D01*
X124985363Y-91325241D01*
X124828320Y-91560273D01*
X124720147Y-91821426D01*
X124665000Y-92098665D01*
X122185000Y-92098665D01*
X122185000Y-91898665D01*
X122129853Y-91621426D01*
X122021680Y-91360273D01*
X121864637Y-91125241D01*
X121664759Y-90925363D01*
X121429727Y-90768320D01*
X121168574Y-90660147D01*
X120891335Y-90605000D01*
X120608665Y-90605000D01*
X120331426Y-90660147D01*
X120070273Y-90768320D01*
X119835241Y-90925363D01*
X119635363Y-91125241D01*
X119478320Y-91360273D01*
X119370147Y-91621426D01*
X119315000Y-91898665D01*
X117417757Y-91898665D01*
X117394282Y-91780648D01*
X117275570Y-91494052D01*
X117103227Y-91236123D01*
X116883877Y-91016773D01*
X116813876Y-90970000D01*
X116883877Y-90923227D01*
X117103227Y-90703877D01*
X117275570Y-90445948D01*
X117394282Y-90159352D01*
X117454800Y-89855104D01*
X117454800Y-89544896D01*
X117394282Y-89240648D01*
X117275570Y-88954052D01*
X117103227Y-88696123D01*
X116883877Y-88476773D01*
X116813876Y-88430000D01*
X116883877Y-88383227D01*
X117103227Y-88163877D01*
X117275570Y-87905948D01*
X117394282Y-87619352D01*
X117454800Y-87315104D01*
X117454800Y-87004896D01*
X117394282Y-86700648D01*
X117275570Y-86414052D01*
X117103227Y-86156123D01*
X116883877Y-85936773D01*
X116813876Y-85890000D01*
X116883877Y-85843227D01*
X117103227Y-85623877D01*
X117275570Y-85365948D01*
X117394282Y-85079352D01*
X117454800Y-84775104D01*
X117454800Y-84464896D01*
X117394282Y-84160648D01*
X117275570Y-83874052D01*
X117103227Y-83616123D01*
X116883877Y-83396773D01*
X116813876Y-83350000D01*
X116883877Y-83303227D01*
X117103227Y-83083877D01*
X117275570Y-82825948D01*
X117394282Y-82539352D01*
X117454800Y-82235104D01*
X117454800Y-81924896D01*
X117394282Y-81620648D01*
X117275570Y-81334052D01*
X117103227Y-81076123D01*
X116883877Y-80856773D01*
X116813876Y-80810000D01*
X116883877Y-80763227D01*
X117103227Y-80543877D01*
X117275570Y-80285948D01*
X117394282Y-79999352D01*
X117454800Y-79695104D01*
X117454800Y-79384896D01*
X117394282Y-79080648D01*
X117275570Y-78794052D01*
X117103227Y-78536123D01*
X116883877Y-78316773D01*
X116813876Y-78270000D01*
X116883877Y-78223227D01*
X117103227Y-78003877D01*
X117275570Y-77745948D01*
X117394282Y-77459352D01*
X117454800Y-77155104D01*
X117454800Y-76844896D01*
X117394282Y-76540648D01*
X117275570Y-76254052D01*
X117103227Y-75996123D01*
X116883877Y-75776773D01*
X116813876Y-75730000D01*
X116883877Y-75683227D01*
X117103227Y-75463877D01*
X117275570Y-75205948D01*
X117394282Y-74919352D01*
X117454800Y-74615104D01*
X117454800Y-74304896D01*
X117394282Y-74000648D01*
X117275570Y-73714052D01*
X117103227Y-73456123D01*
X116883877Y-73236773D01*
X116813876Y-73190000D01*
X116883877Y-73143227D01*
X117103227Y-72923877D01*
X117135119Y-72876146D01*
X126687700Y-72876146D01*
X126687700Y-73186354D01*
X126748218Y-73490602D01*
X126866930Y-73777198D01*
X127039273Y-74035127D01*
X127258623Y-74254477D01*
X127328624Y-74301250D01*
X127258623Y-74348023D01*
X127039273Y-74567373D01*
X126866930Y-74825302D01*
X126748218Y-75111898D01*
X126687700Y-75416146D01*
X126687700Y-75726354D01*
X126748218Y-76030602D01*
X126866930Y-76317198D01*
X127039273Y-76575127D01*
X127258623Y-76794477D01*
X127516552Y-76966820D01*
X127803148Y-77085532D01*
X128107396Y-77146050D01*
X128417604Y-77146050D01*
X128721852Y-77085532D01*
X129008448Y-76966820D01*
X129266377Y-76794477D01*
X129485727Y-76575127D01*
X129658070Y-76317198D01*
X129776782Y-76030602D01*
X129837300Y-75726354D01*
X129837300Y-75416146D01*
X129825610Y-75357374D01*
X129896773Y-75463877D01*
X130116123Y-75683227D01*
X130186124Y-75730000D01*
X130116123Y-75776773D01*
X129896773Y-75996123D01*
X129724430Y-76254052D01*
X129605718Y-76540648D01*
X129545200Y-76844896D01*
X129545200Y-77155104D01*
X129605718Y-77459352D01*
X129724430Y-77745948D01*
X129896773Y-78003877D01*
X130116123Y-78223227D01*
X130186124Y-78270000D01*
X130116123Y-78316773D01*
X129896773Y-78536123D01*
X129724430Y-78794052D01*
X129605718Y-79080648D01*
X129545200Y-79384896D01*
X129545200Y-79695104D01*
X129605718Y-79999352D01*
X129724430Y-80285948D01*
X129896773Y-80543877D01*
X130116123Y-80763227D01*
X130186124Y-80810000D01*
X130116123Y-80856773D01*
X129896773Y-81076123D01*
X129724430Y-81334052D01*
X129605718Y-81620648D01*
X129545200Y-81924896D01*
X129545200Y-82235104D01*
X129605718Y-82539352D01*
X129724430Y-82825948D01*
X129896773Y-83083877D01*
X130116123Y-83303227D01*
X130186124Y-83350000D01*
X130116123Y-83396773D01*
X129896773Y-83616123D01*
X129825610Y-83722626D01*
X129837300Y-83663854D01*
X129837300Y-83353646D01*
X129776782Y-83049398D01*
X129658070Y-82762802D01*
X129485727Y-82504873D01*
X129266377Y-82285523D01*
X129008448Y-82113180D01*
X128721852Y-81994468D01*
X128417604Y-81933950D01*
X128107396Y-81933950D01*
X127803148Y-81994468D01*
X127516552Y-82113180D01*
X127258623Y-82285523D01*
X127039273Y-82504873D01*
X126866930Y-82762802D01*
X126748218Y-83049398D01*
X126687700Y-83353646D01*
X126687700Y-83663854D01*
X126748218Y-83968102D01*
X126866930Y-84254698D01*
X127039273Y-84512627D01*
X127258623Y-84731977D01*
X127328624Y-84778750D01*
X127258623Y-84825523D01*
X127039273Y-85044873D01*
X126866930Y-85302802D01*
X126748218Y-85589398D01*
X126687700Y-85893646D01*
X126687700Y-86203854D01*
X126748218Y-86508102D01*
X126866930Y-86794698D01*
X127039273Y-87052627D01*
X127258623Y-87271977D01*
X127516552Y-87444320D01*
X127803148Y-87563032D01*
X128107396Y-87623550D01*
X128417604Y-87623550D01*
X128721852Y-87563032D01*
X129008448Y-87444320D01*
X129266377Y-87271977D01*
X129485727Y-87052627D01*
X129556890Y-86946124D01*
X129545200Y-87004896D01*
X129545200Y-87315104D01*
X129605718Y-87619352D01*
X129724430Y-87905948D01*
X129896773Y-88163877D01*
X130116123Y-88383227D01*
X130186124Y-88430000D01*
X130116123Y-88476773D01*
X129896773Y-88696123D01*
X129724430Y-88954052D01*
X129605718Y-89240648D01*
X129545200Y-89544896D01*
X129545200Y-89855104D01*
X129605718Y-90159352D01*
X129724430Y-90445948D01*
X129896773Y-90703877D01*
X130116123Y-90923227D01*
X130186124Y-90970000D01*
X130116123Y-91016773D01*
X129896773Y-91236123D01*
X129724430Y-91494052D01*
X129605718Y-91780648D01*
X129545200Y-92084896D01*
X129545200Y-92395104D01*
X129605718Y-92699352D01*
X129724430Y-92985948D01*
X129896773Y-93243877D01*
X130116123Y-93463227D01*
X130374052Y-93635570D01*
X130660648Y-93754282D01*
X130964896Y-93814800D01*
X131275104Y-93814800D01*
X131579352Y-93754282D01*
X131865948Y-93635570D01*
X132123877Y-93463227D01*
X132343227Y-93243877D01*
X132515570Y-92985948D01*
X132634282Y-92699352D01*
X132694800Y-92395104D01*
X132694800Y-92084896D01*
X132634282Y-91780648D01*
X132515570Y-91494052D01*
X132343227Y-91236123D01*
X132123877Y-91016773D01*
X132053876Y-90970000D01*
X132123877Y-90923227D01*
X132343227Y-90703877D01*
X132515570Y-90445948D01*
X132634282Y-90159352D01*
X132694800Y-89855104D01*
X132694800Y-89544896D01*
X132634282Y-89240648D01*
X132515570Y-88954052D01*
X132343227Y-88696123D01*
X132123877Y-88476773D01*
X132053876Y-88430000D01*
X132123877Y-88383227D01*
X132343227Y-88163877D01*
X132515570Y-87905948D01*
X132634282Y-87619352D01*
X132694800Y-87315104D01*
X132694800Y-87004896D01*
X132634282Y-86700648D01*
X132515570Y-86414052D01*
X132343227Y-86156123D01*
X132123877Y-85936773D01*
X132053876Y-85890000D01*
X132123877Y-85843227D01*
X132343227Y-85623877D01*
X132515570Y-85365948D01*
X132634282Y-85079352D01*
X132694800Y-84775104D01*
X132694800Y-84600000D01*
X138486928Y-84600000D01*
X138499188Y-84724482D01*
X138535498Y-84844180D01*
X138594463Y-84954494D01*
X138673815Y-85051185D01*
X138770506Y-85130537D01*
X138880820Y-85189502D01*
X139000518Y-85225812D01*
X139125000Y-85238072D01*
X139714250Y-85235000D01*
X139873000Y-85076250D01*
X139873000Y-84127000D01*
X140127000Y-84127000D01*
X140127000Y-85076250D01*
X140285750Y-85235000D01*
X140875000Y-85238072D01*
X140999482Y-85225812D01*
X141119180Y-85189502D01*
X141229494Y-85130537D01*
X141326185Y-85051185D01*
X141405537Y-84954494D01*
X141464502Y-84844180D01*
X141500812Y-84724482D01*
X141513072Y-84600000D01*
X141510000Y-84285750D01*
X141351250Y-84127000D01*
X140127000Y-84127000D01*
X139873000Y-84127000D01*
X138648750Y-84127000D01*
X138490000Y-84285750D01*
X138486928Y-84600000D01*
X132694800Y-84600000D01*
X132694800Y-84464896D01*
X132634282Y-84160648D01*
X132515570Y-83874052D01*
X132343227Y-83616123D01*
X132123877Y-83396773D01*
X132053876Y-83350000D01*
X132123877Y-83303227D01*
X132343227Y-83083877D01*
X132515570Y-82825948D01*
X132634282Y-82539352D01*
X132694800Y-82235104D01*
X132694800Y-81924896D01*
X132634282Y-81620648D01*
X132515570Y-81334052D01*
X132343227Y-81076123D01*
X132123877Y-80856773D01*
X132053876Y-80810000D01*
X132123877Y-80763227D01*
X132343227Y-80543877D01*
X132515570Y-80285948D01*
X132634013Y-80000000D01*
X138484025Y-80000000D01*
X138507870Y-80242102D01*
X138578489Y-80474901D01*
X138693167Y-80689449D01*
X138847498Y-80877502D01*
X138996762Y-81000000D01*
X138847498Y-81122498D01*
X138693167Y-81310551D01*
X138578489Y-81525099D01*
X138507870Y-81757898D01*
X138484025Y-82000000D01*
X138507870Y-82242102D01*
X138578489Y-82474901D01*
X138693167Y-82689449D01*
X138819436Y-82843309D01*
X138770506Y-82869463D01*
X138673815Y-82948815D01*
X138594463Y-83045506D01*
X138535498Y-83155820D01*
X138499188Y-83275518D01*
X138486928Y-83400000D01*
X138490000Y-83714250D01*
X138648750Y-83873000D01*
X139873000Y-83873000D01*
X139873000Y-83853000D01*
X140127000Y-83853000D01*
X140127000Y-83873000D01*
X141351250Y-83873000D01*
X141510000Y-83714250D01*
X141513072Y-83400000D01*
X141500812Y-83275518D01*
X141464502Y-83155820D01*
X141405537Y-83045506D01*
X141326185Y-82948815D01*
X141229494Y-82869463D01*
X141180564Y-82843309D01*
X141306833Y-82689449D01*
X141421511Y-82474901D01*
X141492130Y-82242102D01*
X141515975Y-82000000D01*
X141492130Y-81757898D01*
X141421511Y-81525099D01*
X141306833Y-81310551D01*
X141152502Y-81122498D01*
X141003238Y-81000000D01*
X141152502Y-80877502D01*
X141306833Y-80689449D01*
X141421511Y-80474901D01*
X141492130Y-80242102D01*
X141515975Y-80000000D01*
X141492130Y-79757898D01*
X141421511Y-79525099D01*
X141306833Y-79310551D01*
X141152502Y-79122498D01*
X140964449Y-78968167D01*
X140749901Y-78853489D01*
X140517102Y-78782870D01*
X140335665Y-78765000D01*
X139664335Y-78765000D01*
X139482898Y-78782870D01*
X139250099Y-78853489D01*
X139035551Y-78968167D01*
X138847498Y-79122498D01*
X138693167Y-79310551D01*
X138578489Y-79525099D01*
X138507870Y-79757898D01*
X138484025Y-80000000D01*
X132634013Y-80000000D01*
X132634282Y-79999352D01*
X132694800Y-79695104D01*
X132694800Y-79384896D01*
X132634282Y-79080648D01*
X132515570Y-78794052D01*
X132343227Y-78536123D01*
X132123877Y-78316773D01*
X132053876Y-78270000D01*
X132123877Y-78223227D01*
X132343227Y-78003877D01*
X132515570Y-77745948D01*
X132634282Y-77459352D01*
X132694800Y-77155104D01*
X132694800Y-76844896D01*
X132634282Y-76540648D01*
X132515570Y-76254052D01*
X132343227Y-75996123D01*
X132123877Y-75776773D01*
X132053876Y-75730000D01*
X132123877Y-75683227D01*
X132343227Y-75463877D01*
X132515570Y-75205948D01*
X132634282Y-74919352D01*
X132694800Y-74615104D01*
X132694800Y-74304896D01*
X132634282Y-74000648D01*
X132515570Y-73714052D01*
X132343227Y-73456123D01*
X132123877Y-73236773D01*
X131987286Y-73145505D01*
X132032871Y-73012476D01*
X131120000Y-72099605D01*
X130207129Y-73012476D01*
X130252714Y-73145505D01*
X130116123Y-73236773D01*
X129896773Y-73456123D01*
X129724430Y-73714052D01*
X129605718Y-74000648D01*
X129545200Y-74304896D01*
X129545200Y-74615104D01*
X129556890Y-74673876D01*
X129485727Y-74567373D01*
X129266377Y-74348023D01*
X129196376Y-74301250D01*
X129266377Y-74254477D01*
X129485727Y-74035127D01*
X129658070Y-73777198D01*
X129776782Y-73490602D01*
X129837300Y-73186354D01*
X129837300Y-72876146D01*
X129814148Y-72759753D01*
X130027524Y-72832871D01*
X130940395Y-71920000D01*
X131299605Y-71920000D01*
X132212476Y-72832871D01*
X132470723Y-72744377D01*
X132605597Y-72465024D01*
X132683381Y-72164725D01*
X132701084Y-71855023D01*
X132658027Y-71547816D01*
X132555865Y-71254914D01*
X132470723Y-71095623D01*
X132212476Y-71007129D01*
X131299605Y-71920000D01*
X130940395Y-71920000D01*
X130027524Y-71007129D01*
X129769277Y-71095623D01*
X129634403Y-71374976D01*
X129556619Y-71675275D01*
X129538916Y-71984977D01*
X129560554Y-72139359D01*
X129485727Y-72027373D01*
X129266377Y-71808023D01*
X129008448Y-71635680D01*
X128721852Y-71516968D01*
X128417604Y-71456450D01*
X128107396Y-71456450D01*
X127803148Y-71516968D01*
X127516552Y-71635680D01*
X127258623Y-71808023D01*
X127039273Y-72027373D01*
X126866930Y-72285302D01*
X126748218Y-72571898D01*
X126687700Y-72876146D01*
X117135119Y-72876146D01*
X117275570Y-72665948D01*
X117394282Y-72379352D01*
X117454800Y-72075104D01*
X117454800Y-71764896D01*
X117394282Y-71460648D01*
X117275570Y-71174052D01*
X117103227Y-70916123D01*
X116883877Y-70696773D01*
X116813876Y-70650000D01*
X116883877Y-70603227D01*
X117103227Y-70383877D01*
X117275570Y-70125948D01*
X117394282Y-69839352D01*
X117454800Y-69535104D01*
X117454800Y-69224896D01*
X117394282Y-68920648D01*
X117275570Y-68634052D01*
X117103227Y-68376123D01*
X116883877Y-68156773D01*
X116813876Y-68110000D01*
X116883877Y-68063227D01*
X117103227Y-67843877D01*
X117275570Y-67585948D01*
X117394282Y-67299352D01*
X117454800Y-66995104D01*
X117454800Y-66684896D01*
X117394282Y-66380648D01*
X117275570Y-66094052D01*
X117103227Y-65836123D01*
X116883877Y-65616773D01*
X116813876Y-65570000D01*
X116883877Y-65523227D01*
X117103227Y-65303877D01*
X117275570Y-65045948D01*
X117394282Y-64759352D01*
X117454800Y-64455104D01*
X117454800Y-64144896D01*
X117394282Y-63840648D01*
X117275570Y-63554052D01*
X117129070Y-63334800D01*
X117305104Y-63334800D01*
X117609352Y-63274282D01*
X117895948Y-63155570D01*
X118153877Y-62983227D01*
X118373227Y-62763877D01*
X118420000Y-62693876D01*
X118466773Y-62763877D01*
X118686123Y-62983227D01*
X118944052Y-63155570D01*
X119230648Y-63274282D01*
X119534896Y-63334800D01*
X119845104Y-63334800D01*
X120149352Y-63274282D01*
X120435948Y-63155570D01*
X120693877Y-62983227D01*
X120913227Y-62763877D01*
X120960000Y-62693876D01*
X121006773Y-62763877D01*
X121226123Y-62983227D01*
X121484052Y-63155570D01*
X121770648Y-63274282D01*
X122074896Y-63334800D01*
X122385104Y-63334800D01*
X122689352Y-63274282D01*
X122975948Y-63155570D01*
X123233877Y-62983227D01*
X123453227Y-62763877D01*
X123500000Y-62693876D01*
X123546773Y-62763877D01*
X123766123Y-62983227D01*
X124024052Y-63155570D01*
X124310648Y-63274282D01*
X124614896Y-63334800D01*
X124925104Y-63334800D01*
X125229352Y-63274282D01*
X125515948Y-63155570D01*
X125773877Y-62983227D01*
X125993227Y-62763877D01*
X126040000Y-62693876D01*
X126086773Y-62763877D01*
X126306123Y-62983227D01*
X126564052Y-63155570D01*
X126850648Y-63274282D01*
X127154896Y-63334800D01*
X127465104Y-63334800D01*
X127769352Y-63274282D01*
X128055948Y-63155570D01*
X128313877Y-62983227D01*
X128533227Y-62763877D01*
X128580000Y-62693876D01*
X128626773Y-62763877D01*
X128846123Y-62983227D01*
X129104052Y-63155570D01*
X129390648Y-63274282D01*
X129694896Y-63334800D01*
X129870930Y-63334800D01*
X129724430Y-63554052D01*
X129605718Y-63840648D01*
X129545200Y-64144896D01*
X129545200Y-64455104D01*
X129605718Y-64759352D01*
X129724430Y-65045948D01*
X129896773Y-65303877D01*
X130116123Y-65523227D01*
X130186124Y-65570000D01*
X130116123Y-65616773D01*
X129896773Y-65836123D01*
X129724430Y-66094052D01*
X129605718Y-66380648D01*
X129545200Y-66684896D01*
X129545200Y-66995104D01*
X129605718Y-67299352D01*
X129724430Y-67585948D01*
X129896773Y-67843877D01*
X130116123Y-68063227D01*
X130186124Y-68110000D01*
X130116123Y-68156773D01*
X129896773Y-68376123D01*
X129724430Y-68634052D01*
X129605718Y-68920648D01*
X129545200Y-69224896D01*
X129545200Y-69535104D01*
X129605718Y-69839352D01*
X129724430Y-70125948D01*
X129896773Y-70383877D01*
X130116123Y-70603227D01*
X130252714Y-70694495D01*
X130207129Y-70827524D01*
X131120000Y-71740395D01*
X132032871Y-70827524D01*
X131987286Y-70694495D01*
X132123877Y-70603227D01*
X132343227Y-70383877D01*
X132515570Y-70125948D01*
X132634282Y-69839352D01*
X132694800Y-69535104D01*
X132694800Y-69224896D01*
X132634282Y-68920648D01*
X132515570Y-68634052D01*
X132343227Y-68376123D01*
X132123877Y-68156773D01*
X132053876Y-68110000D01*
X132123877Y-68063227D01*
X132343227Y-67843877D01*
X132515570Y-67585948D01*
X132634282Y-67299352D01*
X132694800Y-66995104D01*
X132694800Y-66684896D01*
X132634282Y-66380648D01*
X132515570Y-66094052D01*
X132343227Y-65836123D01*
X132123877Y-65616773D01*
X132053876Y-65570000D01*
X132123877Y-65523227D01*
X132343227Y-65303877D01*
X132515570Y-65045948D01*
X132634282Y-64759352D01*
X132694800Y-64455104D01*
X132694800Y-64144896D01*
X132634282Y-63840648D01*
X132515570Y-63554052D01*
X132343227Y-63296123D01*
X132123877Y-63076773D01*
X131865948Y-62904430D01*
X131579352Y-62785718D01*
X131275104Y-62725200D01*
X131099070Y-62725200D01*
X131245570Y-62505948D01*
X131364282Y-62219352D01*
X131424800Y-61915104D01*
X131424800Y-61604896D01*
X131364282Y-61300648D01*
X131245570Y-61014052D01*
X131073227Y-60756123D01*
X131027104Y-60710000D01*
X141965271Y-60710000D01*
X142152785Y-60728386D01*
X142299748Y-60772757D01*
X142435297Y-60844829D01*
X142554258Y-60941852D01*
X142652118Y-61060144D01*
X142725132Y-61195181D01*
X142770529Y-61341833D01*
X142790001Y-61527101D01*
X142790000Y-115465271D01*
X142771614Y-115652784D01*
X142727243Y-115799748D01*
X142655171Y-115935297D01*
X142558148Y-116054258D01*
X142439856Y-116152118D01*
X142304819Y-116225132D01*
X142158167Y-116270529D01*
X141972908Y-116290000D01*
X105034729Y-116290000D01*
X104847216Y-116271614D01*
X104700252Y-116227243D01*
X104564703Y-116155171D01*
X104445742Y-116058148D01*
X104347882Y-115939856D01*
X104274868Y-115804819D01*
X104229471Y-115658167D01*
X104210000Y-115472908D01*
X104210000Y-113000000D01*
X105484025Y-113000000D01*
X105507870Y-113242102D01*
X105578489Y-113474901D01*
X105693167Y-113689449D01*
X105847498Y-113877502D01*
X106035551Y-114031833D01*
X106250099Y-114146511D01*
X106482898Y-114217130D01*
X106664335Y-114235000D01*
X107335665Y-114235000D01*
X107517102Y-114217130D01*
X107749901Y-114146511D01*
X107964449Y-114031833D01*
X108152502Y-113877502D01*
X108306833Y-113689449D01*
X108421511Y-113474901D01*
X108492130Y-113242102D01*
X108515975Y-113000000D01*
X108492130Y-112757898D01*
X108421511Y-112525099D01*
X108306833Y-112310551D01*
X108152502Y-112122498D01*
X108113889Y-112090809D01*
X108118387Y-112088405D01*
X108252962Y-111977962D01*
X108363405Y-111843387D01*
X108445472Y-111689851D01*
X108496008Y-111523255D01*
X108513072Y-111350001D01*
X108513072Y-110649999D01*
X108496008Y-110476745D01*
X108445472Y-110310149D01*
X108363405Y-110156613D01*
X108252962Y-110022038D01*
X108118387Y-109911595D01*
X107964851Y-109829528D01*
X107798255Y-109778992D01*
X107625001Y-109761928D01*
X106374999Y-109761928D01*
X106201745Y-109778992D01*
X106035149Y-109829528D01*
X105881613Y-109911595D01*
X105747038Y-110022038D01*
X105636595Y-110156613D01*
X105554528Y-110310149D01*
X105503992Y-110476745D01*
X105486928Y-110649999D01*
X105486928Y-111350001D01*
X105503992Y-111523255D01*
X105554528Y-111689851D01*
X105636595Y-111843387D01*
X105747038Y-111977962D01*
X105881613Y-112088405D01*
X105886111Y-112090809D01*
X105847498Y-112122498D01*
X105693167Y-112310551D01*
X105578489Y-112525099D01*
X105507870Y-112757898D01*
X105484025Y-113000000D01*
X104210000Y-113000000D01*
X104210000Y-97764000D01*
X113190928Y-97764000D01*
X113203188Y-97888482D01*
X113239498Y-98008180D01*
X113298463Y-98118494D01*
X113377815Y-98215185D01*
X113474506Y-98294537D01*
X113584820Y-98353502D01*
X113704518Y-98389812D01*
X113829000Y-98402072D01*
X114163592Y-98399281D01*
X114107013Y-98410535D01*
X113872430Y-98507703D01*
X113661310Y-98648768D01*
X113481768Y-98828310D01*
X113340703Y-99039430D01*
X113243535Y-99274013D01*
X113194000Y-99523045D01*
X113194000Y-99776955D01*
X113243535Y-100025987D01*
X113340703Y-100260570D01*
X113481768Y-100471690D01*
X113661310Y-100651232D01*
X113872430Y-100792297D01*
X114107013Y-100889465D01*
X114260524Y-100920000D01*
X114107013Y-100950535D01*
X113872430Y-101047703D01*
X113661310Y-101188768D01*
X113481768Y-101368310D01*
X113340703Y-101579430D01*
X113243535Y-101814013D01*
X113194000Y-102063045D01*
X113194000Y-102316955D01*
X113243535Y-102565987D01*
X113340703Y-102800570D01*
X113481768Y-103011690D01*
X113661310Y-103191232D01*
X113872430Y-103332297D01*
X114107013Y-103429465D01*
X114260524Y-103460000D01*
X114107013Y-103490535D01*
X113872430Y-103587703D01*
X113661310Y-103728768D01*
X113481768Y-103908310D01*
X113340703Y-104119430D01*
X113243535Y-104354013D01*
X113194000Y-104603045D01*
X113194000Y-104856955D01*
X113243535Y-105105987D01*
X113340703Y-105340570D01*
X113481768Y-105551690D01*
X113661310Y-105731232D01*
X113872430Y-105872297D01*
X114107013Y-105969465D01*
X114260524Y-106000000D01*
X114107013Y-106030535D01*
X113872430Y-106127703D01*
X113661310Y-106268768D01*
X113481768Y-106448310D01*
X113340703Y-106659430D01*
X113243535Y-106894013D01*
X113194000Y-107143045D01*
X113194000Y-107396955D01*
X113243535Y-107645987D01*
X113340703Y-107880570D01*
X113481768Y-108091690D01*
X113661310Y-108271232D01*
X113872430Y-108412297D01*
X114107013Y-108509465D01*
X114260524Y-108540000D01*
X114107013Y-108570535D01*
X113872430Y-108667703D01*
X113661310Y-108808768D01*
X113481768Y-108988310D01*
X113340703Y-109199430D01*
X113243535Y-109434013D01*
X113194000Y-109683045D01*
X113194000Y-109936955D01*
X113243535Y-110185987D01*
X113340703Y-110420570D01*
X113481768Y-110631690D01*
X113661310Y-110811232D01*
X113872430Y-110952297D01*
X114107013Y-111049465D01*
X114260524Y-111080000D01*
X114107013Y-111110535D01*
X113872430Y-111207703D01*
X113661310Y-111348768D01*
X113481768Y-111528310D01*
X113340703Y-111739430D01*
X113243535Y-111974013D01*
X113194000Y-112223045D01*
X113194000Y-112476955D01*
X113243535Y-112725987D01*
X113340703Y-112960570D01*
X113481768Y-113171690D01*
X113661310Y-113351232D01*
X113872430Y-113492297D01*
X114107013Y-113589465D01*
X114260524Y-113620000D01*
X114107013Y-113650535D01*
X113872430Y-113747703D01*
X113661310Y-113888768D01*
X113481768Y-114068310D01*
X113340703Y-114279430D01*
X113243535Y-114514013D01*
X113194000Y-114763045D01*
X113194000Y-115016955D01*
X113243535Y-115265987D01*
X113340703Y-115500570D01*
X113481768Y-115711690D01*
X113661310Y-115891232D01*
X113872430Y-116032297D01*
X114107013Y-116129465D01*
X114356045Y-116179000D01*
X114609955Y-116179000D01*
X114858987Y-116129465D01*
X115093570Y-116032297D01*
X115304690Y-115891232D01*
X115484232Y-115711690D01*
X115625297Y-115500570D01*
X115722465Y-115265987D01*
X115772000Y-115016955D01*
X115772000Y-114763045D01*
X115722465Y-114514013D01*
X115625297Y-114279430D01*
X115484232Y-114068310D01*
X115304690Y-113888768D01*
X115093570Y-113747703D01*
X114858987Y-113650535D01*
X114705476Y-113620000D01*
X114858987Y-113589465D01*
X115093570Y-113492297D01*
X115304690Y-113351232D01*
X115484232Y-113171690D01*
X115625297Y-112960570D01*
X115722465Y-112725987D01*
X115772000Y-112476955D01*
X115772000Y-112223045D01*
X115722465Y-111974013D01*
X115625297Y-111739430D01*
X115484232Y-111528310D01*
X115304690Y-111348768D01*
X115093570Y-111207703D01*
X114858987Y-111110535D01*
X114705476Y-111080000D01*
X114858987Y-111049465D01*
X115093570Y-110952297D01*
X115304690Y-110811232D01*
X115484232Y-110631690D01*
X115625297Y-110420570D01*
X115722465Y-110185987D01*
X115772000Y-109936955D01*
X115772000Y-109683045D01*
X115722465Y-109434013D01*
X115625297Y-109199430D01*
X115484232Y-108988310D01*
X115304690Y-108808768D01*
X115093570Y-108667703D01*
X114858987Y-108570535D01*
X114705476Y-108540000D01*
X114858987Y-108509465D01*
X115093570Y-108412297D01*
X115304690Y-108271232D01*
X115484232Y-108091690D01*
X115625297Y-107880570D01*
X115722465Y-107645987D01*
X115772000Y-107396955D01*
X115772000Y-107143045D01*
X115722465Y-106894013D01*
X115625297Y-106659430D01*
X115484232Y-106448310D01*
X115304690Y-106268768D01*
X115093570Y-106127703D01*
X114858987Y-106030535D01*
X114705476Y-106000000D01*
X114858987Y-105969465D01*
X115093570Y-105872297D01*
X115304690Y-105731232D01*
X115484232Y-105551690D01*
X115625297Y-105340570D01*
X115722465Y-105105987D01*
X115772000Y-104856955D01*
X115772000Y-104603045D01*
X115722465Y-104354013D01*
X115625297Y-104119430D01*
X115484232Y-103908310D01*
X115304690Y-103728768D01*
X115093570Y-103587703D01*
X114858987Y-103490535D01*
X114705476Y-103460000D01*
X114858987Y-103429465D01*
X115093570Y-103332297D01*
X115304690Y-103191232D01*
X115484232Y-103011690D01*
X115625297Y-102800570D01*
X115722465Y-102565987D01*
X115772000Y-102316955D01*
X115772000Y-102063045D01*
X115771129Y-102058665D01*
X119315000Y-102058665D01*
X119315000Y-102341335D01*
X119370147Y-102618574D01*
X119478320Y-102879727D01*
X119635363Y-103114759D01*
X119835241Y-103314637D01*
X120070273Y-103471680D01*
X120331426Y-103579853D01*
X120608665Y-103635000D01*
X120891335Y-103635000D01*
X121168574Y-103579853D01*
X121429727Y-103471680D01*
X121664759Y-103314637D01*
X121864637Y-103114759D01*
X122021680Y-102879727D01*
X122129853Y-102618574D01*
X122185000Y-102341335D01*
X122185000Y-102258665D01*
X124665000Y-102258665D01*
X124665000Y-102541335D01*
X124720147Y-102818574D01*
X124828320Y-103079727D01*
X124985363Y-103314759D01*
X125185241Y-103514637D01*
X125420273Y-103671680D01*
X125681426Y-103779853D01*
X125958665Y-103835000D01*
X126241335Y-103835000D01*
X126518574Y-103779853D01*
X126779727Y-103671680D01*
X127014759Y-103514637D01*
X127214637Y-103314759D01*
X127371680Y-103079727D01*
X127479853Y-102818574D01*
X127535000Y-102541335D01*
X127535000Y-102258665D01*
X127479853Y-101981426D01*
X127371680Y-101720273D01*
X127214637Y-101485241D01*
X127014759Y-101285363D01*
X126779727Y-101128320D01*
X126518574Y-101020147D01*
X126241335Y-100965000D01*
X125958665Y-100965000D01*
X125681426Y-101020147D01*
X125420273Y-101128320D01*
X125185241Y-101285363D01*
X124985363Y-101485241D01*
X124828320Y-101720273D01*
X124720147Y-101981426D01*
X124665000Y-102258665D01*
X122185000Y-102258665D01*
X122185000Y-102058665D01*
X122129853Y-101781426D01*
X122021680Y-101520273D01*
X121864637Y-101285241D01*
X121664759Y-101085363D01*
X121429727Y-100928320D01*
X121168574Y-100820147D01*
X120891335Y-100765000D01*
X120608665Y-100765000D01*
X120331426Y-100820147D01*
X120070273Y-100928320D01*
X119835241Y-101085363D01*
X119635363Y-101285241D01*
X119478320Y-101520273D01*
X119370147Y-101781426D01*
X119315000Y-102058665D01*
X115771129Y-102058665D01*
X115722465Y-101814013D01*
X115625297Y-101579430D01*
X115484232Y-101368310D01*
X115304690Y-101188768D01*
X115093570Y-101047703D01*
X114858987Y-100950535D01*
X114705476Y-100920000D01*
X114858987Y-100889465D01*
X115093570Y-100792297D01*
X115304690Y-100651232D01*
X115484232Y-100471690D01*
X115625297Y-100260570D01*
X115722465Y-100025987D01*
X115772000Y-99776955D01*
X115772000Y-99523045D01*
X115722465Y-99274013D01*
X115625297Y-99039430D01*
X115484232Y-98828310D01*
X115304690Y-98648768D01*
X115093570Y-98507703D01*
X114858987Y-98410535D01*
X114802408Y-98399281D01*
X115137000Y-98402072D01*
X115261482Y-98389812D01*
X115381180Y-98353502D01*
X115491494Y-98294537D01*
X115588185Y-98215185D01*
X115667537Y-98118494D01*
X115726502Y-98008180D01*
X115762812Y-97888482D01*
X115775072Y-97764000D01*
X115772000Y-97395750D01*
X115613250Y-97237000D01*
X114610000Y-97237000D01*
X114610000Y-97257000D01*
X114356000Y-97257000D01*
X114356000Y-97237000D01*
X113352750Y-97237000D01*
X113194000Y-97395750D01*
X113190928Y-97764000D01*
X104210000Y-97764000D01*
X104210000Y-96983045D01*
X131228000Y-96983045D01*
X131228000Y-97236955D01*
X131277535Y-97485987D01*
X131374703Y-97720570D01*
X131515768Y-97931690D01*
X131695310Y-98111232D01*
X131906430Y-98252297D01*
X132141013Y-98349465D01*
X132294524Y-98380000D01*
X132141013Y-98410535D01*
X131906430Y-98507703D01*
X131695310Y-98648768D01*
X131515768Y-98828310D01*
X131374703Y-99039430D01*
X131277535Y-99274013D01*
X131228000Y-99523045D01*
X131228000Y-99776955D01*
X131277535Y-100025987D01*
X131374703Y-100260570D01*
X131515768Y-100471690D01*
X131695310Y-100651232D01*
X131906430Y-100792297D01*
X132141013Y-100889465D01*
X132294524Y-100920000D01*
X132141013Y-100950535D01*
X131906430Y-101047703D01*
X131695310Y-101188768D01*
X131515768Y-101368310D01*
X131374703Y-101579430D01*
X131277535Y-101814013D01*
X131228000Y-102063045D01*
X131228000Y-102316955D01*
X131277535Y-102565987D01*
X131374703Y-102800570D01*
X131515768Y-103011690D01*
X131695310Y-103191232D01*
X131906430Y-103332297D01*
X132141013Y-103429465D01*
X132294524Y-103460000D01*
X132141013Y-103490535D01*
X131906430Y-103587703D01*
X131695310Y-103728768D01*
X131515768Y-103908310D01*
X131374703Y-104119430D01*
X131277535Y-104354013D01*
X131228000Y-104603045D01*
X131228000Y-104856955D01*
X131277535Y-105105987D01*
X131374703Y-105340570D01*
X131515768Y-105551690D01*
X131695310Y-105731232D01*
X131906430Y-105872297D01*
X132141013Y-105969465D01*
X132294524Y-106000000D01*
X132141013Y-106030535D01*
X131906430Y-106127703D01*
X131695310Y-106268768D01*
X131515768Y-106448310D01*
X131374703Y-106659430D01*
X131277535Y-106894013D01*
X131228000Y-107143045D01*
X131228000Y-107396955D01*
X131277535Y-107645987D01*
X131374703Y-107880570D01*
X131515768Y-108091690D01*
X131695310Y-108271232D01*
X131906430Y-108412297D01*
X132141013Y-108509465D01*
X132294524Y-108540000D01*
X132141013Y-108570535D01*
X131906430Y-108667703D01*
X131695310Y-108808768D01*
X131515768Y-108988310D01*
X131374703Y-109199430D01*
X131277535Y-109434013D01*
X131228000Y-109683045D01*
X131228000Y-109936955D01*
X131277535Y-110185987D01*
X131374703Y-110420570D01*
X131515768Y-110631690D01*
X131695310Y-110811232D01*
X131906430Y-110952297D01*
X132141013Y-111049465D01*
X132294524Y-111080000D01*
X132141013Y-111110535D01*
X131906430Y-111207703D01*
X131695310Y-111348768D01*
X131515768Y-111528310D01*
X131374703Y-111739430D01*
X131277535Y-111974013D01*
X131228000Y-112223045D01*
X131228000Y-112476955D01*
X131277535Y-112725987D01*
X131374703Y-112960570D01*
X131515768Y-113171690D01*
X131695310Y-113351232D01*
X131906430Y-113492297D01*
X132141013Y-113589465D01*
X132294524Y-113620000D01*
X132141013Y-113650535D01*
X131906430Y-113747703D01*
X131695310Y-113888768D01*
X131515768Y-114068310D01*
X131374703Y-114279430D01*
X131277535Y-114514013D01*
X131228000Y-114763045D01*
X131228000Y-115016955D01*
X131277535Y-115265987D01*
X131374703Y-115500570D01*
X131515768Y-115711690D01*
X131695310Y-115891232D01*
X131906430Y-116032297D01*
X132141013Y-116129465D01*
X132390045Y-116179000D01*
X132643955Y-116179000D01*
X132892987Y-116129465D01*
X133127570Y-116032297D01*
X133338690Y-115891232D01*
X133518232Y-115711690D01*
X133659297Y-115500570D01*
X133756465Y-115265987D01*
X133806000Y-115016955D01*
X133806000Y-114763045D01*
X133756465Y-114514013D01*
X133659297Y-114279430D01*
X133518232Y-114068310D01*
X133338690Y-113888768D01*
X133127570Y-113747703D01*
X132892987Y-113650535D01*
X132739476Y-113620000D01*
X132892987Y-113589465D01*
X133127570Y-113492297D01*
X133338690Y-113351232D01*
X133518232Y-113171690D01*
X133659297Y-112960570D01*
X133756465Y-112725987D01*
X133806000Y-112476955D01*
X133806000Y-112223045D01*
X133756465Y-111974013D01*
X133659297Y-111739430D01*
X133518232Y-111528310D01*
X133338690Y-111348768D01*
X133127570Y-111207703D01*
X132892987Y-111110535D01*
X132739476Y-111080000D01*
X132892987Y-111049465D01*
X133127570Y-110952297D01*
X133338690Y-110811232D01*
X133518232Y-110631690D01*
X133659297Y-110420570D01*
X133756465Y-110185987D01*
X133806000Y-109936955D01*
X133806000Y-109683045D01*
X133756465Y-109434013D01*
X133659297Y-109199430D01*
X133518232Y-108988310D01*
X133338690Y-108808768D01*
X133127570Y-108667703D01*
X132892987Y-108570535D01*
X132739476Y-108540000D01*
X132892987Y-108509465D01*
X133127570Y-108412297D01*
X133338690Y-108271232D01*
X133518232Y-108091690D01*
X133659297Y-107880570D01*
X133756465Y-107645987D01*
X133806000Y-107396955D01*
X133806000Y-107143045D01*
X133756465Y-106894013D01*
X133659297Y-106659430D01*
X133518232Y-106448310D01*
X133338690Y-106268768D01*
X133127570Y-106127703D01*
X132892987Y-106030535D01*
X132739476Y-106000000D01*
X132892987Y-105969465D01*
X133127570Y-105872297D01*
X133338690Y-105731232D01*
X133518232Y-105551690D01*
X133659297Y-105340570D01*
X133756465Y-105105987D01*
X133806000Y-104856955D01*
X133806000Y-104603045D01*
X133756465Y-104354013D01*
X133659297Y-104119430D01*
X133518232Y-103908310D01*
X133338690Y-103728768D01*
X133127570Y-103587703D01*
X132892987Y-103490535D01*
X132739476Y-103460000D01*
X132892987Y-103429465D01*
X133127570Y-103332297D01*
X133338690Y-103191232D01*
X133518232Y-103011690D01*
X133659297Y-102800570D01*
X133756465Y-102565987D01*
X133806000Y-102316955D01*
X133806000Y-102063045D01*
X133756465Y-101814013D01*
X133659297Y-101579430D01*
X133518232Y-101368310D01*
X133338690Y-101188768D01*
X133127570Y-101047703D01*
X132892987Y-100950535D01*
X132739476Y-100920000D01*
X132892987Y-100889465D01*
X133127570Y-100792297D01*
X133338690Y-100651232D01*
X133518232Y-100471690D01*
X133659297Y-100260570D01*
X133756465Y-100025987D01*
X133806000Y-99776955D01*
X133806000Y-99523045D01*
X133756465Y-99274013D01*
X133659297Y-99039430D01*
X133518232Y-98828310D01*
X133338690Y-98648768D01*
X133127570Y-98507703D01*
X132892987Y-98410535D01*
X132739476Y-98380000D01*
X132892987Y-98349465D01*
X133127570Y-98252297D01*
X133338690Y-98111232D01*
X133518232Y-97931690D01*
X133659297Y-97720570D01*
X133756465Y-97485987D01*
X133806000Y-97236955D01*
X133806000Y-96983045D01*
X133756465Y-96734013D01*
X133659297Y-96499430D01*
X133518232Y-96288310D01*
X133338690Y-96108768D01*
X133127570Y-95967703D01*
X132892987Y-95870535D01*
X132643955Y-95821000D01*
X132390045Y-95821000D01*
X132141013Y-95870535D01*
X131906430Y-95967703D01*
X131695310Y-96108768D01*
X131515768Y-96288310D01*
X131374703Y-96499430D01*
X131277535Y-96734013D01*
X131228000Y-96983045D01*
X104210000Y-96983045D01*
X104210000Y-96456000D01*
X113190928Y-96456000D01*
X113194000Y-96824250D01*
X113352750Y-96983000D01*
X114356000Y-96983000D01*
X114356000Y-95979750D01*
X114610000Y-95979750D01*
X114610000Y-96983000D01*
X115613250Y-96983000D01*
X115772000Y-96824250D01*
X115775072Y-96456000D01*
X115762812Y-96331518D01*
X115726502Y-96211820D01*
X115667537Y-96101506D01*
X115588185Y-96004815D01*
X115491494Y-95925463D01*
X115381180Y-95866498D01*
X115261482Y-95830188D01*
X115137000Y-95817928D01*
X114768750Y-95821000D01*
X114610000Y-95979750D01*
X114356000Y-95979750D01*
X114197250Y-95821000D01*
X113829000Y-95817928D01*
X113704518Y-95830188D01*
X113584820Y-95866498D01*
X113474506Y-95925463D01*
X113377815Y-96004815D01*
X113298463Y-96101506D01*
X113239498Y-96211820D01*
X113203188Y-96331518D01*
X113190928Y-96456000D01*
X104210000Y-96456000D01*
X104210000Y-94000000D01*
X105484025Y-94000000D01*
X105507870Y-94242102D01*
X105578489Y-94474901D01*
X105693167Y-94689449D01*
X105847498Y-94877502D01*
X106035551Y-95031833D01*
X106250099Y-95146511D01*
X106482898Y-95217130D01*
X106664335Y-95235000D01*
X107335665Y-95235000D01*
X107517102Y-95217130D01*
X107749901Y-95146511D01*
X107964449Y-95031833D01*
X108152502Y-94877502D01*
X108306833Y-94689449D01*
X108421511Y-94474901D01*
X108492130Y-94242102D01*
X108515975Y-94000000D01*
X108492130Y-93757898D01*
X108421511Y-93525099D01*
X108306833Y-93310551D01*
X108152502Y-93122498D01*
X108113889Y-93090809D01*
X108118387Y-93088405D01*
X108252962Y-92977962D01*
X108363405Y-92843387D01*
X108445472Y-92689851D01*
X108496008Y-92523255D01*
X108513072Y-92350001D01*
X108513072Y-91649999D01*
X108496008Y-91476745D01*
X108445472Y-91310149D01*
X108363405Y-91156613D01*
X108252962Y-91022038D01*
X108118387Y-90911595D01*
X107964851Y-90829528D01*
X107798255Y-90778992D01*
X107625001Y-90761928D01*
X106374999Y-90761928D01*
X106201745Y-90778992D01*
X106035149Y-90829528D01*
X105881613Y-90911595D01*
X105747038Y-91022038D01*
X105636595Y-91156613D01*
X105554528Y-91310149D01*
X105503992Y-91476745D01*
X105486928Y-91649999D01*
X105486928Y-92350001D01*
X105503992Y-92523255D01*
X105554528Y-92689851D01*
X105636595Y-92843387D01*
X105747038Y-92977962D01*
X105881613Y-93088405D01*
X105886111Y-93090809D01*
X105847498Y-93122498D01*
X105693167Y-93310551D01*
X105578489Y-93525099D01*
X105507870Y-93757898D01*
X105484025Y-94000000D01*
X104210000Y-94000000D01*
X104210000Y-85000000D01*
X105484025Y-85000000D01*
X105507870Y-85242102D01*
X105578489Y-85474901D01*
X105693167Y-85689449D01*
X105847498Y-85877502D01*
X105996762Y-86000000D01*
X105847498Y-86122498D01*
X105693167Y-86310551D01*
X105578489Y-86525099D01*
X105507870Y-86757898D01*
X105484025Y-87000000D01*
X105507870Y-87242102D01*
X105578489Y-87474901D01*
X105693167Y-87689449D01*
X105847498Y-87877502D01*
X106035551Y-88031833D01*
X106250099Y-88146511D01*
X106482898Y-88217130D01*
X106664335Y-88235000D01*
X107335665Y-88235000D01*
X107517102Y-88217130D01*
X107749901Y-88146511D01*
X107964449Y-88031833D01*
X108152502Y-87877502D01*
X108306833Y-87689449D01*
X108421511Y-87474901D01*
X108492130Y-87242102D01*
X108515975Y-87000000D01*
X108492130Y-86757898D01*
X108421511Y-86525099D01*
X108306833Y-86310551D01*
X108152502Y-86122498D01*
X108003238Y-86000000D01*
X108152502Y-85877502D01*
X108306833Y-85689449D01*
X108421511Y-85474901D01*
X108492130Y-85242102D01*
X108515975Y-85000000D01*
X108492130Y-84757898D01*
X108421511Y-84525099D01*
X108306833Y-84310551D01*
X108152502Y-84122498D01*
X108002652Y-83999519D01*
X108066725Y-83956307D01*
X108238078Y-83783474D01*
X108372421Y-83580533D01*
X108464591Y-83355282D01*
X108468462Y-83317609D01*
X108343731Y-83127000D01*
X107127000Y-83127000D01*
X107127000Y-83147000D01*
X106873000Y-83147000D01*
X106873000Y-83127000D01*
X105656269Y-83127000D01*
X105531538Y-83317609D01*
X105535409Y-83355282D01*
X105627579Y-83580533D01*
X105761922Y-83783474D01*
X105933275Y-83956307D01*
X105997348Y-83999519D01*
X105847498Y-84122498D01*
X105693167Y-84310551D01*
X105578489Y-84525099D01*
X105507870Y-84757898D01*
X105484025Y-85000000D01*
X104210000Y-85000000D01*
X104210000Y-80649999D01*
X105486928Y-80649999D01*
X105486928Y-81350001D01*
X105503992Y-81523255D01*
X105554528Y-81689851D01*
X105636595Y-81843387D01*
X105747038Y-81977962D01*
X105881613Y-82088405D01*
X105886406Y-82090967D01*
X105761922Y-82216526D01*
X105627579Y-82419467D01*
X105535409Y-82644718D01*
X105531538Y-82682391D01*
X105656269Y-82873000D01*
X106873000Y-82873000D01*
X106873000Y-82853000D01*
X107127000Y-82853000D01*
X107127000Y-82873000D01*
X108343731Y-82873000D01*
X108468462Y-82682391D01*
X108464591Y-82644718D01*
X108372421Y-82419467D01*
X108238078Y-82216526D01*
X108113594Y-82090967D01*
X108118387Y-82088405D01*
X108252962Y-81977962D01*
X108363405Y-81843387D01*
X108445472Y-81689851D01*
X108496008Y-81523255D01*
X108513072Y-81350001D01*
X108513072Y-80649999D01*
X108496008Y-80476745D01*
X108445472Y-80310149D01*
X108363405Y-80156613D01*
X108252962Y-80022038D01*
X108118387Y-79911595D01*
X107964851Y-79829528D01*
X107798255Y-79778992D01*
X107625001Y-79761928D01*
X106374999Y-79761928D01*
X106201745Y-79778992D01*
X106035149Y-79829528D01*
X105881613Y-79911595D01*
X105747038Y-80022038D01*
X105636595Y-80156613D01*
X105554528Y-80310149D01*
X105503992Y-80476745D01*
X105486928Y-80649999D01*
X104210000Y-80649999D01*
X104210000Y-74000000D01*
X105484025Y-74000000D01*
X105507870Y-74242102D01*
X105578489Y-74474901D01*
X105693167Y-74689449D01*
X105847498Y-74877502D01*
X105996762Y-75000000D01*
X105847498Y-75122498D01*
X105693167Y-75310551D01*
X105578489Y-75525099D01*
X105507870Y-75757898D01*
X105484025Y-76000000D01*
X105507870Y-76242102D01*
X105578489Y-76474901D01*
X105693167Y-76689449D01*
X105847498Y-76877502D01*
X106035551Y-77031833D01*
X106250099Y-77146511D01*
X106482898Y-77217130D01*
X106664335Y-77235000D01*
X107335665Y-77235000D01*
X107517102Y-77217130D01*
X107749901Y-77146511D01*
X107964449Y-77031833D01*
X108152502Y-76877502D01*
X108306833Y-76689449D01*
X108421511Y-76474901D01*
X108492130Y-76242102D01*
X108515975Y-76000000D01*
X108492130Y-75757898D01*
X108421511Y-75525099D01*
X108306833Y-75310551D01*
X108152502Y-75122498D01*
X108003238Y-75000000D01*
X108152502Y-74877502D01*
X108306833Y-74689449D01*
X108421511Y-74474901D01*
X108492130Y-74242102D01*
X108515975Y-74000000D01*
X108492130Y-73757898D01*
X108421511Y-73525099D01*
X108306833Y-73310551D01*
X108152502Y-73122498D01*
X108113889Y-73090809D01*
X108118387Y-73088405D01*
X108252962Y-72977962D01*
X108363405Y-72843387D01*
X108445472Y-72689851D01*
X108496008Y-72523255D01*
X108513072Y-72350001D01*
X108513072Y-71649999D01*
X108496008Y-71476745D01*
X108445472Y-71310149D01*
X108363405Y-71156613D01*
X108252962Y-71022038D01*
X108118387Y-70911595D01*
X107964851Y-70829528D01*
X107798255Y-70778992D01*
X107625001Y-70761928D01*
X106374999Y-70761928D01*
X106201745Y-70778992D01*
X106035149Y-70829528D01*
X105881613Y-70911595D01*
X105747038Y-71022038D01*
X105636595Y-71156613D01*
X105554528Y-71310149D01*
X105503992Y-71476745D01*
X105486928Y-71649999D01*
X105486928Y-72350001D01*
X105503992Y-72523255D01*
X105554528Y-72689851D01*
X105636595Y-72843387D01*
X105747038Y-72977962D01*
X105881613Y-73088405D01*
X105886111Y-73090809D01*
X105847498Y-73122498D01*
X105693167Y-73310551D01*
X105578489Y-73525099D01*
X105507870Y-73757898D01*
X105484025Y-74000000D01*
X104210000Y-74000000D01*
X104210000Y-61534729D01*
X104228386Y-61347215D01*
X104272757Y-61200252D01*
X104344829Y-61064703D01*
X104441852Y-60945742D01*
X104560144Y-60847882D01*
X104695181Y-60774868D01*
X104841833Y-60729471D01*
X105027092Y-60710000D01*
X115972896Y-60710000D01*
X115926773Y-60756123D01*
M02*
